%!PS-Adobe-3.0 EPSF-3.0
%%Creator: cairo 1.16.0 (https://cairographics.org)
%%CreationDate: Wed Sep 30 14:00:38 2020
%%Pages: 1
%%DocumentData: Clean7Bit
%%LanguageLevel: 2
%%BoundingBox: 21 0 363 384
%%EndComments
%%BeginProlog
50 dict begin
/q { gsave } bind def
/Q { grestore } bind def
/cm { 6 array astore concat } bind def
/w { setlinewidth } bind def
/J { setlinecap } bind def
/j { setlinejoin } bind def
/M { setmiterlimit } bind def
/d { setdash } bind def
/m { moveto } bind def
/l { lineto } bind def
/c { curveto } bind def
/h { closepath } bind def
/re { exch dup neg 3 1 roll 5 3 roll moveto 0 rlineto
      0 exch rlineto 0 rlineto closepath } bind def
/S { stroke } bind def
/f { fill } bind def
/f* { eofill } bind def
/n { newpath } bind def
/W { clip } bind def
/W* { eoclip } bind def
/BT { } bind def
/ET { } bind def
/BDC { mark 3 1 roll /BDC pdfmark } bind def
/EMC { mark /EMC pdfmark } bind def
/cairo_store_point { /cairo_point_y exch def /cairo_point_x exch def } def
/Tj { show currentpoint cairo_store_point } bind def
/TJ {
  {
    dup
    type /stringtype eq
    { show } { -0.001 mul 0 cairo_font_matrix dtransform rmoveto } ifelse
  } forall
  currentpoint cairo_store_point
} bind def
/cairo_selectfont { cairo_font_matrix aload pop pop pop 0 0 6 array astore
    cairo_font exch selectfont cairo_point_x cairo_point_y moveto } bind def
/Tf { pop /cairo_font exch def /cairo_font_matrix where
      { pop cairo_selectfont } if } bind def
/Td { matrix translate cairo_font_matrix matrix concatmatrix dup
      /cairo_font_matrix exch def dup 4 get exch 5 get cairo_store_point
      /cairo_font where { pop cairo_selectfont } if } bind def
/Tm { 2 copy 8 2 roll 6 array astore /cairo_font_matrix exch def
      cairo_store_point /cairo_font where { pop cairo_selectfont } if } bind def
/g { setgray } bind def
/rg { setrgbcolor } bind def
/d1 { setcachedevice } bind def
/cairo_data_source {
  CairoDataIndex CairoData length lt
    { CairoData CairoDataIndex get /CairoDataIndex CairoDataIndex 1 add def }
    { () } ifelse
} def
/cairo_flush_ascii85_file { cairo_ascii85_file status { cairo_ascii85_file flushfile } if } def
/cairo_image { image cairo_flush_ascii85_file } def
/cairo_imagemask { imagemask cairo_flush_ascii85_file } def
%%EndProlog
%%BeginSetup
%%EndSetup
%%Page: 1 1
%%BeginPageSetup
%%PageBoundingBox: 21 0 363 384
%%EndPageSetup
q 21 0 342 384 rectclip
1 0 0 -1 0 384 cm q
0 g
360.496 23.703 m 338.988 2.195 l 337.582 0.789 335.676 0 333.688 0 c 331.695
 0 329.789 0.789 328.383 2.195 c 306.801 23.781 l 301.496 18.477 l 298.566
 15.547 293.82 15.547 290.891 18.477 c 287.961 21.402 287.961 26.152 290.891
 29.082 c 296.195 34.387 l 210.887 119.691 l 204.293 113.098 l 201.363 110.172
 196.613 110.172 193.684 113.098 c 193.613 113.172 l 185.465 105.027 l 184.059
 103.621 182.152 102.832 180.164 102.832 c 156.289 102.832 l 154.531 102.832
 152.832 103.449 151.48 104.574 c 66.867 175.277 l 64.059 177.625 63.352
 181.66 65.203 184.82 c 86.152 220.633 l 84.801 221.984 l 81.871 224.914
 81.871 229.66 84.801 232.59 c 90.184 237.977 l 23.504 304.656 l 20.574 
307.586 20.574 312.336 23.504 315.266 c 90.043 381.805 l 91.465 383.227 
93.379 384 95.348 384 c 95.871 384 96.398 383.945 96.926 383.832 c 99.414
 383.297 101.461 381.535 102.363 379.156 c 139.484 281.043 l 151.023 284.113
 l 176.758 360.547 l 177.418 362.5 178.848 364.098 180.723 364.961 c 182.594
 365.828 184.738 365.883 186.652 365.117 c 239.078 344.148 l 241.137 343.324
 242.727 341.633 243.418 339.527 c 244.109 337.422 243.836 335.121 242.672
 333.234 c 203.855 270.535 l 245.973 228.418 l 286.238 268.688 l 287.703
 270.152 289.621 270.883 291.543 270.883 c 293.461 270.883 295.383 270.148
 296.844 268.688 c 323.059 242.473 l 324.465 241.066 325.254 239.16 325.254
 237.172 c 325.254 235.18 324.465 233.273 323.059 231.867 c 249.059 157.867
 l 243.004 151.809 l 253.902 140.91 l 269.906 156.91 l 271.32 158.324 273.23
 159.109 275.211 159.109 c 275.391 159.109 275.57 159.102 275.75 159.09 
c 277.922 158.934 279.914 157.844 281.219 156.102 c 344.867 70.941 l 347.102
 67.953 346.801 63.781 344.164 61.145 c 338.914 55.898 l 360.496 34.316 
l 363.426 31.383 363.426 26.633 360.496 23.703 c h
233.148 163.168 m 134.867 261.445 l 123.094 249.668 l 132.008 240.754 l
 134.938 237.828 134.938 233.078 132.008 230.148 c 129.078 227.219 124.328
 227.219 121.398 230.148 c 112.484 239.062 l 100.711 227.289 l 170.055 157.945
 l 177.797 173.75 l 169.129 182.418 l 166.203 185.348 166.203 190.098 169.129
 193.027 c 170.594 194.488 172.516 195.223 174.434 195.223 c 176.352 195.223
 178.273 194.488 179.738 193.027 c 192.195 180.57 l 194.461 178.301 195.035
 174.844 193.625 171.965 c 181.266 146.734 l 198.988 129.012 l h
194.352 258.824 m 176.527 241 l 182.016 235.508 l 204.355 248.816 l h
81.352 182.719 m 159.012 117.832 l 177.055 117.832 l 183.004 123.777 l 
97.117 209.668 l h
92.441 362.988 m 39.414 309.961 l 100.789 248.582 l 126.141 273.93 l h
188.445 348.242 m 163.953 275.504 l 163.152 273.121 161.207 271.297 158.773
 270.648 c 149.375 268.148 l 165.918 251.605 l 188.43 274.117 l 225.215 
333.535 l h
215.301 237.875 m 192.961 224.566 l 217.539 199.988 l 235.363 217.812 l
 h
291.543 252.773 m 228.148 189.379 l 243.754 173.773 l 307.148 237.168 l
 h
232.395 141.199 m 221.492 130.301 l 232.395 119.398 l 243.297 130.301 l
 h
314.965 85.891 m 309.266 80.188 l 306.336 77.262 301.586 77.262 298.656
 80.188 c 295.727 83.117 295.727 87.867 298.656 90.797 c 305.891 98.031 
l 297.434 109.344 l 291.457 103.367 l 288.527 100.438 283.777 100.438 280.848
 103.367 c 277.922 106.297 277.922 111.043 280.848 113.973 c 288.359 121.484
 l 274.387 140.18 l 243 108.793 l 306.797 44.992 l 328.965 67.16 l h
328.309 45.289 m 317.406 34.387 l 333.688 18.105 l 344.586 29.008 l h
328.309 45.289 m f
150.574 204.086 m 150.566 204.086 l 146.426 204.086 143.07 207.445 143.07
 211.586 c 143.07 215.73 146.43 219.086 150.574 219.086 c 154.715 219.086
 158.074 215.73 158.074 211.586 c 158.074 207.445 154.715 204.086 150.574
 204.086 c h
150.574 204.086 m f
Q Q
showpage
%%Trailer
end
%%EOF
