%!PS-Adobe-3.0 EPSF-3.0
%%Creator: cairo 1.16.0 (https://cairographics.org)
%%CreationDate: Wed Sep 30 14:00:39 2020
%%Pages: 1
%%DocumentData: Clean7Bit
%%LanguageLevel: 2
%%BoundingBox: 0 0 384 384
%%EndComments
%%BeginProlog
50 dict begin
/q { gsave } bind def
/Q { grestore } bind def
/cm { 6 array astore concat } bind def
/w { setlinewidth } bind def
/J { setlinecap } bind def
/j { setlinejoin } bind def
/M { setmiterlimit } bind def
/d { setdash } bind def
/m { moveto } bind def
/l { lineto } bind def
/c { curveto } bind def
/h { closepath } bind def
/re { exch dup neg 3 1 roll 5 3 roll moveto 0 rlineto
      0 exch rlineto 0 rlineto closepath } bind def
/S { stroke } bind def
/f { fill } bind def
/f* { eofill } bind def
/n { newpath } bind def
/W { clip } bind def
/W* { eoclip } bind def
/BT { } bind def
/ET { } bind def
/BDC { mark 3 1 roll /BDC pdfmark } bind def
/EMC { mark /EMC pdfmark } bind def
/cairo_store_point { /cairo_point_y exch def /cairo_point_x exch def } def
/Tj { show currentpoint cairo_store_point } bind def
/TJ {
  {
    dup
    type /stringtype eq
    { show } { -0.001 mul 0 cairo_font_matrix dtransform rmoveto } ifelse
  } forall
  currentpoint cairo_store_point
} bind def
/cairo_selectfont { cairo_font_matrix aload pop pop pop 0 0 6 array astore
    cairo_font exch selectfont cairo_point_x cairo_point_y moveto } bind def
/Tf { pop /cairo_font exch def /cairo_font_matrix where
      { pop cairo_selectfont } if } bind def
/Td { matrix translate cairo_font_matrix matrix concatmatrix dup
      /cairo_font_matrix exch def dup 4 get exch 5 get cairo_store_point
      /cairo_font where { pop cairo_selectfont } if } bind def
/Tm { 2 copy 8 2 roll 6 array astore /cairo_font_matrix exch def
      cairo_store_point /cairo_font where { pop cairo_selectfont } if } bind def
/g { setgray } bind def
/rg { setrgbcolor } bind def
/d1 { setcachedevice } bind def
/cairo_data_source {
  CairoDataIndex CairoData length lt
    { CairoData CairoDataIndex get /CairoDataIndex CairoDataIndex 1 add def }
    { () } ifelse
} def
/cairo_flush_ascii85_file { cairo_ascii85_file status { cairo_ascii85_file flushfile } if } def
/cairo_image { image cairo_flush_ascii85_file } def
/cairo_imagemask { imagemask cairo_flush_ascii85_file } def
%%EndProlog
%%BeginSetup
%%EndSetup
%%Page: 1 1
%%BeginPageSetup
%%PageBoundingBox: 0 0 384 384
%%EndPageSetup
q 0 0 384 384 rectclip
1 0 0 -1 0 384 cm q
0 g
86.094 132.406 m 72.977 140.652 61.711 151.219 52.613 163.812 c 50.184 
167.168 50.941 171.859 54.297 174.285 c 55.625 175.246 57.16 175.707 58.684
 175.707 c 61.008 175.707 63.301 174.629 64.77 172.598 c 72.738 161.574 
82.598 152.32 94.078 145.105 c 97.586 142.898 98.641 138.27 96.434 134.762
 c 94.23 131.258 89.598 130.203 86.094 132.406 c h
86.094 132.406 m f
316.465 0 m 312.324 0 308.965 3.359 308.965 7.5 c 308.965 30 l 308.965 
34.141 312.324 37.5 316.465 37.5 c 320.605 37.5 323.965 34.141 323.965 30
 c 323.965 7.5 l 323.965 3.359 320.605 0 316.465 0 c h
316.465 0 m f
284.645 46.285 m 286.109 47.75 288.027 48.484 289.949 48.484 c 291.867 
48.484 293.785 47.75 295.25 46.285 c 298.18 43.359 298.18 38.609 295.25 
35.68 c 279.344 19.77 l 276.414 16.844 271.664 16.844 268.734 19.77 c 265.805
 22.699 265.805 27.449 268.734 30.379 c h
284.645 46.285 m f
348.285 88.711 m 345.355 85.785 340.605 85.785 337.676 88.711 c 334.75 
91.641 334.75 96.391 337.676 99.32 c 353.586 115.23 l 355.051 116.695 356.973
 117.426 358.891 117.426 c 360.809 117.426 362.73 116.695 364.191 115.23
 c 367.121 112.301 367.121 107.551 364.191 104.621 c h
348.285 88.711 m f
376.465 60 m 353.965 60 l 349.824 60 346.465 63.359 346.465 67.5 c 346.465
 71.641 349.824 75 353.965 75 c 376.465 75 l 380.605 75 383.965 71.641 383.965
 67.5 c 383.965 63.359 380.605 60 376.465 60 c h
376.465 60 m f
342.98 48.484 m 344.902 48.484 346.82 47.75 348.285 46.285 c 364.195 30.379
 l 367.121 27.449 367.121 22.699 364.195 19.77 c 361.266 16.844 356.516 
16.844 353.586 19.77 c 337.676 35.68 l 334.75 38.609 334.75 43.355 337.676
 46.285 c 339.145 47.75 341.062 48.484 342.98 48.484 c h
342.98 48.484 m f
316.465 60 m 292.566 60 289.188 75.051 286.949 85.008 c 285.055 93.457 
283.633 99.777 273.926 103.406 c 256.629 86.105 l 252.391 81.867 246.738
 79.531 240.719 79.531 c 234.695 79.531 229.047 81.867 224.809 86.105 c 
213.039 97.875 l 186.328 85.477 156.863 81.266 127.48 85.691 c 95.637 90.492
 66.734 105.098 43.898 127.934 c -14.586 186.418 -14.586 281.582 43.898 
340.066 c 72.23 368.398 109.898 384 149.965 384 c 190.031 384 227.699 368.398
 256.031 340.066 c 278.867 317.23 293.477 288.328 298.273 256.484 c 302.703
 227.102 298.492 197.637 286.094 170.926 c 297.863 159.16 l 306.633 150.387
 306.633 136.113 297.863 127.34 c 285.148 114.625 l 297.258 107.543 299.793
 96.277 301.586 88.293 c 303.82 78.352 304.57 75 316.465 75 c 320.605 75
 323.965 71.641 323.965 67.5 c 323.965 63.359 320.605 60 316.465 60 c h
287.254 148.551 m 271.707 164.098 l 269.41 166.395 268.852 169.906 270.324
 172.801 c 296.898 225.035 286.891 287.992 245.422 329.457 c 219.926 354.957
 186.023 369 149.965 369 c 113.906 369 80.004 354.957 54.504 329.457 c 1.867
 276.824 1.867 191.176 54.504 138.539 c 80.508 112.539 114.957 98.906 149.918
 98.906 c 170.711 98.906 191.684 103.73 211.164 113.641 c 214.059 115.109
 217.57 114.555 219.867 112.258 c 235.414 96.711 l 236.816 95.305 238.703
 94.531 240.715 94.531 c 242.73 94.531 244.613 95.305 246.02 96.711 c 287.254
 137.945 l 290.18 140.867 290.18 145.625 287.254 148.551 c h
287.254 148.551 m f
121.039 117.785 m 121.031 117.785 l 116.891 117.785 113.535 121.141 113.535
 125.285 c 113.535 129.426 116.895 132.785 121.039 132.785 c 125.18 132.785
 128.539 129.426 128.539 125.285 c 128.539 121.141 125.18 117.785 121.039
 117.785 c h
121.039 117.785 m f
Q Q
showpage
%%Trailer
end
%%EOF
