%!PS-Adobe-3.0 EPSF-3.0
%%Creator: cairo 1.16.0 (https://cairographics.org)
%%CreationDate: Wed Sep 30 14:00:40 2020
%%Pages: 1
%%DocumentData: Clean7Bit
%%LanguageLevel: 2
%%BoundingBox: 6 0 378 384
%%EndComments
%%BeginProlog
50 dict begin
/q { gsave } bind def
/Q { grestore } bind def
/cm { 6 array astore concat } bind def
/w { setlinewidth } bind def
/J { setlinecap } bind def
/j { setlinejoin } bind def
/M { setmiterlimit } bind def
/d { setdash } bind def
/m { moveto } bind def
/l { lineto } bind def
/c { curveto } bind def
/h { closepath } bind def
/re { exch dup neg 3 1 roll 5 3 roll moveto 0 rlineto
      0 exch rlineto 0 rlineto closepath } bind def
/S { stroke } bind def
/f { fill } bind def
/f* { eofill } bind def
/n { newpath } bind def
/W { clip } bind def
/W* { eoclip } bind def
/BT { } bind def
/ET { } bind def
/BDC { mark 3 1 roll /BDC pdfmark } bind def
/EMC { mark /EMC pdfmark } bind def
/cairo_store_point { /cairo_point_y exch def /cairo_point_x exch def } def
/Tj { show currentpoint cairo_store_point } bind def
/TJ {
  {
    dup
    type /stringtype eq
    { show } { -0.001 mul 0 cairo_font_matrix dtransform rmoveto } ifelse
  } forall
  currentpoint cairo_store_point
} bind def
/cairo_selectfont { cairo_font_matrix aload pop pop pop 0 0 6 array astore
    cairo_font exch selectfont cairo_point_x cairo_point_y moveto } bind def
/Tf { pop /cairo_font exch def /cairo_font_matrix where
      { pop cairo_selectfont } if } bind def
/Td { matrix translate cairo_font_matrix matrix concatmatrix dup
      /cairo_font_matrix exch def dup 4 get exch 5 get cairo_store_point
      /cairo_font where { pop cairo_selectfont } if } bind def
/Tm { 2 copy 8 2 roll 6 array astore /cairo_font_matrix exch def
      cairo_store_point /cairo_font where { pop cairo_selectfont } if } bind def
/g { setgray } bind def
/rg { setrgbcolor } bind def
/d1 { setcachedevice } bind def
/cairo_data_source {
  CairoDataIndex CairoData length lt
    { CairoData CairoDataIndex get /CairoDataIndex CairoDataIndex 1 add def }
    { () } ifelse
} def
/cairo_flush_ascii85_file { cairo_ascii85_file status { cairo_ascii85_file flushfile } if } def
/cairo_image { image cairo_flush_ascii85_file } def
/cairo_imagemask { imagemask cairo_flush_ascii85_file } def
%%EndProlog
%%BeginSetup
%%EndSetup
%%Page: 1 1
%%BeginPageSetup
%%PageBoundingBox: 6 0 378 384
%%EndPageSetup
q 6 0 372 384 rectclip
1 0 0 -1 0 384 cm q
0 g
375.289 2.129 m 372.32 -0.762 367.574 -0.699 364.684 2.266 c 311.129 57.207
 l 304.895 50.973 l 300.598 46.672 294.863 44.305 288.75 44.305 c 282.641
 44.305 276.906 46.672 272.605 50.973 c 147.785 175.797 l 136.734 164.746
 l 153.086 148.395 l 156.016 145.465 156.016 140.715 153.086 137.785 c 131.434
 116.129 l 128.504 113.203 123.754 113.203 120.824 116.129 c 102.055 134.898
 l 99.125 137.828 99.125 142.578 102.055 145.504 c 104.984 148.434 109.734
 148.434 112.664 145.504 c 126.129 132.039 l 137.176 143.09 l 62.52 217.746
 l 51.473 206.695 l 64.934 193.234 l 67.863 190.305 67.863 185.559 64.934
 182.629 c 62.004 179.699 57.258 179.699 54.324 182.629 c 35.562 201.395
 l 32.633 204.32 32.633 209.07 35.562 212 c 57.215 233.656 l 58.68 235.121
 60.602 235.852 62.52 235.852 c 64.438 235.852 66.359 235.121 67.824 233.656
 c 84.176 217.301 l 95.227 228.352 l 78.871 244.707 l 76.656 246.922 76.066
 250.262 77.344 253.09 c 11.746 318.691 l 5.418 325.02 4.664 335.141 9.992
 342.242 c 36.789 377.941 l 39.723 381.852 43.797 384 48.266 384 c 48.395
 384 l 53.457 383.953 58.406 381.098 61.969 376.164 c 108.059 312.395 l 
108.969 314.145 l 110.77 317.625 114.129 319.969 118.176 320.578 c 118.879
 320.684 119.594 320.734 120.312 320.734 c 124.52 320.734 128.859 318.969
 131.82 315.949 c 146.156 301.336 l 151.465 295.926 153.508 287.945 151.621
 279.988 c 144.449 249.703 l 161.414 232.301 l 178.691 249.578 l 180.098
 250.984 182.004 251.773 183.992 251.773 c 185.98 251.773 187.891 250.984
 189.297 249.578 c 218.535 220.34 l 221.32 217.551 221.477 213.082 218.887
 210.109 c 201.977 190.688 l 375.422 12.734 l 378.316 9.77 378.254 5.02 
375.289 2.129 c h
94.785 206.695 m 126.129 175.352 l 137.176 186.402 l 105.832 217.746 l 
h
49.812 367.379 m 49.352 368.016 48.922 368.43 48.598 368.688 c 21.988 333.238
 l 21.508 332.598 20.934 330.719 22.352 329.301 c 84.574 267.078 l 100.328
 297.477 l h
135.445 290.832 m 121.27 305.285 l 110.512 284.523 l 132.047 262.426 l 
137.027 283.445 l 137.715 286.359 137.125 289.117 135.445 290.832 c h
103.238 270.492 m 93.359 251.43 l 169.062 175.73 l 181.586 190.113 l h
202.98 214.68 m 183.992 233.664 l 171.887 221.559 l 191.469 201.465 l h
179.695 165.098 m 229.941 114.852 l 242.602 127.512 l 192.09 179.336 l 
h
253.074 116.77 m 240.547 104.246 l 283.211 61.582 l 284.68 60.113 286.645
 59.305 288.75 59.305 c 290.855 59.305 292.824 60.113 294.289 61.582 c 300.66
 67.949 l h
253.074 116.77 m f
83.488 171.57 m 85.531 171.57 87.562 170.742 89.043 169.113 c 89.047 169.109
 l 91.832 166.047 91.605 161.305 88.539 158.52 c 85.473 155.734 80.73 155.961
 77.941 159.023 c 75.156 162.09 75.383 166.832 78.445 169.621 c 79.887 170.926
 81.691 171.57 83.488 171.57 c h
83.488 171.57 m f
Q Q
showpage
%%Trailer
end
%%EOF
