%!PS-Adobe-3.0 EPSF-3.0
%%Creator: cairo 1.16.0 (https://cairographics.org)
%%CreationDate: Wed Sep 30 14:00:40 2020
%%Pages: 1
%%DocumentData: Clean7Bit
%%LanguageLevel: 2
%%BoundingBox: 0 0 384 384
%%EndComments
%%BeginProlog
50 dict begin
/q { gsave } bind def
/Q { grestore } bind def
/cm { 6 array astore concat } bind def
/w { setlinewidth } bind def
/J { setlinecap } bind def
/j { setlinejoin } bind def
/M { setmiterlimit } bind def
/d { setdash } bind def
/m { moveto } bind def
/l { lineto } bind def
/c { curveto } bind def
/h { closepath } bind def
/re { exch dup neg 3 1 roll 5 3 roll moveto 0 rlineto
      0 exch rlineto 0 rlineto closepath } bind def
/S { stroke } bind def
/f { fill } bind def
/f* { eofill } bind def
/n { newpath } bind def
/W { clip } bind def
/W* { eoclip } bind def
/BT { } bind def
/ET { } bind def
/BDC { mark 3 1 roll /BDC pdfmark } bind def
/EMC { mark /EMC pdfmark } bind def
/cairo_store_point { /cairo_point_y exch def /cairo_point_x exch def } def
/Tj { show currentpoint cairo_store_point } bind def
/TJ {
  {
    dup
    type /stringtype eq
    { show } { -0.001 mul 0 cairo_font_matrix dtransform rmoveto } ifelse
  } forall
  currentpoint cairo_store_point
} bind def
/cairo_selectfont { cairo_font_matrix aload pop pop pop 0 0 6 array astore
    cairo_font exch selectfont cairo_point_x cairo_point_y moveto } bind def
/Tf { pop /cairo_font exch def /cairo_font_matrix where
      { pop cairo_selectfont } if } bind def
/Td { matrix translate cairo_font_matrix matrix concatmatrix dup
      /cairo_font_matrix exch def dup 4 get exch 5 get cairo_store_point
      /cairo_font where { pop cairo_selectfont } if } bind def
/Tm { 2 copy 8 2 roll 6 array astore /cairo_font_matrix exch def
      cairo_store_point /cairo_font where { pop cairo_selectfont } if } bind def
/g { setgray } bind def
/rg { setrgbcolor } bind def
/d1 { setcachedevice } bind def
/cairo_data_source {
  CairoDataIndex CairoData length lt
    { CairoData CairoDataIndex get /CairoDataIndex CairoDataIndex 1 add def }
    { () } ifelse
} def
/cairo_flush_ascii85_file { cairo_ascii85_file status { cairo_ascii85_file flushfile } if } def
/cairo_image { image cairo_flush_ascii85_file } def
/cairo_imagemask { imagemask cairo_flush_ascii85_file } def
%%EndProlog
%%BeginSetup
%%EndSetup
%%Page: 1 1
%%BeginPageSetup
%%PageBoundingBox: 0 0 384 384
%%EndPageSetup
q 0 0 384 384 rectclip
1 0 0 -1 0 384 cm q
0 g
337.664 99.328 m 309.387 127.609 l 298.777 117.004 l 369.484 46.297 l 373.344
 42.441 377.891 35.055 380.805 27.922 c 385.293 16.926 385.051 8.836 380.094
 3.875 c 369.141 -7.074 343.844 8.305 337.668 14.48 c 266.961 85.188 l 256.355
 74.582 l 284.637 46.301 l 288.492 42.445 293.043 35.059 295.953 27.922 
c 300.441 16.926 300.203 8.836 295.242 3.875 c 284.293 -7.074 258.996 8.309
 252.82 14.48 c 219.234 48.066 l 212.176 55.125 208.289 64.543 208.289 74.578
 c 208.289 84.617 212.176 94.035 219.234 101.094 c 235.145 117.004 l 203.645
 148.5 l 200.719 151.43 200.719 156.176 203.645 159.105 c 206.574 162.035
 211.324 162.035 214.254 159.105 c 251.051 122.309 l 253.98 119.379 253.98
 114.629 251.051 111.699 c 229.84 90.488 l 225.613 86.262 223.289 80.613
 223.289 74.578 c 223.289 68.547 225.613 62.895 229.84 58.672 c 263.426 
25.086 l 267.785 20.723 279.328 15.234 284.176 14.941 c 283.883 19.789 278.395
 31.332 274.031 35.691 c 240.445 69.277 l 237.52 72.203 237.52 76.953 240.445
 79.883 c 261.66 101.094 l 263.066 102.5 264.973 103.293 266.961 103.293
 c 268.949 103.293 270.855 102.5 272.266 101.094 c 348.273 25.086 l 352.637
 20.723 364.176 15.23 369.023 14.941 c 368.734 19.789 363.242 31.328 358.879
 35.691 c 282.871 111.703 l 279.941 114.629 279.941 119.379 282.871 122.309
 c 304.082 143.52 l 307.012 146.449 311.758 146.449 314.688 143.52 c 348.27
 109.938 l 352.633 105.574 364.176 100.082 369.023 99.793 c 368.73 104.641
 363.238 116.18 358.879 120.543 c 325.293 154.125 l 316.523 162.898 302.25
 162.898 293.477 154.125 c 272.266 132.914 l 270.859 131.508 268.949 130.719
 266.961 130.719 c 264.973 130.719 263.066 131.508 261.66 132.914 c 144.461
 250.113 l 133.852 239.504 l 166.523 206.832 l 169.453 203.906 169.453 199.156
 166.523 196.227 c 163.598 193.301 158.848 193.297 155.918 196.227 c 123.246
 228.898 l 117.945 223.598 l 113.707 219.359 108.055 217.023 102.035 217.023
 c 96.016 217.023 90.363 219.359 86.125 223.598 c 81.887 227.832 79.555 
233.484 79.555 239.504 c 79.555 243.105 80.395 246.566 81.969 249.68 c 31.668
 309.125 l 23.402 305.438 13.352 306.977 6.578 313.75 c -2.195 322.52 -2.195
 336.793 6.578 345.566 c 38.398 377.387 l 42.637 381.625 48.285 383.957 
54.309 383.957 c 60.328 383.957 65.977 381.625 70.215 377.387 c 74.453 373.148
 76.789 367.496 76.789 361.477 c 76.789 358.254 76.113 355.141 74.844 352.293
 c 134.285 301.996 l 137.398 303.57 140.859 304.41 144.461 304.41 c 150.48
 304.41 156.133 302.078 160.371 297.84 c 164.605 293.602 166.941 287.949
 166.941 281.93 c 166.941 275.91 164.609 270.258 160.371 266.02 c 155.066
 260.719 l 266.961 148.824 l 282.871 164.73 l 297.492 179.352 321.281 179.352
 335.902 164.73 c 369.484 131.148 l 375.66 124.973 391.039 99.672 380.09
 88.723 c 369.137 77.77 343.84 93.152 337.664 99.328 c h
111.297 301.797 m 82.168 272.668 l 91.891 261.18 l 122.785 292.074 l h
88.316 321.242 m 62.723 295.648 l 72.445 284.16 l 99.805 311.52 l h
43.277 318.629 m 53 307.137 l 76.824 330.965 l 65.336 340.688 l h
59.609 366.781 m 58.203 368.184 56.32 368.957 54.309 368.957 c 52.293 368.957
 50.41 368.184 49.004 366.781 c 17.188 334.961 l 15.781 333.555 15.008 331.672
 15.008 329.66 c 15.008 327.645 15.781 325.762 17.188 324.355 c 18.59 322.949
 20.473 322.176 22.488 322.176 c 24.504 322.176 26.387 322.949 27.793 324.355
 c 59.609 356.172 l 61.016 357.578 61.789 359.461 61.789 361.477 c 61.789
 363.492 61.016 365.375 59.609 366.781 c h
149.762 287.234 m 146.84 290.156 142.082 290.156 139.156 287.234 c 96.734
 244.809 l 93.809 241.883 93.809 237.125 96.734 234.203 c 98.195 232.738
 100.113 232.008 102.035 232.008 c 103.957 232.008 105.875 232.742 107.34
 234.203 c 149.762 276.625 l 152.688 279.551 152.688 284.309 149.762 287.234
 c h
149.762 287.234 m f
185.082 185.168 m 187.121 185.168 189.152 184.344 190.633 182.715 c 190.637
 182.711 l 193.422 179.645 193.195 174.906 190.129 172.117 c 187.066 169.332
 182.32 169.559 179.535 172.625 c 176.75 175.691 176.973 180.434 180.039
 183.219 c 181.477 184.523 183.281 185.168 185.082 185.168 c h
185.082 185.168 m f
Q Q
showpage
%%Trailer
end
%%EOF
