%!PS-Adobe-3.0 EPSF-3.0
%%Creator: cairo 1.16.0 (https://cairographics.org)
%%CreationDate: Wed Sep 30 14:00:41 2020
%%Pages: 1
%%DocumentData: Clean7Bit
%%LanguageLevel: 2
%%BoundingBox: 0 0 384 384
%%EndComments
%%BeginProlog
50 dict begin
/q { gsave } bind def
/Q { grestore } bind def
/cm { 6 array astore concat } bind def
/w { setlinewidth } bind def
/J { setlinecap } bind def
/j { setlinejoin } bind def
/M { setmiterlimit } bind def
/d { setdash } bind def
/m { moveto } bind def
/l { lineto } bind def
/c { curveto } bind def
/h { closepath } bind def
/re { exch dup neg 3 1 roll 5 3 roll moveto 0 rlineto
      0 exch rlineto 0 rlineto closepath } bind def
/S { stroke } bind def
/f { fill } bind def
/f* { eofill } bind def
/n { newpath } bind def
/W { clip } bind def
/W* { eoclip } bind def
/BT { } bind def
/ET { } bind def
/BDC { mark 3 1 roll /BDC pdfmark } bind def
/EMC { mark /EMC pdfmark } bind def
/cairo_store_point { /cairo_point_y exch def /cairo_point_x exch def } def
/Tj { show currentpoint cairo_store_point } bind def
/TJ {
  {
    dup
    type /stringtype eq
    { show } { -0.001 mul 0 cairo_font_matrix dtransform rmoveto } ifelse
  } forall
  currentpoint cairo_store_point
} bind def
/cairo_selectfont { cairo_font_matrix aload pop pop pop 0 0 6 array astore
    cairo_font exch selectfont cairo_point_x cairo_point_y moveto } bind def
/Tf { pop /cairo_font exch def /cairo_font_matrix where
      { pop cairo_selectfont } if } bind def
/Td { matrix translate cairo_font_matrix matrix concatmatrix dup
      /cairo_font_matrix exch def dup 4 get exch 5 get cairo_store_point
      /cairo_font where { pop cairo_selectfont } if } bind def
/Tm { 2 copy 8 2 roll 6 array astore /cairo_font_matrix exch def
      cairo_store_point /cairo_font where { pop cairo_selectfont } if } bind def
/g { setgray } bind def
/rg { setrgbcolor } bind def
/d1 { setcachedevice } bind def
/cairo_data_source {
  CairoDataIndex CairoData length lt
    { CairoData CairoDataIndex get /CairoDataIndex CairoDataIndex 1 add def }
    { () } ifelse
} def
/cairo_flush_ascii85_file { cairo_ascii85_file status { cairo_ascii85_file flushfile } if } def
/cairo_image { image cairo_flush_ascii85_file } def
/cairo_imagemask { imagemask cairo_flush_ascii85_file } def
%%EndProlog
%%BeginSetup
%%EndSetup
%%Page: 1 1
%%BeginPageSetup
%%PageBoundingBox: 0 0 384 384
%%EndPageSetup
q 0 0 384 384 rectclip
1 0 0 -1 0 384 cm q
0 g
383.527 10.562 m 382.562 6.887 380.223 3.816 376.934 1.914 c 373.641 0.008
 369.801 -0.496 366.105 0.5 c 305.156 17.035 l 301.387 17.992 298.133 20.473
 296.219 23.867 c 294.34 27.191 293.875 31.043 294.902 34.707 c 295.926 
38.359 298.312 41.391 301.617 43.238 c 319.91 53.484 l 275.309 98.086 l 
251.238 75.863 221.77 60.355 189.637 53.07 c 156.031 45.453 121.168 47.195
 88.621 58.102 c 77.773 54.172 65.5 56.805 57.199 65.105 c 46.301 76.004
 45.562 93.27 54.973 105.035 c 54.453 155.074 l 54.41 159.219 57.734 162.609
 61.875 162.652 c 61.902 162.652 61.93 162.652 61.957 162.652 c 66.062 162.652
 69.41 159.348 69.453 155.23 c 69.871 115.09 l 72.609 115.898 75.477 116.32
 78.41 116.32 c 86.426 116.32 93.957 113.199 99.625 107.535 c 101.879 105.281
 103.727 102.738 105.148 99.949 c 153.695 84.52 205.77 95.902 243.465 129.93
 c 95.566 277.828 l 76.477 268.789 l 73.559 267.406 70.836 266.547 68.305
 266.184 c 68.754 222.719 l 68.797 218.578 65.473 215.184 61.332 215.141
 c 61.305 215.141 61.281 215.141 61.254 215.141 c 57.148 215.141 53.797 
218.449 53.758 222.562 c 53.238 272.426 l 5.16 320.504 l 1.246 324.422 -0.691
 330.375 0.227 335.676 c 0.961 339.926 3.523 343.379 7.254 345.145 c 28.699
 355.305 l 38.855 376.746 l 40.621 380.477 44.074 383.039 48.324 383.773
 c 49.199 383.926 50.09 384 50.988 384 c 55.535 384 60.227 382.109 63.496
 378.84 c 111.574 330.762 l 278.965 329.027 l 284.262 333.277 290.793 335.586
 297.684 335.586 c 305.695 335.586 313.227 332.469 318.895 326.801 c 327.195
 318.5 329.828 306.227 325.898 295.379 c 336.805 262.832 338.551 227.969
 330.934 194.363 c 323.645 162.23 308.137 132.762 285.918 108.691 c 330.52
 64.09 l 340.762 82.379 l 342.609 85.684 345.785 88.145 349.473 89.129 c
 350.688 89.453 351.91 89.609 353.117 89.609 c 359.379 89.609 365.152 85.426
 366.883 79.09 c 383.324 18.5 l 384.148 15.922 384.219 13.184 383.527 10.562
 c h
148.133 78.285 m 130.887 78.285 113.68 81.129 97.18 86.781 c 95.016 87.523
 93.309 89.211 92.543 91.363 c 91.797 93.461 90.609 95.332 89.02 96.926 
c 86.188 99.758 82.418 101.32 78.414 101.32 c 74.406 101.32 70.641 99.758
 67.805 96.926 c 61.957 91.078 61.957 81.562 67.805 75.711 c 72.352 71.168
 79.273 70.02 85.039 72.855 c 86.848 73.746 88.938 73.867 90.84 73.199 c
 119.59 63.066 150.066 61.027 179.141 66.352 c 176.199 80.828 l 166.902 
79.141 157.512 78.285 148.133 78.285 c h
190.82 84.203 m 193.77 69.688 l 219.824 76.816 244.262 90 264.691 108.703
 c 254.078 119.316 l 235.969 102.84 214.336 90.836 190.82 84.203 c h
284.055 278.852 m 281.262 280.273 278.723 282.121 276.469 284.375 c 268.43
 292.418 265.914 303.922 268.93 314.129 c 117.816 315.695 l 117.453 313.164
 116.594 310.441 115.211 307.523 c 106.172 288.438 l 254.074 140.535 l 288.102
 178.23 299.484 230.305 284.055 278.852 c h
15.77 331.109 m 65.926 280.953 l 66.32 280.961 67.473 281.121 70.055 282.344
 c 84.305 289.094 l 75.191 298.203 l 70.465 295.961 l 66.723 294.188 62.25
 295.785 60.477 299.531 c 58.723 303.234 60.273 307.652 63.938 309.461 c
 54.195 319.203 l 49.465 316.961 l 45.723 315.188 41.25 316.785 39.477 320.531
 c 37.723 324.234 39.273 328.652 42.938 330.461 c 32.766 340.629 l 15.137
 332.281 l 15.27 331.852 15.492 331.387 15.77 331.109 c h
52.891 368.234 m 52.613 368.512 52.148 368.734 51.719 368.867 c 43.371 
351.238 l 53.543 341.066 l 54.848 343.703 57.496 345.25 60.266 345.25 c 
61.344 345.25 62.434 345.016 63.469 344.527 c 67.215 342.754 68.812 338.281
 67.039 334.539 c 64.801 329.809 l 74.543 320.066 l 75.844 322.703 78.496
 324.25 81.266 324.25 c 82.344 324.25 83.434 324.02 84.469 323.527 c 88.215
 321.754 89.812 317.281 88.039 313.539 c 85.797 308.812 l 94.91 299.703 
l 101.656 313.949 l 102.883 316.535 103.039 317.688 103.047 318.078 c h
310.801 293.16 m 310.129 295.062 310.254 297.152 311.145 298.965 c 313.98
 304.727 312.832 311.648 308.289 316.195 c 305.453 319.027 301.688 320.586
 297.68 320.586 c 293.676 320.586 289.906 319.027 287.074 316.195 c 284.242
 313.363 282.68 309.594 282.68 305.586 c 282.68 301.582 284.242 297.816 
287.074 294.98 c 288.664 293.391 290.539 292.203 292.637 291.457 c 294.793
 290.691 296.477 288.984 297.219 286.82 c 305.945 261.344 307.973 234.184
 303.18 207.801 c 317.648 204.859 l 322.977 233.938 320.934 264.414 310.801
 293.16 c h
314.316 190.23 m 299.797 193.184 l 293.164 169.664 281.16 148.031 264.684
 129.922 c 275.297 119.309 l 294 139.742 307.188 164.176 314.316 190.23 
c h
352.898 73.355 m 338.762 48.117 l 338.086 46.91 337.09 45.914 335.883 45.238
 c 310.629 31.094 l 368.633 15.355 l h
352.898 73.355 m f
61.605 196.398 m 65.746 196.398 69.105 193.039 69.105 188.898 c 69.105 
184.754 65.746 181.398 61.605 181.398 c 61.598 181.398 l 57.457 181.398 
54.102 184.754 54.102 188.898 c 54.102 193.039 57.465 196.398 61.605 196.398
 c h
61.605 196.398 m f
Q Q
showpage
%%Trailer
end
%%EOF
