%!PS-Adobe-3.0 EPSF-3.0
%%Creator: cairo 1.16.0 (https://cairographics.org)
%%CreationDate: Wed Sep 30 14:00:43 2020
%%Pages: 1
%%DocumentData: Clean7Bit
%%LanguageLevel: 2
%%BoundingBox: 19 0 365 384
%%EndComments
%%BeginProlog
50 dict begin
/q { gsave } bind def
/Q { grestore } bind def
/cm { 6 array astore concat } bind def
/w { setlinewidth } bind def
/J { setlinecap } bind def
/j { setlinejoin } bind def
/M { setmiterlimit } bind def
/d { setdash } bind def
/m { moveto } bind def
/l { lineto } bind def
/c { curveto } bind def
/h { closepath } bind def
/re { exch dup neg 3 1 roll 5 3 roll moveto 0 rlineto
      0 exch rlineto 0 rlineto closepath } bind def
/S { stroke } bind def
/f { fill } bind def
/f* { eofill } bind def
/n { newpath } bind def
/W { clip } bind def
/W* { eoclip } bind def
/BT { } bind def
/ET { } bind def
/BDC { mark 3 1 roll /BDC pdfmark } bind def
/EMC { mark /EMC pdfmark } bind def
/cairo_store_point { /cairo_point_y exch def /cairo_point_x exch def } def
/Tj { show currentpoint cairo_store_point } bind def
/TJ {
  {
    dup
    type /stringtype eq
    { show } { -0.001 mul 0 cairo_font_matrix dtransform rmoveto } ifelse
  } forall
  currentpoint cairo_store_point
} bind def
/cairo_selectfont { cairo_font_matrix aload pop pop pop 0 0 6 array astore
    cairo_font exch selectfont cairo_point_x cairo_point_y moveto } bind def
/Tf { pop /cairo_font exch def /cairo_font_matrix where
      { pop cairo_selectfont } if } bind def
/Td { matrix translate cairo_font_matrix matrix concatmatrix dup
      /cairo_font_matrix exch def dup 4 get exch 5 get cairo_store_point
      /cairo_font where { pop cairo_selectfont } if } bind def
/Tm { 2 copy 8 2 roll 6 array astore /cairo_font_matrix exch def
      cairo_store_point /cairo_font where { pop cairo_selectfont } if } bind def
/g { setgray } bind def
/rg { setrgbcolor } bind def
/d1 { setcachedevice } bind def
/cairo_data_source {
  CairoDataIndex CairoData length lt
    { CairoData CairoDataIndex get /CairoDataIndex CairoDataIndex 1 add def }
    { () } ifelse
} def
/cairo_flush_ascii85_file { cairo_ascii85_file status { cairo_ascii85_file flushfile } if } def
/cairo_image { image cairo_flush_ascii85_file } def
/cairo_imagemask { imagemask cairo_flush_ascii85_file } def
%%EndProlog
%%BeginSetup
%%EndSetup
%%Page: 1 1
%%BeginPageSetup
%%PageBoundingBox: 19 0 365 384
%%EndPageSetup
q 19 0 346 384 rectclip
1 0 0 -1 0 384 cm q
0 g
356.668 178.02 m 316.238 178.02 281.566 153.938 268.18 143.258 c 311.973
 99.465 l 312.961 98.477 313.652 97.234 313.973 95.875 c 317.195 82.121 
l 362.273 37.043 l 363.68 35.637 364.473 33.73 364.473 31.742 c 364.473 
29.754 363.68 27.844 362.273 26.438 c 338.031 2.195 l 336.625 0.789 334.719
 0 332.727 0 c 330.738 0 328.832 0.789 327.426 2.195 c 306.211 23.41 l 300.91
 18.105 l 297.98 15.18 293.23 15.18 290.301 18.105 c 287.371 21.035 287.371
 25.785 290.301 28.715 c 295.605 34.02 l 226.824 102.797 l 224.043 100.016
 l 214.352 90.328 200.496 90.645 190.348 100.793 c 89.406 201.73 l 88 203.137
 87.211 205.047 87.211 207.035 c 87.211 231.273 l 87.211 233.266 88 235.172
 89.406 236.578 c 92.855 240.027 l 84.52 257.52 l 46.688 280.219 l 45.594
 280.875 44.688 281.797 44.051 282.902 c 20.535 323.633 l 18.836 326.574
 19.328 330.285 21.727 332.688 c 70.844 381.801 l 72.262 383.219 74.172 
384 76.145 384 c 76.527 384 76.91 383.969 77.289 383.91 c 79.652 383.547
 81.699 382.078 82.801 379.957 c 135.473 278.539 l 151.078 285.844 l 177.453
 350 l 180.031 356.266 185.281 361.531 191.16 363.73 c 193.273 364.523 195.445
 364.918 197.59 364.918 c 200.262 364.918 202.895 364.309 205.332 363.09
 c 230.422 350.543 l 230.555 350.477 230.688 350.406 230.816 350.332 c 246.105
 341.504 243.57 329.129 238.75 320.301 c 210.621 268.766 l 244.477 234.91
 l 245.469 233.918 246.16 232.668 246.48 231.301 c 249.441 218.496 l 271.637
 233.312 291.363 240.418 305.945 243.789 c 330.641 249.5 346.668 246.176
 347.336 246.031 c 350.242 245.406 352.508 243.121 353.102 240.207 c 364.012
 187.027 l 364.465 184.82 363.902 182.527 362.477 180.781 c 361.051 179.035
 358.922 178.02 356.668 178.02 c h
332.727 18.105 m 346.363 31.742 l 330.453 47.652 l 316.816 34.016 l h
319.844 58.258 m 305.078 73.023 l 304.09 74.012 303.398 75.258 303.078 
76.617 c 299.855 90.367 l 287.633 102.59 l 267.941 82.895 l 306.211 44.625
 l h
257.332 93.504 m 277.027 113.199 l 257.125 133.098 l 237.434 113.402 l 
h
221.742 168.484 m 216.34 149.629 l 234.391 131.578 l 246.52 143.707 l h
102.211 210.141 m 155.508 156.844 l 161.492 179.188 l 157.977 182.703 l
 155.051 185.633 155.051 190.379 157.977 193.309 c 159.441 194.773 161.363
 195.508 163.281 195.508 c 165.199 195.508 167.121 194.773 168.586 193.309
 c 175.16 186.734 l 177.055 184.84 177.797 182.078 177.102 179.488 c 167.754
 144.598 l 200.953 111.398 l 203.43 108.922 208.34 105.527 213.434 110.621
 c 223.781 120.969 l 202.605 142.145 l 200.68 144.07 199.949 146.895 200.699
 149.516 c 209.613 180.613 l 132.133 258.09 l 117.969 243.926 l 120.855 
241.039 l 123.785 238.113 123.785 233.363 120.855 230.434 c 117.926 227.504
 113.176 227.504 110.25 230.434 c 107.363 233.32 l 102.211 228.168 l h
74.211 363.957 m 36.402 326.148 l 56.07 292.086 l 94.176 269.223 l 95.441
 268.461 96.453 267.348 97.09 266.016 c 104.113 251.281 l 122.945 270.117
 l h
223.508 337.23 m 198.625 349.672 l 198.148 349.91 197.52 350.094 196.422
 349.688 c 194.418 348.934 192.324 346.719 191.328 344.297 c 163.84 277.434
 l 163.125 275.699 161.785 274.289 160.082 273.496 c 145 266.438 l 175.574
 235.863 l 225.586 327.484 l 228.945 333.637 227.5 334.914 223.508 337.23
 c h
232.352 225.824 m 203.133 255.043 l 186.672 224.883 l 193.008 230.035 200.289
 232.855 207.141 232.855 c 209.199 232.855 211.219 232.602 213.16 232.082
 c 217.164 231.008 219.535 226.898 218.465 222.895 c 217.395 218.895 213.277
 216.52 209.277 217.594 c 206.418 218.355 201.891 217.48 197.289 214.148
 c 218.109 193.328 l 224.258 199.148 230.32 204.324 236.254 208.949 c h
339.492 231.918 m 333.652 232.344 322.691 232.379 308.375 228.953 c 289.316
 224.391 260.434 212.641 228.723 182.715 c 237.617 173.82 l 247.676 182.738
 270.535 200.922 299.102 210.434 c 299.887 210.695 300.688 210.82 301.473
 210.82 c 304.613 210.82 307.539 208.832 308.586 205.688 c 309.895 201.758
 307.77 197.512 303.84 196.203 c 278.621 187.805 257.746 171.445 248.266
 163.172 c 257.488 153.953 l 270.477 164.633 304.895 189.457 347.543 192.676
 c h
339.492 231.918 m f
139.418 219.371 m 143.559 219.371 146.918 216.012 146.918 211.871 c 146.918
 207.727 143.559 204.371 139.418 204.371 c 139.414 204.371 l 135.273 204.371
 131.914 207.727 131.914 211.871 c 131.914 216.012 135.277 219.371 139.418
 219.371 c h
139.418 219.371 m f
Q Q
showpage
%%Trailer
end
%%EOF
