%!PS-Adobe-3.0 EPSF-3.0
%%Creator: cairo 1.16.0 (https://cairographics.org)
%%CreationDate: Wed Sep 30 14:00:45 2020
%%Pages: 1
%%DocumentData: Clean7Bit
%%LanguageLevel: 2
%%BoundingBox: 0 0 384 384
%%EndComments
%%BeginProlog
50 dict begin
/q { gsave } bind def
/Q { grestore } bind def
/cm { 6 array astore concat } bind def
/w { setlinewidth } bind def
/J { setlinecap } bind def
/j { setlinejoin } bind def
/M { setmiterlimit } bind def
/d { setdash } bind def
/m { moveto } bind def
/l { lineto } bind def
/c { curveto } bind def
/h { closepath } bind def
/re { exch dup neg 3 1 roll 5 3 roll moveto 0 rlineto
      0 exch rlineto 0 rlineto closepath } bind def
/S { stroke } bind def
/f { fill } bind def
/f* { eofill } bind def
/n { newpath } bind def
/W { clip } bind def
/W* { eoclip } bind def
/BT { } bind def
/ET { } bind def
/BDC { mark 3 1 roll /BDC pdfmark } bind def
/EMC { mark /EMC pdfmark } bind def
/cairo_store_point { /cairo_point_y exch def /cairo_point_x exch def } def
/Tj { show currentpoint cairo_store_point } bind def
/TJ {
  {
    dup
    type /stringtype eq
    { show } { -0.001 mul 0 cairo_font_matrix dtransform rmoveto } ifelse
  } forall
  currentpoint cairo_store_point
} bind def
/cairo_selectfont { cairo_font_matrix aload pop pop pop 0 0 6 array astore
    cairo_font exch selectfont cairo_point_x cairo_point_y moveto } bind def
/Tf { pop /cairo_font exch def /cairo_font_matrix where
      { pop cairo_selectfont } if } bind def
/Td { matrix translate cairo_font_matrix matrix concatmatrix dup
      /cairo_font_matrix exch def dup 4 get exch 5 get cairo_store_point
      /cairo_font where { pop cairo_selectfont } if } bind def
/Tm { 2 copy 8 2 roll 6 array astore /cairo_font_matrix exch def
      cairo_store_point /cairo_font where { pop cairo_selectfont } if } bind def
/g { setgray } bind def
/rg { setrgbcolor } bind def
/d1 { setcachedevice } bind def
/cairo_data_source {
  CairoDataIndex CairoData length lt
    { CairoData CairoDataIndex get /CairoDataIndex CairoDataIndex 1 add def }
    { () } ifelse
} def
/cairo_flush_ascii85_file { cairo_ascii85_file status { cairo_ascii85_file flushfile } if } def
/cairo_image { image cairo_flush_ascii85_file } def
/cairo_imagemask { imagemask cairo_flush_ascii85_file } def
%%EndProlog
%%BeginSetup
%%EndSetup
%%Page: 1 1
%%BeginPageSetup
%%PageBoundingBox: 0 0 384 384
%%EndPageSetup
q 0 0 384 384 rectclip
1 0 0 -1 0 384 cm q
0 g
383.531 10.562 m 382.562 6.891 380.223 3.82 376.934 1.918 c 373.641 0.008
 369.797 -0.492 366.109 0.504 c 305.16 17.039 l 301.387 17.992 298.133 20.477
 296.219 23.867 c 294.344 27.195 293.875 31.043 294.902 34.711 c 295.93 
38.363 298.316 41.395 301.617 43.242 c 319.91 53.488 l 285.641 87.758 l 
275.035 77.152 l 272.207 74.324 268.441 72.77 264.426 72.77 c 260.414 72.77
 256.648 74.324 253.82 77.152 c 251.512 79.457 l 203.488 47.754 143.25 39.805
 88.621 58.105 c 77.777 54.176 65.504 56.809 57.203 65.109 c 51.535 70.777
 48.414 78.309 48.414 86.324 c 48.414 93.215 50.73 99.75 54.98 105.047 c
 53.711 256.051 l 6.578 303.18 l -2.191 311.953 -2.191 326.227 6.578 335
 c 49.004 377.426 l 53.242 381.664 58.895 383.996 64.914 383.996 c 70.934
 383.996 76.586 381.664 80.824 377.426 c 127.914 330.336 l 278.961 329.023
 l 284.414 333.387 291.047 335.574 297.684 335.574 c 305.367 335.574 313.047
 332.648 318.895 326.801 c 327.195 318.5 329.828 306.227 325.898 295.383
 c 344.199 240.758 336.25 180.516 304.547 132.488 c 306.852 130.184 l 309.68
 127.355 311.238 123.59 311.238 119.578 c 311.238 115.562 309.68 111.797
 306.855 108.973 c 296.246 98.363 l 330.52 64.094 l 340.762 82.383 l 342.609
 85.688 345.785 88.148 349.473 89.133 c 350.688 89.457 351.91 89.613 353.117
 89.613 c 359.379 89.613 365.152 85.426 366.883 79.094 c 383.324 18.504 
l 384.148 15.926 384.219 13.188 383.531 10.562 c h
229.797 101.176 m 217.656 93.816 204.492 88.098 190.816 84.23 c 193.793
 69.59 l 210.203 74.086 226.02 81.02 240.66 90.312 c h
67.809 75.715 m 72.355 71.172 79.277 70.023 85.043 72.855 c 86.852 73.746
 88.941 73.871 90.844 73.199 c 119.527 63.09 149.992 60.934 179.16 66.258
 c 176.199 80.836 l 173.582 80.355 170.953 79.938 168.316 79.594 c 144.52
 76.512 119.918 78.996 97.184 86.785 c 95.02 87.523 93.312 89.211 92.547
 91.363 c 91.797 93.465 90.613 95.336 89.023 96.926 c 86.188 99.762 82.422
 101.32 78.414 101.32 c 74.41 101.32 70.641 99.762 67.809 96.926 c 64.977
 94.094 63.414 90.328 63.414 86.32 c 63.414 82.312 64.977 78.547 67.809 
75.715 c h
69.898 115.098 m 72.629 115.898 75.488 116.32 78.418 116.32 c 86.43 116.32
 93.965 113.199 99.629 107.535 c 101.883 105.281 103.73 102.738 105.152 
99.949 c 143.414 87.793 184.219 92.223 218.852 112.121 c 201.898 129.074
 l 198.969 132 198.969 136.75 201.898 139.68 c 204.828 142.609 209.574 142.609
 212.504 139.68 c 264.43 87.758 l 275.035 98.363 l 138.25 235.148 l 135.262
 233.723 131.969 232.973 128.555 232.973 c 122.531 232.973 116.883 235.305
 112.645 239.543 c 68.48 283.707 l 68.66 262.312 l 123.25 207.723 l 126.172
 204.801 130.934 204.801 133.855 207.723 c 136.785 210.652 141.531 210.652
 144.461 207.723 c 164.777 187.41 l 167.707 184.48 167.707 179.73 164.777
 176.805 c 161.848 173.875 157.102 173.875 154.172 176.805 c 138.25 192.723
 l 129.887 188.738 119.559 190.203 112.645 197.117 c 68.84 240.922 l h
133.855 260.754 m 70.215 324.395 l 67.293 327.316 62.535 327.316 59.609
 324.395 c 58.207 322.988 57.434 321.105 57.434 319.09 c 57.434 317.078 
58.207 315.191 59.609 313.789 c 123.25 250.148 l 124.711 248.688 126.633
 247.957 128.551 247.957 c 130.473 247.957 132.395 248.688 133.855 250.148
 c 136.781 253.074 136.781 257.832 133.855 260.754 c h
17.188 313.789 m 53.531 277.441 l 53.352 298.832 l 49.004 303.18 l 44.77
 307.418 42.434 313.07 42.434 319.09 c 42.434 322.508 43.188 325.801 44.609
 328.789 c 33.094 340.301 l 17.188 324.395 l 14.262 321.469 14.262 316.711
 17.188 313.789 c h
70.219 366.82 m 68.812 368.223 66.93 369 64.914 369 c 62.898 369 61.016
 368.223 59.613 366.82 c 43.703 350.91 l 55.223 339.391 l 58.277 340.848
 61.598 341.578 64.914 341.578 c 70.676 341.578 76.438 339.387 80.824 335
 c 85.117 330.707 l 106.516 330.52 l h
191.281 245.754 m 271.883 165.152 l 291.781 199.785 296.215 240.59 284.055
 278.852 c 281.266 280.273 278.727 282.121 276.473 284.375 c 270.805 290.043
 267.684 297.574 267.684 305.59 c 267.684 308.516 268.105 311.379 268.91
 314.109 c 143.047 315.203 l 186.887 271.363 l 193.801 264.449 195.266 254.117
 191.281 245.754 c h
310.801 293.16 m 310.133 295.062 310.258 297.156 311.148 298.965 c 313.98
 304.727 312.836 311.648 308.289 316.195 c 302.441 322.043 292.926 322.043
 287.078 316.195 c 284.246 313.363 282.684 309.594 282.684 305.59 c 282.684
 301.582 284.246 297.816 287.078 294.984 c 288.668 293.391 290.539 292.203
 292.641 291.457 c 294.793 290.691 296.48 288.984 297.219 286.82 c 305.012
 264.074 307.496 239.465 304.406 215.652 c 304.062 213.027 303.645 210.41
 303.168 207.805 c 317.742 204.844 l 323.07 234.016 320.91 264.48 310.801
 293.16 c h
314.414 190.215 m 299.777 193.188 l 295.906 179.512 290.188 166.348 282.828
 154.207 c 293.691 143.344 l 302.984 157.984 309.918 173.801 314.414 190.215
 c h
296.246 119.574 m 176.281 239.543 l 173.352 242.473 173.352 247.219 176.281
 250.148 c 179.203 253.074 179.203 257.832 176.281 260.754 c 121.645 315.391
 l 100.25 315.578 l 144.461 271.363 l 148.699 267.125 151.035 261.473 151.035
 255.453 c 151.035 252.035 150.281 248.742 148.859 245.754 c 285.641 108.973
 l h
352.898 73.355 m 338.766 48.121 l 338.09 46.914 337.094 45.918 335.887 
45.242 c 310.633 31.098 l 368.637 15.359 l h
352.898 73.355 m f
183.344 165.742 m 187.484 165.742 190.84 162.387 190.84 158.242 c 190.84
 154.102 187.484 150.742 183.344 150.742 c 183.336 150.742 l 179.195 150.742
 175.84 154.102 175.84 158.242 c 175.84 162.387 179.199 165.742 183.344 
165.742 c h
183.344 165.742 m f
Q Q
showpage
%%Trailer
end
%%EOF
