%!PS-Adobe-3.0 EPSF-3.0
%%Creator: cairo 1.16.0 (https://cairographics.org)
%%CreationDate: Wed Sep 30 14:00:48 2020
%%Pages: 1
%%DocumentData: Clean7Bit
%%LanguageLevel: 2
%%BoundingBox: 0 19 384 365
%%EndComments
%%BeginProlog
50 dict begin
/q { gsave } bind def
/Q { grestore } bind def
/cm { 6 array astore concat } bind def
/w { setlinewidth } bind def
/J { setlinecap } bind def
/j { setlinejoin } bind def
/M { setmiterlimit } bind def
/d { setdash } bind def
/m { moveto } bind def
/l { lineto } bind def
/c { curveto } bind def
/h { closepath } bind def
/re { exch dup neg 3 1 roll 5 3 roll moveto 0 rlineto
      0 exch rlineto 0 rlineto closepath } bind def
/S { stroke } bind def
/f { fill } bind def
/f* { eofill } bind def
/n { newpath } bind def
/W { clip } bind def
/W* { eoclip } bind def
/BT { } bind def
/ET { } bind def
/BDC { mark 3 1 roll /BDC pdfmark } bind def
/EMC { mark /EMC pdfmark } bind def
/cairo_store_point { /cairo_point_y exch def /cairo_point_x exch def } def
/Tj { show currentpoint cairo_store_point } bind def
/TJ {
  {
    dup
    type /stringtype eq
    { show } { -0.001 mul 0 cairo_font_matrix dtransform rmoveto } ifelse
  } forall
  currentpoint cairo_store_point
} bind def
/cairo_selectfont { cairo_font_matrix aload pop pop pop 0 0 6 array astore
    cairo_font exch selectfont cairo_point_x cairo_point_y moveto } bind def
/Tf { pop /cairo_font exch def /cairo_font_matrix where
      { pop cairo_selectfont } if } bind def
/Td { matrix translate cairo_font_matrix matrix concatmatrix dup
      /cairo_font_matrix exch def dup 4 get exch 5 get cairo_store_point
      /cairo_font where { pop cairo_selectfont } if } bind def
/Tm { 2 copy 8 2 roll 6 array astore /cairo_font_matrix exch def
      cairo_store_point /cairo_font where { pop cairo_selectfont } if } bind def
/g { setgray } bind def
/rg { setrgbcolor } bind def
/d1 { setcachedevice } bind def
/cairo_data_source {
  CairoDataIndex CairoData length lt
    { CairoData CairoDataIndex get /CairoDataIndex CairoDataIndex 1 add def }
    { () } ifelse
} def
/cairo_flush_ascii85_file { cairo_ascii85_file status { cairo_ascii85_file flushfile } if } def
/cairo_image { image cairo_flush_ascii85_file } def
/cairo_imagemask { imagemask cairo_flush_ascii85_file } def
%%EndProlog
%%BeginSetup
%%EndSetup
%%Page: 1 1
%%BeginPageSetup
%%PageBoundingBox: 0 19 384 365
%%EndPageSetup
q 0 19 384 346 rectclip
1 0 0 -1 0 384 cm q
0 g
383.23 286.109 m 328.879 83.27 l 327.328 77.48 323.602 72.637 318.387 69.625
 c 314.457 67.355 310.047 66.34 305.633 66.645 c 306.109 65.953 306.57 65.246
 306.992 64.508 c 311 57.57 312.062 49.484 309.988 41.746 c 307.914 34.004
 302.953 27.535 296.012 23.527 c 289.074 19.523 280.988 18.461 273.246 20.531
 c 265.508 22.605 259.039 27.57 255.031 34.508 c 254.859 34.805 254.703 
35.109 254.543 35.406 c 238.289 35.984 225.398 41.082 214.184 51.32 c 211.125
 54.113 210.906 58.855 213.699 61.914 c 215.18 63.535 217.207 64.359 219.242
 64.359 c 221.047 64.359 222.855 63.711 224.297 62.398 c 231.902 55.453 
240.34 51.723 251.031 50.672 c 251.121 52.879 251.449 55.09 252.035 57.273
 c 254.109 65.016 259.07 71.484 266.012 75.488 c 266.75 75.914 267.504 76.297
 268.27 76.656 c 258.809 81.289 253.609 92.129 256.438 102.68 c 310.789 
305.52 l 312.336 311.309 316.062 316.156 321.277 319.168 c 324.758 321.176
 328.613 322.203 332.512 322.203 c 334.461 322.203 336.414 321.945 338.344
 321.43 c 367.32 313.664 l 379.305 310.453 386.441 298.094 383.23 286.109
 c h
277.859 124.672 m 321.324 113.023 l 326.316 131.652 l 282.848 143.301 l
 h
286.73 157.789 m 330.199 146.141 l 335.191 164.77 l 291.723 176.418 l h
295.605 190.902 m 339.07 179.258 l 344.062 197.887 l 300.598 209.531 l 
h
304.48 224.02 m 347.945 212.375 l 352.938 231.004 l 309.469 242.648 l h
313.352 257.137 m 356.82 245.492 l 361.809 264.117 l 318.344 275.766 l 
h
310.891 82.613 m 312.633 83.621 313.879 85.234 314.391 87.152 c 317.441
 98.535 l 273.977 110.184 l 270.926 98.801 l 269.855 94.805 272.234 90.684
 276.23 89.613 c 305.207 81.848 l 307.125 81.336 309.141 81.605 310.891 
82.613 c h
268.02 42.008 m 270.023 38.539 273.258 36.059 277.129 35.02 c 278.422 34.676
 279.734 34.504 281.039 34.504 c 283.637 34.504 286.203 35.184 288.512 36.52
 c 291.98 38.523 294.465 41.758 295.5 45.625 c 296.535 49.496 296.008 53.539
 294.004 57.008 c 292 60.48 288.766 62.961 284.895 64 c 276.902 66.141 268.664
 61.379 266.523 53.391 c 265.484 49.52 266.02 45.48 268.02 42.008 c h
363.438 299.176 m 334.461 306.941 l 332.539 307.457 330.523 307.184 328.781
 306.176 c 327.035 305.168 325.789 303.559 325.277 301.637 c 322.227 290.254
 l 365.691 278.609 l 368.742 289.992 l 369.812 293.984 367.434 298.105 363.438
 299.176 c h
363.438 299.176 m f
166.992 92.598 m 157.797 94.371 146.629 93.602 132.941 90.25 c 132.277 
77.625 123.609 66.277 110.754 62.832 c 103.012 60.758 94.926 61.824 87.988
 65.832 c 81.047 69.836 76.086 76.305 74.012 84.047 c 71.938 91.785 73 99.871
 77.008 106.809 c 77.43 107.547 77.891 108.254 78.367 108.945 c 73.953 108.641
 69.543 109.656 65.609 111.926 c 60.395 114.938 56.668 119.781 55.121 125.57
 c 0.77 328.41 l -2.441 340.395 4.695 352.754 16.676 355.969 c 45.656 363.73
 l 47.582 364.246 49.539 364.504 51.484 364.504 c 55.383 364.504 59.238 
363.477 62.719 361.469 c 67.934 358.457 71.66 353.613 73.211 347.824 c 127.562
 144.984 l 130.387 134.434 125.191 123.594 115.73 118.957 c 116.492 118.598
 117.25 118.219 117.988 117.793 c 123.242 114.758 127.363 110.309 129.953
 104.965 c 139.816 107.34 148.672 108.52 156.688 108.52 c 161.34 108.52 
165.711 108.121 169.828 107.328 c 173.895 106.543 176.559 102.609 175.773
 98.543 c 174.992 94.477 171.059 91.812 166.992 92.598 c h
73.113 124.914 m 74.281 124.242 75.57 123.895 76.871 123.895 c 77.516 123.895
 78.16 123.98 78.793 124.152 c 107.77 131.914 l 111.766 132.984 114.145 
137.105 113.074 141.102 c 110.023 152.484 l 66.559 140.84 l 69.609 129.453
 l 70.121 127.535 71.367 125.922 73.113 124.914 c h
27.18 287.793 m 70.648 299.438 l 65.656 318.066 l 22.191 306.422 l h
31.062 273.305 m 36.055 254.676 l 79.52 266.324 l 74.531 284.953 l h
39.938 240.188 m 44.93 221.559 l 88.395 233.203 l 83.402 251.832 l h
48.812 207.07 m 53.801 188.441 l 97.27 200.09 l 92.277 218.719 l h
57.684 173.953 m 62.676 155.324 l 106.141 166.973 l 101.148 185.602 l h
55.219 348.477 m 53.473 349.484 51.457 349.758 49.539 349.242 c 20.559 
341.477 l 16.566 340.406 14.188 336.289 15.258 332.293 c 18.309 320.91 l
 61.773 332.555 l 58.723 343.941 l 58.211 345.859 56.965 347.469 55.219 
348.477 c h
117.477 95.691 m 116.441 99.562 113.957 102.797 110.488 104.801 c 107.02
 106.805 102.977 107.336 99.105 106.301 c 95.234 105.262 92 102.781 89.996
 99.309 c 87.992 95.84 87.461 91.797 88.5 87.93 c 89.535 84.059 92.02 80.824
 95.488 78.82 c 97.801 77.484 100.363 76.805 102.965 76.805 c 104.266 76.805
 105.578 76.977 106.871 77.32 c 114.859 79.461 119.617 87.703 117.477 95.691
 c h
117.477 95.691 m f
197.297 74.996 m 197.293 74.996 l 193.152 74.996 189.797 78.355 189.797
 82.496 c 189.797 86.641 193.156 89.996 197.297 89.996 c 201.441 89.996 
204.797 86.641 204.797 82.496 c 204.797 78.355 201.438 74.996 197.297 74.996
 c h
197.297 74.996 m f
Q Q
showpage
%%Trailer
end
%%EOF
