%!PS-Adobe-3.0 EPSF-3.0
%%Creator: cairo 1.16.0 (https://cairographics.org)
%%CreationDate: Wed Sep 30 14:00:49 2020
%%Pages: 1
%%DocumentData: Clean7Bit
%%LanguageLevel: 2
%%BoundingBox: 0 14 384 370
%%EndComments
%%BeginProlog
50 dict begin
/q { gsave } bind def
/Q { grestore } bind def
/cm { 6 array astore concat } bind def
/w { setlinewidth } bind def
/J { setlinecap } bind def
/j { setlinejoin } bind def
/M { setmiterlimit } bind def
/d { setdash } bind def
/m { moveto } bind def
/l { lineto } bind def
/c { curveto } bind def
/h { closepath } bind def
/re { exch dup neg 3 1 roll 5 3 roll moveto 0 rlineto
      0 exch rlineto 0 rlineto closepath } bind def
/S { stroke } bind def
/f { fill } bind def
/f* { eofill } bind def
/n { newpath } bind def
/W { clip } bind def
/W* { eoclip } bind def
/BT { } bind def
/ET { } bind def
/BDC { mark 3 1 roll /BDC pdfmark } bind def
/EMC { mark /EMC pdfmark } bind def
/cairo_store_point { /cairo_point_y exch def /cairo_point_x exch def } def
/Tj { show currentpoint cairo_store_point } bind def
/TJ {
  {
    dup
    type /stringtype eq
    { show } { -0.001 mul 0 cairo_font_matrix dtransform rmoveto } ifelse
  } forall
  currentpoint cairo_store_point
} bind def
/cairo_selectfont { cairo_font_matrix aload pop pop pop 0 0 6 array astore
    cairo_font exch selectfont cairo_point_x cairo_point_y moveto } bind def
/Tf { pop /cairo_font exch def /cairo_font_matrix where
      { pop cairo_selectfont } if } bind def
/Td { matrix translate cairo_font_matrix matrix concatmatrix dup
      /cairo_font_matrix exch def dup 4 get exch 5 get cairo_store_point
      /cairo_font where { pop cairo_selectfont } if } bind def
/Tm { 2 copy 8 2 roll 6 array astore /cairo_font_matrix exch def
      cairo_store_point /cairo_font where { pop cairo_selectfont } if } bind def
/g { setgray } bind def
/rg { setrgbcolor } bind def
/d1 { setcachedevice } bind def
/cairo_data_source {
  CairoDataIndex CairoData length lt
    { CairoData CairoDataIndex get /CairoDataIndex CairoDataIndex 1 add def }
    { () } ifelse
} def
/cairo_flush_ascii85_file { cairo_ascii85_file status { cairo_ascii85_file flushfile } if } def
/cairo_image { image cairo_flush_ascii85_file } def
/cairo_imagemask { imagemask cairo_flush_ascii85_file } def
%%EndProlog
%%BeginSetup
%%EndSetup
%%Page: 1 1
%%BeginPageSetup
%%PageBoundingBox: 0 14 384 370
%%EndPageSetup
q 0 14 384 356 rectclip
1 0 0 -1 0 384 cm q
0 g
139.676 212.434 m 138.242 207.086 134.07 203.199 129.07 201.848 c 124.664
 185.395 l 146.402 179.57 l 166.375 174.215 178.273 153.609 172.918 133.637
 c 160.625 87.75 l 159.211 82.48 155.09 74.848 150.367 68.758 c 143.086 
59.371 135.957 55.531 129.184 57.348 c 114.223 61.355 114.891 90.961 117.152
 99.398 c 127.508 138.039 l 113.016 141.922 l 87.129 45.316 l 84.867 36.879
 70.656 10.906 55.688 14.914 c 48.91 16.73 44.656 23.617 43.047 35.387 c
 42 43.023 42.246 51.695 43.66 56.965 c 48.836 76.285 l 49.906 80.285 54.016
 82.66 58.023 81.59 c 62.023 80.516 64.398 76.402 63.324 72.402 c 58.148
 53.082 l 56.555 47.121 57.57 34.379 59.738 30.035 c 63.793 32.711 71.043
 43.238 72.641 49.199 c 100.469 153.051 l 100.984 154.973 102.238 156.609
 103.961 157.605 c 105.684 158.602 107.73 158.867 109.652 158.355 c 138.637
 150.59 l 140.559 150.074 142.195 148.816 143.191 147.094 c 144.184 145.371
 144.453 143.324 143.938 141.402 c 131.645 95.516 l 130.047 89.555 131.062
 76.812 133.234 72.469 c 137.285 75.145 144.535 85.672 146.133 91.633 c 
158.43 137.52 l 161.641 149.504 154.504 161.867 142.52 165.078 c 113.535
 172.844 l 111.613 173.359 109.977 174.617 108.98 176.34 c 107.988 178.062
 107.719 180.109 108.23 182.031 c 114.059 203.77 l 99.566 207.652 l 93.742
 185.914 l 93.227 183.992 91.969 182.355 90.246 181.359 c 88.523 180.367
 86.477 180.094 84.555 180.609 c 55.574 188.375 l 43.59 191.586 31.227 184.449
 28.012 172.465 c 15.719 126.578 l 14.121 120.617 15.137 107.875 17.309 
103.531 c 21.359 106.207 28.609 116.734 30.207 122.695 c 42.504 168.582 
l 43.574 172.582 47.688 174.957 51.691 173.887 c 80.672 166.121 l 84.672
 165.047 87.047 160.934 85.977 156.934 c 80.797 137.609 l 79.727 133.609
 75.613 131.23 71.609 132.305 c 67.609 133.375 65.234 137.492 66.309 141.492
 c 69.543 153.57 l 55.051 157.453 l 44.699 118.812 l 43.285 113.543 39.164
 105.91 34.441 99.82 c 27.16 90.434 20.031 86.594 13.254 88.41 c -1.703 
92.418 -1.035 122.023 1.227 130.461 c 13.52 176.348 l 18.875 196.32 39.477
 208.219 59.453 202.867 c 81.191 197.043 l 85.598 213.492 l 84.691 214.41
 83.883 215.438 83.219 216.586 c 81.211 220.062 80.676 224.102 81.711 227.965
 c 116.656 358.387 l 118.449 365.078 124.527 369.508 131.152 369.504 c 132.434
 369.504 133.734 369.34 135.031 368.992 c 164.012 361.227 l 167.875 360.191
 171.105 357.707 173.113 354.23 c 175.121 350.754 175.656 346.715 174.621
 342.852 c h
96.199 224.082 m 96.203 224.082 l 125.176 216.32 l 125.18 216.32 125.184
 216.32 125.184 216.316 c 129.066 230.809 l 100.086 238.574 l h
103.969 253.066 m 132.949 245.301 l 136.832 259.793 l 107.852 267.559 l
 h
111.734 282.047 m 140.715 274.281 l 144.598 288.773 l 115.617 296.539 l
 h
119.5 311.031 m 148.48 303.266 l 152.363 317.758 l 123.383 325.523 l h
131.148 354.5 m 127.266 340.012 l 156.246 332.246 l 160.129 346.734 l h
131.148 354.5 m f
370.746 88.41 m 363.969 86.594 356.84 90.434 349.559 99.82 c 344.836 105.91
 340.715 113.543 339.301 118.812 c 328.949 157.453 l 314.457 153.57 l 340.344
 56.965 l 342.602 48.527 343.273 18.922 328.312 14.91 c 313.363 10.902 299.133
 36.879 296.871 45.316 c 270.984 141.922 l 256.496 138.039 l 266.848 99.398
 l 269.109 90.961 269.777 61.355 254.82 57.348 c 248.039 55.527 240.914 
59.371 233.633 68.758 c 228.91 74.848 224.789 82.48 223.375 87.75 c 211.082
 133.637 l 205.73 153.609 217.625 174.215 237.602 179.57 c 259.336 185.395
 l 254.93 201.844 l 249.93 203.195 245.758 207.086 244.324 212.434 c 209.379
 342.852 l 207.238 350.844 211.996 359.086 219.988 361.227 c 248.969 368.992
 l 250.266 369.34 251.566 369.504 252.848 369.504 c 259.473 369.504 265.551
 365.078 267.344 358.383 c 302.289 227.965 l 303.723 222.617 302.051 217.164
 298.402 213.496 c 302.809 197.043 l 324.547 202.867 l 334.188 205.449 344.289
 204.109 352.988 199.09 c 361.684 194.07 367.895 185.992 370.48 176.348 
c 382.773 130.461 l 385.035 122.023 385.703 92.418 370.746 88.41 c h
287.797 224.082 m 283.914 238.574 l 254.934 230.809 l 258.816 216.316 l
 258.82 216.316 258.82 216.316 258.824 216.316 c h
276.148 267.559 m 247.168 259.793 l 251.051 245.301 l 280.031 253.066 l
 h
268.383 296.539 m 239.402 288.773 l 243.285 274.281 l 272.266 282.047 l
 h
260.617 325.523 m 231.637 317.758 l 235.52 303.266 l 264.5 311.031 l h
223.871 346.734 m 227.754 332.246 l 256.734 340.012 l 252.852 354.5 l h
368.285 126.578 m 355.988 172.465 l 352.777 184.449 340.414 191.586 328.426
 188.375 c 299.445 180.609 l 297.523 180.094 295.477 180.363 293.754 181.359
 c 292.031 182.355 290.773 183.992 290.258 185.914 c 284.434 207.652 l 269.945
 203.77 l 275.77 182.031 l 276.285 180.109 276.016 178.062 275.02 176.34
 c 274.023 174.617 272.387 173.359 270.465 172.844 c 241.484 165.078 l 229.5
 161.867 222.359 149.504 225.57 137.52 c 237.867 91.633 l 239.465 85.672
 246.715 75.145 250.77 72.469 c 252.938 76.812 253.953 89.555 252.359 95.516
 c 240.062 141.402 l 239.547 143.324 239.816 145.371 240.812 147.094 c 241.805
 148.816 243.445 150.074 245.367 150.59 c 274.348 158.355 l 276.27 158.871
 278.316 158.598 280.039 157.605 c 281.762 156.609 283.02 154.973 283.535
 153.051 c 311.359 49.199 l 312.957 43.238 320.207 32.711 324.262 30.035
 c 326.434 34.379 327.449 47.121 325.852 53.082 c 298.027 156.934 l 296.953
 160.934 299.328 165.047 303.328 166.121 c 332.312 173.887 l 334.234 174.402
 336.281 174.129 338.004 173.137 c 339.727 172.141 340.984 170.504 341.496
 168.582 c 353.793 122.695 l 355.391 116.734 362.641 106.207 366.691 103.531
 c 368.863 107.875 369.879 120.617 368.285 126.578 c h
368.285 126.578 m f
64.812 114.453 m 65.453 114.453 66.102 114.367 66.75 114.195 c 70.754 113.129
 73.133 109.02 72.062 105.016 c 72.062 105.012 l 70.996 101.008 66.883 98.629
 62.883 99.699 c 58.879 100.766 56.5 104.879 57.57 108.883 c 58.465 112.238
 61.496 114.453 64.812 114.453 c h
64.812 114.453 m f
Q Q
showpage
%%Trailer
end
%%EOF
