%!PS-Adobe-3.0 EPSF-3.0
%%Creator: cairo 1.16.0 (https://cairographics.org)
%%CreationDate: Wed Sep 30 14:00:51 2020
%%Pages: 1
%%DocumentData: Clean7Bit
%%LanguageLevel: 2
%%BoundingBox: 0 0 384 384
%%EndComments
%%BeginProlog
50 dict begin
/q { gsave } bind def
/Q { grestore } bind def
/cm { 6 array astore concat } bind def
/w { setlinewidth } bind def
/J { setlinecap } bind def
/j { setlinejoin } bind def
/M { setmiterlimit } bind def
/d { setdash } bind def
/m { moveto } bind def
/l { lineto } bind def
/c { curveto } bind def
/h { closepath } bind def
/re { exch dup neg 3 1 roll 5 3 roll moveto 0 rlineto
      0 exch rlineto 0 rlineto closepath } bind def
/S { stroke } bind def
/f { fill } bind def
/f* { eofill } bind def
/n { newpath } bind def
/W { clip } bind def
/W* { eoclip } bind def
/BT { } bind def
/ET { } bind def
/BDC { mark 3 1 roll /BDC pdfmark } bind def
/EMC { mark /EMC pdfmark } bind def
/cairo_store_point { /cairo_point_y exch def /cairo_point_x exch def } def
/Tj { show currentpoint cairo_store_point } bind def
/TJ {
  {
    dup
    type /stringtype eq
    { show } { -0.001 mul 0 cairo_font_matrix dtransform rmoveto } ifelse
  } forall
  currentpoint cairo_store_point
} bind def
/cairo_selectfont { cairo_font_matrix aload pop pop pop 0 0 6 array astore
    cairo_font exch selectfont cairo_point_x cairo_point_y moveto } bind def
/Tf { pop /cairo_font exch def /cairo_font_matrix where
      { pop cairo_selectfont } if } bind def
/Td { matrix translate cairo_font_matrix matrix concatmatrix dup
      /cairo_font_matrix exch def dup 4 get exch 5 get cairo_store_point
      /cairo_font where { pop cairo_selectfont } if } bind def
/Tm { 2 copy 8 2 roll 6 array astore /cairo_font_matrix exch def
      cairo_store_point /cairo_font where { pop cairo_selectfont } if } bind def
/g { setgray } bind def
/rg { setrgbcolor } bind def
/d1 { setcachedevice } bind def
/cairo_data_source {
  CairoDataIndex CairoData length lt
    { CairoData CairoDataIndex get /CairoDataIndex CairoDataIndex 1 add def }
    { () } ifelse
} def
/cairo_flush_ascii85_file { cairo_ascii85_file status { cairo_ascii85_file flushfile } if } def
/cairo_image { image cairo_flush_ascii85_file } def
/cairo_imagemask { imagemask cairo_flush_ascii85_file } def
%%EndProlog
%%BeginSetup
%%EndSetup
%%Page: 1 1
%%BeginPageSetup
%%PageBoundingBox: 0 0 384 384
%%EndPageSetup
q 0 0 384 384 rectclip
1 0 0 -1 0 384 cm q
0 g
381.184 186.145 m 343.684 156.145 l 341.953 154.762 339.699 154.211 337.527
 154.645 c 270.941 167.965 l 269.387 162.844 267.336 157.906 264.809 153.18
 c 321.316 115.508 l 323.16 114.281 324.367 112.301 324.613 110.098 c 329.914
 62.367 l 330.168 60.102 329.375 57.848 327.766 56.234 c 326.152 54.625 
323.898 53.832 321.633 54.082 c 273.902 59.387 l 271.699 59.633 269.719 
60.84 268.492 62.684 c 230.82 119.191 l 226.094 116.664 221.156 114.613 
216.035 113.059 c 229.355 46.473 l 229.789 44.301 229.242 42.047 227.855
 40.316 c 197.855 2.816 l 196.434 1.035 194.277 0 192 0 c 189.723 0 187.566
 1.035 186.145 2.816 c 156.145 40.316 l 154.758 42.047 154.211 44.301 154.645
 46.473 c 167.965 113.059 l 162.844 114.609 157.902 116.66 153.18 119.188
 c 115.508 62.684 l 114.281 60.84 112.297 59.633 110.098 59.387 c 62.367
 54.082 l 60.102 53.836 57.848 54.625 56.234 56.234 c 54.625 57.848 53.832
 60.102 54.082 62.367 c 59.387 110.098 l 59.633 112.301 60.836 114.281 62.68
 115.508 c 119.188 153.18 l 116.66 157.906 114.613 162.844 113.059 167.965
 c 46.469 154.645 l 44.297 154.211 42.043 154.758 40.316 156.145 c 2.812
 186.145 l 1.035 187.566 0 189.723 0 192 c 0 194.277 1.035 196.434 2.816
 197.855 c 40.316 227.855 l 42.047 229.242 44.305 229.789 46.473 229.355
 c 113.059 216.035 l 114.613 221.156 116.66 226.098 119.188 230.82 c 62.684
 268.492 l 60.84 269.719 59.633 271.699 59.387 273.902 c 54.086 321.633 
l 53.832 323.898 54.625 326.152 56.234 327.766 c 57.848 329.375 60.102 330.168
 62.367 329.918 c 110.098 324.613 l 112.301 324.367 114.281 323.16 115.508
 321.316 c 153.18 264.812 l 157.906 267.34 162.848 269.387 167.965 270.941
 c 154.645 337.527 l 154.211 339.703 154.758 341.953 156.145 343.684 c 186.145
 381.184 l 187.566 382.965 189.723 384 192 384 c 194.277 384 196.434 382.965
 197.855 381.184 c 227.859 343.684 l 229.242 341.953 229.789 339.699 229.355
 337.527 c 216.039 270.941 l 221.156 269.387 226.098 267.34 230.82 264.812
 c 268.492 321.316 l 269.723 323.16 271.703 324.367 273.902 324.613 c 321.633
 329.918 l 323.898 330.168 326.156 329.375 327.766 327.766 c 329.375 326.152
 330.168 323.898 329.918 321.633 c 324.613 273.902 l 324.367 271.699 323.164
 269.719 321.32 268.492 c 264.812 230.82 l 267.34 226.094 269.391 221.156
 270.941 216.035 c 337.531 229.355 l 339.703 229.789 341.957 229.242 343.688
 227.855 c 381.188 197.855 l 382.965 196.434 384 194.277 384 192 c 384 189.723
 382.965 187.566 381.184 186.145 c h
337.043 213.961 m 266.91 199.934 l 262.871 199.125 258.93 201.73 258.094
 205.766 c 256.375 214.066 253.137 221.879 248.461 228.996 c 246.199 232.441
 247.141 237.066 250.57 239.355 c 310.09 279.035 l 312.645 302.039 l 298.5
 287.895 l 295.57 284.965 290.824 284.965 287.895 287.895 c 284.965 290.824
 284.965 295.57 287.895 298.5 c 302.039 312.648 l 279.031 310.09 l 239.355
 250.574 l 237.066 247.141 232.441 246.203 228.996 248.465 c 221.887 253.137
 214.07 256.375 205.766 258.094 c 201.73 258.934 199.125 262.867 199.934
 266.91 c 213.961 337.043 l 199.5 355.117 l 199.5 335.113 l 199.5 330.973
 196.141 327.613 192 327.613 c 187.859 327.613 184.5 330.973 184.5 335.113
 c 184.5 355.117 l 170.039 337.043 l 184.066 266.91 l 184.875 262.867 182.27
 258.93 178.234 258.094 c 169.934 256.375 162.121 253.137 155.004 248.461
 c 151.559 246.199 146.934 247.141 144.645 250.57 c 104.969 310.09 l 81.961
 312.645 l 96.105 298.5 l 99.035 295.57 99.035 290.824 96.105 287.895 c 
93.176 284.965 88.43 284.965 85.5 287.895 c 71.355 302.039 l 73.91 279.035
 l 133.426 239.355 l 136.855 237.07 137.797 232.441 135.535 228.996 c 130.867
 221.887 127.625 214.07 125.906 205.766 c 125.066 201.73 121.125 199.125
 117.09 199.934 c 46.957 213.961 l 28.883 199.5 l 48.887 199.5 l 53.027 
199.5 56.387 196.145 56.387 192 c 56.387 187.859 53.027 184.5 48.887 184.5
 c 28.883 184.5 l 46.957 170.039 l 117.09 184.066 l 121.129 184.875 125.07
 182.27 125.906 178.234 c 127.625 169.934 130.867 162.121 135.539 155.004
 c 137.805 151.559 136.859 146.934 133.43 144.645 c 73.91 104.965 l 71.355
 81.961 l 85.5 96.105 l 86.965 97.57 88.883 98.305 90.805 98.305 c 92.723
 98.305 94.641 97.57 96.105 96.105 c 99.035 93.18 99.035 88.43 96.105 85.5
 c 81.961 71.355 l 104.969 73.91 l 144.645 133.43 l 146.93 136.859 151.559
 137.801 155.004 135.535 c 162.113 130.867 169.93 127.625 178.234 125.906
 c 182.27 125.07 184.875 121.133 184.066 117.09 c 170.039 46.957 l 184.5
 28.883 l 184.5 48.887 l 184.5 53.031 187.859 56.387 192 56.387 c 196.141
 56.387 199.5 53.031 199.5 48.887 c 199.5 28.883 l 213.961 46.957 l 199.934
 117.09 l 199.125 121.133 201.73 125.066 205.766 125.906 c 214.066 127.625
 221.883 130.867 228.996 135.539 c 232.441 137.801 237.066 136.859 239.355
 133.43 c 279.031 73.91 l 302.039 71.352 l 287.895 85.5 l 284.965 88.43 
284.965 93.176 287.895 96.105 c 289.359 97.57 291.277 98.305 293.195 98.305
 c 295.117 98.305 297.035 97.57 298.5 96.105 c 312.645 81.961 l 310.09 104.969
 l 250.57 144.645 l 247.141 146.934 246.199 151.559 248.461 155.004 c 253.133
 162.117 256.375 169.934 258.094 178.234 c 258.934 182.273 262.871 184.875
 266.91 184.066 c 337.043 170.039 l 355.117 184.5 l 335.113 184.5 l 330.973
 184.5 327.613 187.859 327.613 192 c 327.613 196.145 330.973 199.5 335.113
 199.5 c 355.117 199.5 l h
337.043 213.961 m f
217.152 174 m 213.301 175.523 211.41 179.883 212.934 183.734 c 213.973 
186.359 214.5 189.141 214.5 192 c 214.5 204.406 204.406 214.5 192 214.5 
c 179.594 214.5 169.5 204.406 169.5 192 c 169.5 189.145 170.027 186.363 
171.062 183.738 c 172.586 179.887 170.699 175.527 166.844 174.008 c 162.992
 172.484 158.637 174.375 157.113 178.227 c 155.379 182.613 154.5 187.25 
154.5 192 c 154.5 212.676 171.32 229.5 192 229.5 c 212.676 229.5 229.5 212.676
 229.5 192 c 229.5 187.246 228.621 182.609 226.883 178.219 c 225.359 174.367
 221.004 172.48 217.152 174 c h
217.152 174 m f
192 169.5 m 196.141 169.5 199.5 166.145 199.5 162 c 199.5 157.859 196.141
 154.5 192 154.5 c 191.996 154.5 l 187.852 154.5 184.496 157.859 184.496
 162 c 184.496 166.145 187.859 169.5 192 169.5 c h
192 169.5 m f
Q Q
showpage
%%Trailer
end
%%EOF
