%!PS-Adobe-3.0 EPSF-3.0
%%Creator: cairo 1.16.0 (https://cairographics.org)
%%CreationDate: Wed Sep 30 14:00:52 2020
%%Pages: 1
%%DocumentData: Clean7Bit
%%LanguageLevel: 2
%%BoundingBox: 3 0 381 384
%%EndComments
%%BeginProlog
50 dict begin
/q { gsave } bind def
/Q { grestore } bind def
/cm { 6 array astore concat } bind def
/w { setlinewidth } bind def
/J { setlinecap } bind def
/j { setlinejoin } bind def
/M { setmiterlimit } bind def
/d { setdash } bind def
/m { moveto } bind def
/l { lineto } bind def
/c { curveto } bind def
/h { closepath } bind def
/re { exch dup neg 3 1 roll 5 3 roll moveto 0 rlineto
      0 exch rlineto 0 rlineto closepath } bind def
/S { stroke } bind def
/f { fill } bind def
/f* { eofill } bind def
/n { newpath } bind def
/W { clip } bind def
/W* { eoclip } bind def
/BT { } bind def
/ET { } bind def
/BDC { mark 3 1 roll /BDC pdfmark } bind def
/EMC { mark /EMC pdfmark } bind def
/cairo_store_point { /cairo_point_y exch def /cairo_point_x exch def } def
/Tj { show currentpoint cairo_store_point } bind def
/TJ {
  {
    dup
    type /stringtype eq
    { show } { -0.001 mul 0 cairo_font_matrix dtransform rmoveto } ifelse
  } forall
  currentpoint cairo_store_point
} bind def
/cairo_selectfont { cairo_font_matrix aload pop pop pop 0 0 6 array astore
    cairo_font exch selectfont cairo_point_x cairo_point_y moveto } bind def
/Tf { pop /cairo_font exch def /cairo_font_matrix where
      { pop cairo_selectfont } if } bind def
/Td { matrix translate cairo_font_matrix matrix concatmatrix dup
      /cairo_font_matrix exch def dup 4 get exch 5 get cairo_store_point
      /cairo_font where { pop cairo_selectfont } if } bind def
/Tm { 2 copy 8 2 roll 6 array astore /cairo_font_matrix exch def
      cairo_store_point /cairo_font where { pop cairo_selectfont } if } bind def
/g { setgray } bind def
/rg { setrgbcolor } bind def
/d1 { setcachedevice } bind def
/cairo_data_source {
  CairoDataIndex CairoData length lt
    { CairoData CairoDataIndex get /CairoDataIndex CairoDataIndex 1 add def }
    { () } ifelse
} def
/cairo_flush_ascii85_file { cairo_ascii85_file status { cairo_ascii85_file flushfile } if } def
/cairo_image { image cairo_flush_ascii85_file } def
/cairo_imagemask { imagemask cairo_flush_ascii85_file } def
%%EndProlog
%%BeginSetup
%%EndSetup
%%Page: 1 1
%%BeginPageSetup
%%PageBoundingBox: 3 0 381 384
%%EndPageSetup
q 3 0 378 384 rectclip
1 0 0 -1 0 384 cm q
0 g
376.367 241.289 m 297.328 162.25 l 288.434 129.957 l 306.43 111.961 l 310.977
 107.418 312.066 100.715 309.719 95.125 c 318.488 77.633 l 358.758 37.367
 l 364.75 31.371 364.75 21.621 358.758 15.625 c 347.625 4.492 l 344.727 
1.594 340.867 0 336.754 0 c 332.641 0 328.781 1.594 325.883 4.492 c 293.992
 36.387 l 284.535 23.84 l 280.676 18.715 274.867 15.406 268.605 14.766 c
 262.375 14.125 256.293 16.094 251.496 20.309 c 218.898 48.934 185.164 78.352
 156.461 103.352 c 153.34 106.07 153.012 110.809 155.73 113.934 c 157.215
 115.633 159.297 116.508 161.391 116.508 c 163.137 116.508 164.895 115.898
 166.312 114.66 c 195.027 89.652 228.773 60.227 261.395 31.578 c 263.48 
29.746 265.637 29.539 267.074 29.688 c 269.23 29.91 271.18 31.039 272.559
 32.867 c 303.539 73.984 l 299.082 82.871 l 273.027 56.82 l 270.133 53.922
 266.27 52.328 262.16 52.328 c 258.047 52.328 254.188 53.922 251.289 56.82
 c 62.02 246.09 l 59.121 248.988 57.527 252.848 57.527 256.961 c 57.527 
261.074 59.121 264.934 62.02 267.832 c 79.941 285.75 l 42.547 287.18 l 40.117
 287.273 37.125 285.145 35.648 282.227 c 18.832 248.949 l 17.508 246.328
 18.004 244.055 20.348 242 c 52.09 214.156 84.793 185.648 115.406 158.988
 c 118.531 156.266 118.859 151.531 116.137 148.406 c 113.418 145.281 108.68
 144.953 105.559 147.676 c 74.934 174.344 42.215 202.863 10.457 230.723 
c 3.031 237.238 1.066 247.047 5.445 255.715 c 22.262 288.992 l 26.289 296.957
 34.312 302.184 42.406 302.184 c 42.645 302.184 42.883 302.18 43.121 302.172
 c 94.398 300.207 l 100.988 306.797 l 103.883 309.695 107.746 311.293 111.855
 311.293 c 113.664 311.293 115.418 310.965 117.07 310.375 c 132.152 320.812
 l 134.535 322.465 137.66 322.594 140.172 321.145 c 142.223 319.957 144.832
 319.707 146.977 320.492 c 148.766 321.148 150.02 322.449 150.711 324.363
 c 167.711 371.535 l 169.449 376.355 173.141 380.324 177.836 382.422 c 180.191
 383.473 182.672 384 185.148 384 c 187.391 384 189.629 383.57 191.762 382.703
 c 235.199 365.109 l 244.539 361.328 249.887 350.293 247.125 340.508 c 220.527
 246.293 l 219.812 243.762 217.871 241.801 215.328 241.109 c 214.875 240.977
 205.129 238.074 200.637 228.887 c 210.898 218.625 l 218.969 230.52 231.891
 234.176 232.559 234.355 c 233.219 234.535 233.883 234.621 234.535 234.621
 c 237.84 234.621 240.879 232.43 241.789 229.094 c 242.875 225.098 240.539
 220.98 236.543 219.895 c 236.09 219.766 226.344 216.859 221.852 207.676
 c 227.734 201.793 l 253.574 206.512 l 332.359 285.297 l 335.254 288.195
 339.117 289.789 343.227 289.789 c 347.34 289.789 351.199 288.195 354.098
 285.297 c 376.363 263.027 l 382.359 257.035 382.359 247.285 376.367 241.289
 c h
303.105 48.484 m 336.492 15.098 l 336.516 15.074 336.59 15 336.754 15 c
 336.918 15 336.992 15.074 337.02 15.102 c 348.152 26.234 l 348.285 26.367
 348.285 26.629 348.152 26.762 c 313.129 61.785 l h
198.977 130.348 m 210.637 142.008 l 176.43 176.211 l 164.77 164.551 l h
72.527 256.961 m 72.527 256.797 72.602 256.723 72.625 256.695 c 154.164
 175.156 l 171.129 192.121 l 172.535 193.527 174.441 194.316 176.43 194.316
 c 178.422 194.316 180.328 193.527 181.734 192.121 c 226.547 147.309 l 229.477
 144.379 229.477 139.633 226.547 136.703 c 209.582 119.738 l 261.898 67.426
 l 261.922 67.402 261.996 67.328 262.16 67.328 c 262.324 67.328 262.398 
67.402 262.426 67.426 c 295.824 100.828 l 295.848 100.852 295.926 100.926
 295.926 101.09 c 295.926 101.254 295.848 101.328 295.824 101.355 c 238.207
 158.969 l 237.262 159.914 236.586 161.098 236.254 162.391 c 232.867 175.445
 l 175.961 232.352 l 175.988 231.887 176.008 231.422 176.008 230.957 c 176.008
 224.945 173.668 219.297 169.418 215.047 c 165.168 210.797 159.52 208.453
 153.508 208.453 c 147.5 208.453 141.848 210.797 137.598 215.047 c 103.848
 248.797 l 100.918 251.723 100.918 256.473 103.848 259.402 c 105.312 260.867
 107.23 261.602 109.152 261.602 c 111.07 261.602 112.988 260.867 114.453
 259.402 c 133.199 240.66 l 134.285 242.934 135.766 245.027 137.598 246.863
 c 141.848 251.113 147.496 253.453 153.508 253.453 c 153.977 253.453 154.441
 253.434 154.902 253.406 c 112.121 296.191 l 112.098 296.215 112.02 296.289
 111.855 296.289 c 111.691 296.289 111.617 296.215 111.594 296.191 c 72.625
 257.223 l 72.602 257.199 72.527 257.125 72.527 256.961 c h
148.207 225.652 m 148.207 225.652 148.207 225.648 148.211 225.648 c 149.625
 224.234 151.508 223.457 153.508 223.457 c 155.512 223.457 157.395 224.238
 158.812 225.652 c 160.227 227.07 161.008 228.953 161.008 230.957 c 161.008
 232.961 160.227 234.844 158.812 236.258 c 157.395 237.676 155.512 238.457
 153.508 238.457 c 151.504 238.457 149.621 237.676 148.207 236.258 c 146.789
 234.844 146.008 232.961 146.008 230.957 c 146.008 228.953 146.789 227.07
 148.207 225.652 c h
207.121 254.012 m 209.02 260.738 l 197.457 265.418 l 193.621 266.973 191.766
 271.348 193.32 275.184 c 194.504 278.102 197.312 279.871 200.277 279.871
 c 201.215 279.871 202.168 279.695 203.09 279.32 c 213.121 275.258 l 217.633
 291.234 l 197.395 299.434 l 193.555 300.988 191.703 305.359 193.258 309.199
 c 194.438 312.113 197.246 313.887 200.211 313.887 c 201.148 313.887 202.102
 313.707 203.023 313.336 c 221.73 305.758 l 226.32 322.02 l 199.445 332.906
 l 195.605 334.461 193.754 338.832 195.309 342.672 c 196.488 345.59 199.297
 347.359 202.262 347.359 c 203.199 347.359 204.152 347.18 205.074 346.809
 c 230.422 336.543 l 232.691 344.582 l 233.32 346.809 232.094 350.188 229.57
 351.207 c 186.133 368.801 l 185.871 368.906 185.078 369.227 183.953 368.727
 c 182.992 368.297 182.176 367.422 181.824 366.445 c 164.824 319.273 l 162.621
 313.164 158.113 308.594 152.129 306.402 c 147.398 304.672 142.117 304.609
 137.289 306.125 c 129.082 300.441 l 189.684 239.84 l 195.023 247.711 202.488
 251.977 207.121 254.012 c h
244.918 184.609 m 245.863 183.664 246.539 182.48 246.875 181.188 c 250.258
 168.133 l 276.234 142.156 l 282.23 163.938 l 254.699 191.469 l 240.625 
188.898 l h
365.758 252.422 m 343.492 274.691 l 343.465 274.715 343.391 274.789 343.227
 274.789 c 343.062 274.789 342.988 274.715 342.965 274.691 c 267.828 199.555
 l 290.621 176.762 l 365.758 251.895 l 365.891 252.027 365.891 252.289 365.758
 252.422 c h
365.758 252.422 m f
135.938 138.668 m 140.078 138.668 143.438 135.312 143.438 131.168 c 143.438
 127.027 140.078 123.668 135.938 123.668 c 135.934 123.668 l 131.789 123.668
 128.434 127.027 128.434 131.168 c 128.434 135.312 131.797 138.668 135.938
 138.668 c h
135.938 138.668 m f
Q Q
showpage
%%Trailer
end
%%EOF
