%!PS-Adobe-3.0 EPSF-3.0
%%Creator: cairo 1.16.0 (https://cairographics.org)
%%CreationDate: Wed Sep 30 14:00:53 2020
%%Pages: 1
%%DocumentData: Clean7Bit
%%LanguageLevel: 2
%%BoundingBox: 0 0 384 384
%%EndComments
%%BeginProlog
50 dict begin
/q { gsave } bind def
/Q { grestore } bind def
/cm { 6 array astore concat } bind def
/w { setlinewidth } bind def
/J { setlinecap } bind def
/j { setlinejoin } bind def
/M { setmiterlimit } bind def
/d { setdash } bind def
/m { moveto } bind def
/l { lineto } bind def
/c { curveto } bind def
/h { closepath } bind def
/re { exch dup neg 3 1 roll 5 3 roll moveto 0 rlineto
      0 exch rlineto 0 rlineto closepath } bind def
/S { stroke } bind def
/f { fill } bind def
/f* { eofill } bind def
/n { newpath } bind def
/W { clip } bind def
/W* { eoclip } bind def
/BT { } bind def
/ET { } bind def
/BDC { mark 3 1 roll /BDC pdfmark } bind def
/EMC { mark /EMC pdfmark } bind def
/cairo_store_point { /cairo_point_y exch def /cairo_point_x exch def } def
/Tj { show currentpoint cairo_store_point } bind def
/TJ {
  {
    dup
    type /stringtype eq
    { show } { -0.001 mul 0 cairo_font_matrix dtransform rmoveto } ifelse
  } forall
  currentpoint cairo_store_point
} bind def
/cairo_selectfont { cairo_font_matrix aload pop pop pop 0 0 6 array astore
    cairo_font exch selectfont cairo_point_x cairo_point_y moveto } bind def
/Tf { pop /cairo_font exch def /cairo_font_matrix where
      { pop cairo_selectfont } if } bind def
/Td { matrix translate cairo_font_matrix matrix concatmatrix dup
      /cairo_font_matrix exch def dup 4 get exch 5 get cairo_store_point
      /cairo_font where { pop cairo_selectfont } if } bind def
/Tm { 2 copy 8 2 roll 6 array astore /cairo_font_matrix exch def
      cairo_store_point /cairo_font where { pop cairo_selectfont } if } bind def
/g { setgray } bind def
/rg { setrgbcolor } bind def
/d1 { setcachedevice } bind def
/cairo_data_source {
  CairoDataIndex CairoData length lt
    { CairoData CairoDataIndex get /CairoDataIndex CairoDataIndex 1 add def }
    { () } ifelse
} def
/cairo_flush_ascii85_file { cairo_ascii85_file status { cairo_ascii85_file flushfile } if } def
/cairo_image { image cairo_flush_ascii85_file } def
/cairo_imagemask { imagemask cairo_flush_ascii85_file } def
%%EndProlog
%%BeginSetup
%%EndSetup
%%Page: 1 1
%%BeginPageSetup
%%PageBoundingBox: 0 0 384 384
%%EndPageSetup
q 0 0 384 384 rectclip
1 0 0 -1 0 384 cm q
0 g
384 24.852 m 384 18.195 381.422 11.949 376.734 7.266 c 372.051 2.578 365.805
 0 359.148 0 c 352.492 0 346.246 2.578 341.562 7.266 c 307.086 41.738 l 
304.156 44.668 304.156 49.418 307.086 52.348 c 310.016 55.273 314.762 55.273
 317.691 52.348 c 327.098 42.941 l 332.918 65.047 l 260.344 137.621 l 254.523
 115.516 l 269.965 100.074 l 272.895 97.145 272.895 92.395 269.965 89.465
 c 267.039 86.535 262.289 86.535 259.359 89.465 c 126.781 222.043 l 117.953
 214.898 104.938 215.426 96.73 223.633 c 89.957 230.406 88.418 240.457 92.105
 248.723 c 32.656 299.027 l 29.547 297.449 26.082 296.609 22.484 296.609
 c 16.461 296.609 10.812 298.945 6.574 303.184 c 2.336 307.422 0 313.07 
0 319.094 c 0 325.113 2.336 330.766 6.57 335 c 49 377.43 l 53.238 381.664
 58.887 384 64.91 384 c 70.93 384 76.578 381.664 80.816 377.43 c 85.055 
373.191 87.391 367.539 87.391 361.52 c 87.391 357.918 86.551 354.453 84.977
 351.344 c 135.277 291.895 l 138.191 293.195 141.324 293.848 144.461 293.848
 c 150.223 293.848 155.984 291.656 160.371 287.27 c 168.578 279.062 169.105
 266.047 161.961 257.219 c 376.734 42.441 l 381.418 37.754 384 31.508 384
 24.852 c h
248.062 149.898 m 217.918 180.047 l 212.098 157.941 l 242.242 127.793 l
 h
175.488 222.473 m 169.668 200.367 l 199.816 170.219 l 205.637 192.324 l
 h
137.48 232.559 m 157.391 212.648 l 163.211 234.75 l 151.441 246.523 l h
113.945 293.883 m 90.117 270.055 l 101.609 260.332 l 123.672 282.391 l 
h
94.5 316.863 m 67.137 289.5 l 78.629 279.777 l 104.223 305.371 l h
44.156 308.945 m 55.648 299.223 l 84.777 328.355 l 75.055 339.844 l h
70.211 366.82 m 67.289 369.746 62.531 369.746 59.605 366.82 c 17.18 324.395
 l 15.773 322.988 15 321.105 15 319.09 c 15 317.078 15.773 315.191 17.18
 313.789 c 18.582 312.383 20.465 311.609 22.48 311.609 c 24.496 311.609 
26.379 312.383 27.785 313.789 c 70.211 356.215 l 73.137 359.141 73.137 363.898
 70.211 366.82 c h
149.762 276.664 m 148.359 278.07 146.477 278.844 144.461 278.844 c 142.445
 278.844 140.562 278.07 139.156 276.664 c 107.336 244.844 l 104.414 241.918
 104.414 237.16 107.336 234.238 c 108.742 232.832 110.625 232.059 112.641
 232.059 c 114.656 232.059 116.539 232.832 117.941 234.238 c 149.762 266.059
 l 151.168 267.461 151.941 269.344 151.941 271.359 c 151.941 273.375 151.168
 275.258 149.762 276.664 c h
366.129 31.832 m 345.195 52.766 l 339.375 30.664 l 352.168 17.871 l 354.02
 16.02 356.496 15 359.148 15 c 361.801 15 364.277 16.02 366.129 17.871 c
 369.977 21.719 369.977 27.984 366.129 31.832 c h
366.129 31.832 m f
288.648 78.527 m 292.793 78.527 296.148 75.168 296.148 71.027 c 296.148
 66.883 292.793 63.527 288.648 63.527 c 288.645 63.527 l 284.504 63.527 
281.148 66.883 281.148 71.027 c 281.148 75.168 284.508 78.527 288.648 78.527
 c h
288.648 78.527 m f
Q Q
showpage
%%Trailer
end
%%EOF
