%!PS-Adobe-3.0 EPSF-3.0
%%Creator: cairo 1.16.0 (https://cairographics.org)
%%CreationDate: Wed Sep 30 14:00:57 2020
%%Pages: 1
%%DocumentData: Clean7Bit
%%LanguageLevel: 2
%%BoundingBox: 0 0 384 384
%%EndComments
%%BeginProlog
50 dict begin
/q { gsave } bind def
/Q { grestore } bind def
/cm { 6 array astore concat } bind def
/w { setlinewidth } bind def
/J { setlinecap } bind def
/j { setlinejoin } bind def
/M { setmiterlimit } bind def
/d { setdash } bind def
/m { moveto } bind def
/l { lineto } bind def
/c { curveto } bind def
/h { closepath } bind def
/re { exch dup neg 3 1 roll 5 3 roll moveto 0 rlineto
      0 exch rlineto 0 rlineto closepath } bind def
/S { stroke } bind def
/f { fill } bind def
/f* { eofill } bind def
/n { newpath } bind def
/W { clip } bind def
/W* { eoclip } bind def
/BT { } bind def
/ET { } bind def
/BDC { mark 3 1 roll /BDC pdfmark } bind def
/EMC { mark /EMC pdfmark } bind def
/cairo_store_point { /cairo_point_y exch def /cairo_point_x exch def } def
/Tj { show currentpoint cairo_store_point } bind def
/TJ {
  {
    dup
    type /stringtype eq
    { show } { -0.001 mul 0 cairo_font_matrix dtransform rmoveto } ifelse
  } forall
  currentpoint cairo_store_point
} bind def
/cairo_selectfont { cairo_font_matrix aload pop pop pop 0 0 6 array astore
    cairo_font exch selectfont cairo_point_x cairo_point_y moveto } bind def
/Tf { pop /cairo_font exch def /cairo_font_matrix where
      { pop cairo_selectfont } if } bind def
/Td { matrix translate cairo_font_matrix matrix concatmatrix dup
      /cairo_font_matrix exch def dup 4 get exch 5 get cairo_store_point
      /cairo_font where { pop cairo_selectfont } if } bind def
/Tm { 2 copy 8 2 roll 6 array astore /cairo_font_matrix exch def
      cairo_store_point /cairo_font where { pop cairo_selectfont } if } bind def
/g { setgray } bind def
/rg { setrgbcolor } bind def
/d1 { setcachedevice } bind def
/cairo_data_source {
  CairoDataIndex CairoData length lt
    { CairoData CairoDataIndex get /CairoDataIndex CairoDataIndex 1 add def }
    { () } ifelse
} def
/cairo_flush_ascii85_file { cairo_ascii85_file status { cairo_ascii85_file flushfile } if } def
/cairo_image { image cairo_flush_ascii85_file } def
/cairo_imagemask { imagemask cairo_flush_ascii85_file } def
%%EndProlog
%%BeginSetup
%%EndSetup
%%Page: 1 1
%%BeginPageSetup
%%PageBoundingBox: 0 0 384 384
%%EndPageSetup
q 0 0 384 384 rectclip
1 0 0 -1 0 384 cm q
0 g
381.805 108.262 m 352.637 79.094 l 349.711 76.164 344.961 76.168 342.031
 79.094 c 339.102 82.023 339.102 86.773 342.031 89.703 c 365.895 113.562
 l 281.043 198.414 l 185.586 102.957 l 270.438 18.105 l 294.305 41.973 l
 297.23 44.902 301.98 44.902 304.91 41.973 c 307.84 39.043 307.84 34.297
 304.91 31.367 c 275.738 2.195 l 274.332 0.789 272.426 0 270.438 0 c 228.012
 0 l 226.023 0 224.113 0.789 222.707 2.195 c 169.676 55.227 l 168.27 56.633
 167.48 58.543 167.48 60.531 c 167.48 102.957 l 167.48 104.945 168.27 106.852
 169.676 108.258 c 206.797 145.383 l 123.25 228.93 l 117.949 223.625 l 109.176
 214.852 94.902 214.852 86.129 223.625 c 79.082 230.672 77.703 241.266 81.977
 249.707 c 31.672 309.156 l 23.402 305.469 13.352 307.008 6.578 313.781 
c -2.191 322.555 -2.191 336.828 6.578 345.602 c 38.398 377.422 l 42.785 
381.805 48.547 384 54.309 384 c 60.07 384 65.832 381.805 70.219 377.418 
c 74.457 373.184 76.789 367.531 76.789 361.512 c 76.789 358.289 76.117 355.176
 74.844 352.324 c 134.293 302.023 l 137.48 303.637 140.969 304.449 144.465
 304.449 c 150.227 304.449 155.988 302.258 160.375 297.871 c 164.613 293.633
 166.945 287.98 166.945 281.961 c 166.945 275.941 164.613 270.289 160.375
 266.051 c 155.07 260.75 l 238.617 177.203 l 275.738 214.324 l 277.145 215.73
 279.055 216.52 281.043 216.52 c 323.469 216.52 l 325.457 216.52 327.363
 215.73 328.77 214.324 c 381.801 161.293 l 383.207 159.887 384 157.98 384
 155.988 c 384 113.566 l 384 111.574 383.211 109.668 381.805 108.262 c h
231.117 15 m 252.332 15 l 182.48 84.852 l 182.48 63.637 l h
111.301 301.832 m 82.172 272.699 l 91.895 261.211 l 122.793 292.109 l h
88.32 321.277 m 62.727 295.68 l 72.449 284.191 l 99.812 311.555 l h
43.277 318.66 m 53 307.172 l 76.828 331 l 65.34 340.723 l h
59.613 366.812 m 58.207 368.219 56.324 368.992 54.309 368.992 c 52.293 
368.992 50.41 368.219 49.004 366.812 c 17.188 334.996 l 15.781 333.59 15.008
 331.707 15.008 329.691 c 15.008 327.676 15.781 325.793 17.188 324.391 c
 18.59 322.984 20.473 322.211 22.488 322.211 c 24.504 322.211 26.387 322.984
 27.793 324.391 c 59.613 356.207 l 61.016 357.613 61.789 359.496 61.789 
361.512 c 61.789 363.527 61.016 365.41 59.613 366.812 c h
149.77 287.266 m 146.844 290.188 142.086 290.188 139.16 287.266 c 96.734
 244.84 l 93.812 241.914 93.812 237.156 96.734 234.23 c 98.199 232.77 100.117
 232.039 102.039 232.039 c 103.957 232.039 105.879 232.77 107.34 234.23 
c 149.766 276.656 l 152.691 279.582 152.691 284.34 149.77 287.266 c h
144.465 250.141 m 133.859 239.535 l 217.406 155.988 l 228.012 166.598 l
 h
320.363 201.52 m 299.148 201.52 l 369 131.668 l 369 152.883 l h
320.363 201.52 m f
264.113 56.25 m 261.184 53.32 256.434 53.324 253.504 56.25 c 223.73 86.023
 l 220.801 88.953 220.801 93.703 223.73 96.633 c 225.195 98.098 227.113 
98.828 229.031 98.828 c 230.953 98.828 232.871 98.098 234.336 96.633 c 264.109
 66.859 l 267.039 63.93 267.039 59.18 264.113 56.25 c h
264.113 56.25 m f
250.246 120.039 m 252.164 120.039 254.086 119.309 255.551 117.844 c 285.324
 88.07 l 288.254 85.141 288.254 80.391 285.324 77.461 c 282.395 74.531 277.648
 74.535 274.719 77.461 c 244.941 107.238 l 242.016 110.164 242.016 114.914
 244.941 117.844 c 246.406 119.309 248.328 120.039 250.246 120.039 c h
250.246 120.039 m f
295.93 98.676 m 266.156 128.449 l 263.227 131.379 263.227 136.129 266.156
 139.059 c 267.621 140.523 269.539 141.254 271.457 141.254 c 273.379 141.254
 275.297 140.523 276.762 139.059 c 306.535 109.281 l 309.465 106.355 309.465
 101.605 306.535 98.676 c 303.609 95.746 298.859 95.746 295.93 98.676 c 
h
295.93 98.676 m f
317.145 119.887 m 287.367 149.664 l 284.438 152.594 284.438 157.34 287.367
 160.27 c 288.832 161.734 290.75 162.469 292.672 162.469 c 294.59 162.469
 296.512 161.734 297.973 160.27 c 327.75 130.496 l 330.68 127.566 330.68
 122.816 327.75 119.887 c 324.82 116.961 320.07 116.961 317.145 119.887 
c h
317.145 119.887 m f
323.477 68.035 m 325.168 68.035 326.871 67.465 328.273 66.297 c 331.457
 63.645 331.887 58.918 329.234 55.734 c 329.23 55.73 l 326.578 52.547 321.852
 52.121 318.668 54.773 c 315.484 57.426 315.059 62.156 317.711 65.336 c 
319.195 67.117 321.328 68.035 323.477 68.035 c h
323.477 68.035 m f
Q Q
showpage
%%Trailer
end
%%EOF
