%!PS-Adobe-3.0 EPSF-3.0
%%Creator: cairo 1.16.0 (https://cairographics.org)
%%CreationDate: Wed Sep 30 14:00:58 2020
%%Pages: 1
%%DocumentData: Clean7Bit
%%LanguageLevel: 2
%%BoundingBox: 72 0 312 384
%%EndComments
%%BeginProlog
50 dict begin
/q { gsave } bind def
/Q { grestore } bind def
/cm { 6 array astore concat } bind def
/w { setlinewidth } bind def
/J { setlinecap } bind def
/j { setlinejoin } bind def
/M { setmiterlimit } bind def
/d { setdash } bind def
/m { moveto } bind def
/l { lineto } bind def
/c { curveto } bind def
/h { closepath } bind def
/re { exch dup neg 3 1 roll 5 3 roll moveto 0 rlineto
      0 exch rlineto 0 rlineto closepath } bind def
/S { stroke } bind def
/f { fill } bind def
/f* { eofill } bind def
/n { newpath } bind def
/W { clip } bind def
/W* { eoclip } bind def
/BT { } bind def
/ET { } bind def
/BDC { mark 3 1 roll /BDC pdfmark } bind def
/EMC { mark /EMC pdfmark } bind def
/cairo_store_point { /cairo_point_y exch def /cairo_point_x exch def } def
/Tj { show currentpoint cairo_store_point } bind def
/TJ {
  {
    dup
    type /stringtype eq
    { show } { -0.001 mul 0 cairo_font_matrix dtransform rmoveto } ifelse
  } forall
  currentpoint cairo_store_point
} bind def
/cairo_selectfont { cairo_font_matrix aload pop pop pop 0 0 6 array astore
    cairo_font exch selectfont cairo_point_x cairo_point_y moveto } bind def
/Tf { pop /cairo_font exch def /cairo_font_matrix where
      { pop cairo_selectfont } if } bind def
/Td { matrix translate cairo_font_matrix matrix concatmatrix dup
      /cairo_font_matrix exch def dup 4 get exch 5 get cairo_store_point
      /cairo_font where { pop cairo_selectfont } if } bind def
/Tm { 2 copy 8 2 roll 6 array astore /cairo_font_matrix exch def
      cairo_store_point /cairo_font where { pop cairo_selectfont } if } bind def
/g { setgray } bind def
/rg { setrgbcolor } bind def
/d1 { setcachedevice } bind def
/cairo_data_source {
  CairoDataIndex CairoData length lt
    { CairoData CairoDataIndex get /CairoDataIndex CairoDataIndex 1 add def }
    { () } ifelse
} def
/cairo_flush_ascii85_file { cairo_ascii85_file status { cairo_ascii85_file flushfile } if } def
/cairo_image { image cairo_flush_ascii85_file } def
/cairo_imagemask { imagemask cairo_flush_ascii85_file } def
%%EndProlog
%%BeginSetup
%%EndSetup
%%Page: 1 1
%%BeginPageSetup
%%PageBoundingBox: 72 0 312 384
%%EndPageSetup
q 72 0 240 384 rectclip
1 0 0 -1 0 384 cm q
0 g
244.5 156.074 m 244.5 136.5 l 244.5 124.094 234.406 114 222 114 c 222 61.047
 l 226.508 62.324 230.656 64.746 234.078 68.172 c 239.348 73.438 242.25 
80.391 242.25 87.75 c 242.25 100.156 252.344 110.25 264.75 110.25 c 277.156
 110.25 287.25 100.156 287.25 87.75 c 287.25 68.375 279.668 50.121 265.898
 36.352 c 253.633 24.086 237.809 16.734 220.801 15.273 c 217.785 6.402 209.379
 0 199.5 0 c 184.5 0 l 172.094 0 162 10.094 162 22.5 c 162 114 l 149.594
 114 139.5 124.094 139.5 136.5 c 139.5 156.074 l 98.336 176.113 72 217.945
 72 264 c 72 330.168 125.832 384 192 384 c 258.168 384 312 330.168 312 264
 c 312 217.945 285.664 176.113 244.5 156.074 c h
272.25 87.75 m 272.25 91.887 268.883 95.25 264.75 95.25 c 260.613 95.25
 257.25 91.887 257.25 87.75 c 257.25 76.387 252.789 65.664 244.688 57.562
 c 238.41 51.285 230.527 47.195 222 45.672 c 222 30.5 l 234.535 32.133 246.152
 37.824 255.289 46.957 c 266.227 57.895 272.25 72.383 272.25 87.75 c h
184.5 15 m 199.5 15 l 203.633 15 207 18.363 207 22.5 c 207 84 l 177 84 
l 177 22.5 l 177 18.363 180.363 15 184.5 15 c h
177 99 m 207 99 l 207 114 l 177 114 l h
192 369 m 134.102 369 87 321.898 87 264 c 87 222.25 111.73 184.469 150.004
 167.742 c 152.734 166.551 154.5 163.852 154.5 160.871 c 154.5 136.5 l 154.5
 132.363 157.863 129 162 129 c 222 129 l 226.133 129 229.5 132.363 229.5
 136.5 c 229.5 160.871 l 229.5 163.852 231.266 166.551 233.996 167.742 c
 272.27 184.469 297 222.25 297 264 c 297 321.898 249.898 369 192 369 c h
192 369 m f
129.008 210.203 m 125.629 207.809 120.949 208.602 118.551 211.98 c 107.723
 227.242 102 245.23 102 264 c 102 268.141 105.359 271.5 109.5 271.5 c 113.641
 271.5 117 268.141 117 264 c 117 248.355 121.766 233.367 130.785 220.66 
c 133.18 217.281 132.387 212.602 129.008 210.203 c h
129.008 210.203 m f
149.387 185.844 m 149.383 185.844 l 145.242 185.844 141.887 189.203 141.887
 193.344 c 141.887 197.484 145.246 200.844 149.387 200.844 c 153.531 200.844
 156.887 197.484 156.887 193.344 c 156.887 189.203 153.531 185.844 149.387
 185.844 c h
149.387 185.844 m f
Q Q
showpage
%%Trailer
end
%%EOF
