%!PS-Adobe-3.0 EPSF-3.0
%%Creator: cairo 1.16.0 (https://cairographics.org)
%%CreationDate: Wed Sep 30 14:01:01 2020
%%Pages: 1
%%DocumentData: Clean7Bit
%%LanguageLevel: 2
%%BoundingBox: 83 0 301 384
%%EndComments
%%BeginProlog
50 dict begin
/q { gsave } bind def
/Q { grestore } bind def
/cm { 6 array astore concat } bind def
/w { setlinewidth } bind def
/J { setlinecap } bind def
/j { setlinejoin } bind def
/M { setmiterlimit } bind def
/d { setdash } bind def
/m { moveto } bind def
/l { lineto } bind def
/c { curveto } bind def
/h { closepath } bind def
/re { exch dup neg 3 1 roll 5 3 roll moveto 0 rlineto
      0 exch rlineto 0 rlineto closepath } bind def
/S { stroke } bind def
/f { fill } bind def
/f* { eofill } bind def
/n { newpath } bind def
/W { clip } bind def
/W* { eoclip } bind def
/BT { } bind def
/ET { } bind def
/BDC { mark 3 1 roll /BDC pdfmark } bind def
/EMC { mark /EMC pdfmark } bind def
/cairo_store_point { /cairo_point_y exch def /cairo_point_x exch def } def
/Tj { show currentpoint cairo_store_point } bind def
/TJ {
  {
    dup
    type /stringtype eq
    { show } { -0.001 mul 0 cairo_font_matrix dtransform rmoveto } ifelse
  } forall
  currentpoint cairo_store_point
} bind def
/cairo_selectfont { cairo_font_matrix aload pop pop pop 0 0 6 array astore
    cairo_font exch selectfont cairo_point_x cairo_point_y moveto } bind def
/Tf { pop /cairo_font exch def /cairo_font_matrix where
      { pop cairo_selectfont } if } bind def
/Td { matrix translate cairo_font_matrix matrix concatmatrix dup
      /cairo_font_matrix exch def dup 4 get exch 5 get cairo_store_point
      /cairo_font where { pop cairo_selectfont } if } bind def
/Tm { 2 copy 8 2 roll 6 array astore /cairo_font_matrix exch def
      cairo_store_point /cairo_font where { pop cairo_selectfont } if } bind def
/g { setgray } bind def
/rg { setrgbcolor } bind def
/d1 { setcachedevice } bind def
/cairo_data_source {
  CairoDataIndex CairoData length lt
    { CairoData CairoDataIndex get /CairoDataIndex CairoDataIndex 1 add def }
    { () } ifelse
} def
/cairo_flush_ascii85_file { cairo_ascii85_file status { cairo_ascii85_file flushfile } if } def
/cairo_image { image cairo_flush_ascii85_file } def
/cairo_imagemask { imagemask cairo_flush_ascii85_file } def
%%EndProlog
%%BeginSetup
%%EndSetup
%%Page: 1 1
%%BeginPageSetup
%%PageBoundingBox: 83 0 301 384
%%EndPageSetup
q 83 0 218 384 rectclip
1 0 0 -1 0 384 cm q
0 g
289.789 216.539 m 291.633 213.277 292.688 209.508 292.688 205.5 c 292.688
 190.957 283.641 178.488 270.879 173.422 c 272.355 170.426 273.188 167.059
 273.188 163.5 c 273.188 149.711 265.051 137.781 253.328 132.266 c 253.562
 131.215 253.688 130.121 253.688 129 c 253.688 106.5 l 253.688 98.23 246.957
 91.5 238.688 91.5 c 229.5 91.5 l 229.5 46.5 l 229.5 34.094 219.406 24 207
 24 c 184.941 24 l 178.188 9.824 163.719 0 147 0 c 139.27 0 131.699 2.129
 125.102 6.164 c 121.566 8.324 120.453 12.938 122.609 16.473 c 124.773 20.008
 129.387 21.121 132.922 18.965 c 137.164 16.371 142.031 15 147 15 c 154.98
 15 162.156 18.48 167.105 24 c 162 24 l 149.594 24 139.5 34.094 139.5 46.5
 c 139.5 61.5 l 139.5 63.836 139.867 66.082 140.527 68.203 c 137.855 67.543
 135.285 66.492 132.922 65.047 c 129.391 62.883 124.773 63.992 122.609 67.523
 c 120.445 71.055 121.555 75.672 125.086 77.836 c 131.672 81.867 139.25 
84 147 84 c 149.562 84 152.062 83.758 154.5 83.316 c 154.5 91.5 l 145.312
 91.5 l 137.039 91.5 130.312 98.23 130.312 106.5 c 130.312 129 l 130.312
 130.121 130.438 131.215 130.668 132.266 c 118.949 137.781 110.812 149.711
 110.812 163.5 c 110.812 167.059 111.641 170.426 113.117 173.418 c 100.355
 178.488 91.312 190.957 91.312 205.5 c 91.312 209.508 92.367 213.277 94.211
 216.539 c 87.961 220.543 83.812 227.543 83.812 235.5 c 83.812 247.5 l 83.812
 255.457 87.961 262.461 94.211 266.461 c 92.363 269.727 91.312 273.492 91.312
 277.5 c 91.312 292.043 100.355 304.516 113.117 309.582 c 111.641 312.574
 110.812 315.941 110.812 319.5 c 110.812 333.293 118.945 345.219 130.668
 350.734 c 130.434 351.785 130.312 352.879 130.312 354 c 130.312 369 l 130.312
 377.27 137.039 384 145.312 384 c 238.688 384 l 246.957 384 253.688 377.27
 253.688 369 c 253.688 354 l 253.688 352.879 253.562 351.785 253.328 350.734
 c 265.051 345.219 273.188 333.289 273.188 319.5 c 273.188 315.941 272.355
 312.574 270.879 309.582 c 283.641 304.516 292.688 292.043 292.688 277.5
 c 292.688 273.492 291.633 269.723 289.789 266.461 c 296.035 262.461 300.188
 255.457 300.188 247.5 c 300.188 235.5 l 300.188 227.547 296.039 220.543
 289.789 216.539 c h
277.688 205.5 m 277.688 209.637 274.32 213 270.188 213 c 237.379 213 l 
237.797 210.699 238.023 208.191 238.023 205.5 c 238.023 198.785 237.07 191.867
 235.086 186 c 258.188 186 l 268.938 186 277.688 194.75 277.688 205.5 c 
h
226.125 235.5 m 226.125 247.5 l 226.125 250.969 225.516 253.559 224.969
 255 c 159.031 255 l 158.484 253.559 157.875 250.969 157.875 247.5 c 157.875
 235.5 l 157.875 232.035 158.484 229.441 159.031 228 c 224.969 228 l 225.516
 229.441 226.125 232.035 226.125 235.5 c h
223.023 277.5 m 223.023 288.148 220.195 295.172 218.48 297 c 165.52 297
 l 163.805 295.172 160.973 288.148 160.973 277.5 c 160.973 274.027 161.586
 271.441 162.133 270 c 221.863 270 l 222.414 271.441 223.023 274.027 223.023
 277.5 c h
214.961 319.5 m 214.961 330.164 212.125 337.184 210.41 339 c 173.586 339
 l 171.875 337.184 169.035 330.164 169.035 319.5 c 169.035 316.027 169.648
 313.441 170.195 312 c 213.805 312 l 214.352 313.441 214.961 316.027 214.961
 319.5 c h
160.977 205.5 m 160.977 194.855 163.805 187.828 165.52 186 c 218.48 186
 l 220.195 187.828 223.023 194.855 223.023 205.5 c 223.023 208.973 222.414
 211.559 221.867 213 c 162.133 213 l 161.586 211.562 160.977 208.973 160.977
 205.5 c h
169.035 163.5 m 169.035 152.84 171.875 145.816 173.586 144 c 210.414 144
 l 212.125 145.816 214.965 152.84 214.965 163.5 c 214.965 166.973 214.352
 169.559 213.805 171 c 170.195 171 l 169.648 169.562 169.035 166.973 169.035
 163.5 c h
258.188 163.5 m 258.188 167.637 254.82 171 250.688 171 c 229.324 171 l 
229.742 168.703 229.961 166.191 229.961 163.5 c 229.961 156.785 229.008 
149.867 227.023 144 c 238.688 144 l 249.438 144 258.188 152.75 258.188 163.5
 c h
154.5 46.5 m 154.5 42.363 157.863 39 162 39 c 173.828 39 l 173.938 39.984
 174 40.984 174 42 c 174 53.355 166.949 63.09 157 67.074 c 155.469 65.699
 154.5 63.715 154.5 61.5 c h
169.5 77.438 m 181.211 69.977 189 56.887 189 42 c 189 40.992 188.953 39.992
 188.879 39 c 207 39 l 211.133 39 214.5 42.363 214.5 46.5 c 214.5 91.5 l
 169.5 91.5 l h
238.688 106.5 m 238.688 129 l 145.312 129 l 145.312 106.5 l h
145.312 144 m 156.973 144 l 154.992 149.867 154.035 156.785 154.035 163.5
 c 154.035 166.191 154.258 168.703 154.676 171 c 133.312 171 l 129.176 171
 125.812 167.637 125.812 163.5 c 125.812 152.75 134.562 144 145.312 144 
c h
125.812 186 m 148.914 186 l 146.93 191.867 145.977 198.785 145.977 205.5
 c 145.977 208.191 146.199 210.699 146.617 213 c 113.812 213 l 109.676 213
 106.312 209.637 106.312 205.5 c 106.312 194.75 115.062 186 125.812 186 
c h
98.812 247.5 m 98.812 235.5 l 98.812 231.363 102.176 228 106.312 228 c 
143.516 228 l 143.098 230.301 142.875 232.809 142.875 235.5 c 142.875 247.5
 l 142.875 250.191 143.098 252.699 143.516 255 c 106.312 255 l 102.176 255
 98.812 251.637 98.812 247.5 c h
106.312 277.5 m 106.312 273.363 109.676 270 113.812 270 c 146.621 270 l
 146.203 272.301 145.977 274.809 145.977 277.5 c 145.977 284.215 146.934
 291.137 148.914 297 c 125.812 297 l 115.062 297 106.312 288.254 106.312
 277.5 c h
125.812 319.5 m 125.812 315.363 129.176 312 133.312 312 c 154.676 312 l
 154.258 314.301 154.035 316.812 154.035 319.5 c 154.035 326.215 154.992
 333.137 156.973 339 c 145.312 339 l 134.562 339 125.812 330.254 125.812
 319.5 c h
238.688 369 m 145.312 369 l 145.312 354 l 238.688 354 l h
238.688 339 m 227.027 339 l 229.008 333.137 229.965 326.215 229.965 319.5
 c 229.965 316.812 229.742 314.301 229.324 312 c 250.688 312 l 254.824 312
 258.188 315.363 258.188 319.5 c 258.188 330.254 249.438 339 238.688 339
 c h
258.188 297 m 235.086 297 l 237.07 291.137 238.023 284.215 238.023 277.5
 c 238.023 274.809 237.801 272.301 237.383 270 c 270.188 270 l 274.324 270
 277.688 273.363 277.688 277.5 c 277.688 288.254 268.938 297 258.188 297
 c h
285.188 247.5 m 285.188 251.637 281.824 255 277.688 255 c 240.484 255 l
 240.902 252.699 241.125 250.191 241.125 247.5 c 241.125 235.5 l 241.125
 232.809 240.902 230.301 240.484 228 c 277.688 228 l 281.824 228 285.188
 231.363 285.188 235.5 c h
285.188 247.5 m f
112.5 49.5 m 116.641 49.5 120 46.141 120 42 c 120 37.859 116.641 34.5 112.5
 34.5 c 112.496 34.5 l 108.352 34.5 104.996 37.859 104.996 42 c 104.996 
46.141 108.355 49.5 112.5 49.5 c h
112.5 49.5 m f
Q Q
showpage
%%Trailer
end
%%EOF
