%!PS-Adobe-3.0 EPSF-3.0
%%Creator: cairo 1.16.0 (https://cairographics.org)
%%CreationDate: Wed Sep 30 14:01:03 2020
%%Pages: 1
%%DocumentData: Clean7Bit
%%LanguageLevel: 2
%%BoundingBox: 71 0 313 384
%%EndComments
%%BeginProlog
50 dict begin
/q { gsave } bind def
/Q { grestore } bind def
/cm { 6 array astore concat } bind def
/w { setlinewidth } bind def
/J { setlinecap } bind def
/j { setlinejoin } bind def
/M { setmiterlimit } bind def
/d { setdash } bind def
/m { moveto } bind def
/l { lineto } bind def
/c { curveto } bind def
/h { closepath } bind def
/re { exch dup neg 3 1 roll 5 3 roll moveto 0 rlineto
      0 exch rlineto 0 rlineto closepath } bind def
/S { stroke } bind def
/f { fill } bind def
/f* { eofill } bind def
/n { newpath } bind def
/W { clip } bind def
/W* { eoclip } bind def
/BT { } bind def
/ET { } bind def
/BDC { mark 3 1 roll /BDC pdfmark } bind def
/EMC { mark /EMC pdfmark } bind def
/cairo_store_point { /cairo_point_y exch def /cairo_point_x exch def } def
/Tj { show currentpoint cairo_store_point } bind def
/TJ {
  {
    dup
    type /stringtype eq
    { show } { -0.001 mul 0 cairo_font_matrix dtransform rmoveto } ifelse
  } forall
  currentpoint cairo_store_point
} bind def
/cairo_selectfont { cairo_font_matrix aload pop pop pop 0 0 6 array astore
    cairo_font exch selectfont cairo_point_x cairo_point_y moveto } bind def
/Tf { pop /cairo_font exch def /cairo_font_matrix where
      { pop cairo_selectfont } if } bind def
/Td { matrix translate cairo_font_matrix matrix concatmatrix dup
      /cairo_font_matrix exch def dup 4 get exch 5 get cairo_store_point
      /cairo_font where { pop cairo_selectfont } if } bind def
/Tm { 2 copy 8 2 roll 6 array astore /cairo_font_matrix exch def
      cairo_store_point /cairo_font where { pop cairo_selectfont } if } bind def
/g { setgray } bind def
/rg { setrgbcolor } bind def
/d1 { setcachedevice } bind def
/cairo_data_source {
  CairoDataIndex CairoData length lt
    { CairoData CairoDataIndex get /CairoDataIndex CairoDataIndex 1 add def }
    { () } ifelse
} def
/cairo_flush_ascii85_file { cairo_ascii85_file status { cairo_ascii85_file flushfile } if } def
/cairo_image { image cairo_flush_ascii85_file } def
/cairo_imagemask { imagemask cairo_flush_ascii85_file } def
%%EndProlog
%%BeginSetup
%%EndSetup
%%Page: 1 1
%%BeginPageSetup
%%PageBoundingBox: 71 0 313 384
%%EndPageSetup
q 71 0 242 384 rectclip
1 0 0 -1 0 384 cm q
0 g
307.867 37.641 m 313.762 31.746 313.762 22.156 307.867 16.266 c 296.023
 4.418 l 293.172 1.57 289.379 0 285.336 0 c 281.293 0 277.496 1.57 274.648
 4.418 c 267.332 11.73 l 262.809 7.211 l 259.883 4.281 255.133 4.281 252.203
 7.211 c 249.273 10.141 249.273 14.887 252.203 17.816 c 256.727 22.34 l 
177.645 101.418 l 177.562 101.34 l 174.715 98.488 170.918 96.922 166.875
 96.922 c 162.832 96.922 159.035 98.488 156.188 101.34 c 147.742 109.781
 l 144.816 112.711 144.816 117.461 147.742 120.391 c 150.672 123.32 155.422
 123.316 158.352 120.391 c 166.797 111.945 l 166.832 111.906 166.918 111.906
 166.957 111.945 c 177.809 122.797 l 134.652 165.953 l 131.723 168.879 131.723
 173.629 134.652 176.559 c 156.188 198.098 l 157.594 199.504 159.504 200.293
 161.492 200.293 c 163.48 200.293 165.391 199.504 166.797 198.098 c 209.953
 154.941 l 216.496 161.484 l 216.496 161.484 216.5 161.484 216.5 161.488
 c 220.801 165.789 l 220.84 165.828 220.84 165.914 220.801 165.953 c 171.266
 215.488 l 166.273 220.48 164.363 226.77 163.969 232.352 c 120.215 228.578
 l 124.348 210.449 115.312 189.852 102.184 176.719 c 102.148 176.688 102.148
 176.59 102.184 176.559 c 110.621 168.117 l 113.551 165.191 113.551 160.441
 110.621 157.512 c 107.695 154.582 102.945 154.582 100.016 157.512 c 91.574
 165.953 l 85.684 171.844 85.684 181.434 91.574 187.328 c 92.48 188.234 
93.363 189.195 94.219 190.199 c 86.891 191.59 79.664 195.363 73.91 201.117
 c 70.98 204.047 70.98 208.797 73.91 211.727 c 75.375 213.191 77.293 213.922
 79.211 213.922 c 81.133 213.922 83.051 213.191 84.516 211.727 c 89.844 
206.398 97.203 203.715 103.176 204.828 c 106.387 212.727 107.398 221.164
 104.637 228.348 c 95.816 230.664 89.066 238.875 88.98 248.355 c 87.602 
280.562 85.777 324.625 124.957 363.805 c 138.418 377.266 l 143.918 382.766
 149.344 384 153.113 384 c 153.316 384 153.516 383.996 153.707 383.988 c
 158.75 383.812 163.695 381.441 168.004 377.129 c 202.199 342.941 l 207.281
 337.855 208.219 332.602 208.109 329.09 c 207.938 323.488 205.102 318.102
 199.91 313.512 c 177.293 293.531 172.23 284.258 171.227 280.512 c 169.758
 275.02 171.191 271.242 175.742 268.613 c 177.648 267.512 179.305 266.16
 180.68 264.605 c 184.922 265.301 188.844 265.617 192.465 265.617 c 212.566
 265.617 223.352 256.031 228.367 249.488 c 237.801 237.18 239.527 219.559
 232.66 205.645 c 229.184 198.602 223.938 193.406 217.543 190.426 c 231.41
 176.559 l 236.965 171 237.277 162.164 232.355 156.23 c 252.68 135.906 l
 255.605 132.977 255.605 128.23 252.68 125.301 c 249.75 122.371 245 122.371
 242.07 125.301 c 221.797 145.574 l 210.867 134.641 l h
189.977 324.754 m 192.242 326.758 193.086 328.547 193.117 329.555 c 193.141
 330.359 192.629 331.297 191.59 332.332 c 157.398 366.523 l 155.844 368.078
 154.348 368.957 153.188 369 c 151.734 369.047 150.121 367.754 149.023 366.66
 c 135.562 353.199 l 100.988 318.621 102.645 279.938 103.973 248.852 c 103.977
 248.746 103.98 248.641 103.98 248.531 c 103.98 245.27 106.84 242.82 109.473
 242.707 c 169.113 247.848 l 169.738 248.727 170.379 250.199 170.379 251.871
 c 170.379 254.102 169.234 255.047 168.238 255.621 c 157.824 261.637 153.523
 272.391 156.738 284.391 c 159.371 294.219 169.934 307.047 189.977 324.754
 c h
219.207 212.281 m 223.539 221.059 222.41 232.605 216.461 240.367 c 210.227
 248.5 199.258 251.883 185.297 250.109 c 184.863 244.836 182.523 239.832
 179.008 236.461 c 178.93 235.688 178.879 234.758 178.918 233.75 c 183.605
 235.793 188.012 236.793 192.477 236.793 c 195.348 236.793 198.246 236.383
 201.258 235.574 c 205.262 234.504 207.633 230.391 206.562 226.391 c 205.488
 222.387 201.379 220.012 197.375 221.086 c 194.105 221.961 191.09 222.188
 187.105 220.859 c 205.402 202.562 l 213.055 203.078 217.125 208.062 219.207
 212.281 c h
285.254 15.023 m 285.293 14.984 285.379 14.984 285.414 15.023 c 297.262
 26.871 l 297.301 26.91 297.301 26.992 297.262 27.031 c 200.262 124.035 
l 188.25 112.027 l h
161.492 182.188 m 150.559 171.254 l 188.414 133.402 l 199.344 144.332 l
 h
161.492 182.188 m f
129.18 146.453 m 131.098 146.453 133.02 145.719 134.484 144.258 c 134.488
 144.254 l 137.418 141.324 137.414 136.578 134.484 133.648 c 131.555 130.719
 126.805 130.723 123.879 133.648 c 120.949 136.578 120.949 141.328 123.879
 144.258 c 125.34 145.719 127.262 146.453 129.18 146.453 c h
129.18 146.453 m f
Q Q
showpage
%%Trailer
end
%%EOF
