%!PS-Adobe-3.0 EPSF-3.0
%%Creator: cairo 1.16.0 (https://cairographics.org)
%%CreationDate: Wed Sep 30 14:01:06 2020
%%Pages: 1
%%DocumentData: Clean7Bit
%%LanguageLevel: 2
%%BoundingBox: 0 9 384 375
%%EndComments
%%BeginProlog
50 dict begin
/q { gsave } bind def
/Q { grestore } bind def
/cm { 6 array astore concat } bind def
/w { setlinewidth } bind def
/J { setlinecap } bind def
/j { setlinejoin } bind def
/M { setmiterlimit } bind def
/d { setdash } bind def
/m { moveto } bind def
/l { lineto } bind def
/c { curveto } bind def
/h { closepath } bind def
/re { exch dup neg 3 1 roll 5 3 roll moveto 0 rlineto
      0 exch rlineto 0 rlineto closepath } bind def
/S { stroke } bind def
/f { fill } bind def
/f* { eofill } bind def
/n { newpath } bind def
/W { clip } bind def
/W* { eoclip } bind def
/BT { } bind def
/ET { } bind def
/BDC { mark 3 1 roll /BDC pdfmark } bind def
/EMC { mark /EMC pdfmark } bind def
/cairo_store_point { /cairo_point_y exch def /cairo_point_x exch def } def
/Tj { show currentpoint cairo_store_point } bind def
/TJ {
  {
    dup
    type /stringtype eq
    { show } { -0.001 mul 0 cairo_font_matrix dtransform rmoveto } ifelse
  } forall
  currentpoint cairo_store_point
} bind def
/cairo_selectfont { cairo_font_matrix aload pop pop pop 0 0 6 array astore
    cairo_font exch selectfont cairo_point_x cairo_point_y moveto } bind def
/Tf { pop /cairo_font exch def /cairo_font_matrix where
      { pop cairo_selectfont } if } bind def
/Td { matrix translate cairo_font_matrix matrix concatmatrix dup
      /cairo_font_matrix exch def dup 4 get exch 5 get cairo_store_point
      /cairo_font where { pop cairo_selectfont } if } bind def
/Tm { 2 copy 8 2 roll 6 array astore /cairo_font_matrix exch def
      cairo_store_point /cairo_font where { pop cairo_selectfont } if } bind def
/g { setgray } bind def
/rg { setrgbcolor } bind def
/d1 { setcachedevice } bind def
/cairo_data_source {
  CairoDataIndex CairoData length lt
    { CairoData CairoDataIndex get /CairoDataIndex CairoDataIndex 1 add def }
    { () } ifelse
} def
/cairo_flush_ascii85_file { cairo_ascii85_file status { cairo_ascii85_file flushfile } if } def
/cairo_image { image cairo_flush_ascii85_file } def
/cairo_imagemask { imagemask cairo_flush_ascii85_file } def
%%EndProlog
%%BeginSetup
%%EndSetup
%%Page: 1 1
%%BeginPageSetup
%%PageBoundingBox: 0 9 384 375
%%EndPageSetup
q 0 9 384 366 rectclip
1 0 0 -1 0 384 cm q
0 g
383.965 100.492 m 383.688 96.324 381.805 92.512 378.656 89.758 c 375.516
 87.008 371.492 85.652 367.324 85.926 c 356.871 86.609 346.176 85.031 336.391
 81.352 c 335.586 81.047 334.789 80.727 333.996 80.398 c 338.285 76.109 
l 343.582 70.812 346.5 63.75 346.5 56.219 c 346.5 48.691 343.582 41.629 
338.289 36.332 c 332.992 31.039 325.93 28.121 318.402 28.121 c 310.871 28.121
 303.809 31.039 298.512 36.332 c 292.309 42.535 l 290.684 41.602 288.883
 40.969 286.969 40.707 c 285.332 40.48 283.719 40.535 282.176 40.848 c 247.414
 7.734 216.215 1.25 178.664 19.055 c 170.672 22.844 169.059 29.629 170.105
 34.285 c 171.379 39.945 176.387 43.898 182.285 43.898 c 188.031 43.898 
198.758 49.82 206.066 59.391 c 209.172 63.461 214.074 71.438 211.973 79.133
 c 211.266 81.73 212.004 84.508 213.906 86.41 c 224.914 97.418 l 224.254
 99.465 224.039 101.609 224.316 103.738 c 224.555 105.547 225.141 107.266
 226.012 108.832 c 119.273 215.57 l 117.949 214.246 l 113.711 210.008 108.062
 207.672 102.039 207.672 c 96.02 207.672 90.367 210.008 86.129 214.246 c
 81.891 218.484 79.559 224.133 79.559 230.156 c 79.559 233.754 80.398 237.219
 81.973 240.332 c 31.672 299.777 l 23.402 296.09 13.352 297.629 6.578 304.402
 c -2.191 313.172 -2.191 327.449 6.578 336.223 c 38.398 368.043 l 42.785
 372.426 48.547 374.621 54.309 374.621 c 60.07 374.621 65.832 372.426 70.219
 368.039 c 76.992 361.266 78.531 351.215 74.844 342.949 c 134.293 292.645
 l 137.48 294.258 140.973 295.07 144.465 295.07 c 150.227 295.07 155.988
 292.875 160.375 288.492 c 164.613 284.254 166.945 278.602 166.945 272.582
 c 166.945 266.559 164.613 260.91 160.375 256.672 c 159.051 255.344 l 263.781
 150.613 l 264.109 151.406 264.434 152.199 264.734 153.004 c 268.41 162.777
 269.992 173.457 269.312 183.852 c 269.262 184.57 269.262 185.301 269.309
 186.012 c 269.859 194.27 276.754 200.617 284.902 200.617 c 285.25 200.617
 285.602 200.605 285.953 200.582 c 298.66 199.746 310.949 196.672 322.477
 191.445 c 334.02 186.211 344.43 179.004 353.406 170.023 c 362.387 161.043
 369.594 150.637 374.828 139.09 c 380.031 127.617 383.102 115.387 383.953
 102.742 c 384.012 101.992 384.016 101.238 383.965 100.492 c h
318.402 43.121 m 321.922 43.121 325.219 44.477 327.68 46.941 c 330.145 
49.402 331.5 52.699 331.5 56.219 c 331.5 59.742 330.145 63.039 327.68 65.5
 c 320.297 72.883 l 316.723 70.391 313.348 67.566 310.199 64.422 c 307.074
 61.293 304.246 57.91 301.742 54.316 c 309.121 46.941 l 311.582 44.477 314.879
 43.121 318.402 43.121 c h
190.5 30.215 m 219.125 18.465 242.262 24.199 269.934 49.914 c 234.277 85.57
 l 227.297 78.59 l 228.293 69.453 225.074 59.57 217.984 50.285 c 210.562
 40.566 200.121 33.109 190.5 30.215 c h
111.301 292.449 m 82.172 263.32 l 91.895 251.828 l 122.793 282.727 l h
88.32 311.895 m 62.727 286.301 l 72.449 274.812 l 99.812 302.172 l h
43.281 309.281 m 53.004 297.793 l 76.828 321.621 l 65.34 331.344 l h
59.609 357.434 m 58.207 358.84 56.324 359.613 54.309 359.613 c 52.293 359.613
 50.41 358.84 49.004 357.434 c 17.188 325.617 l 14.262 322.691 14.262 317.934
 17.188 315.008 c 18.59 313.602 20.473 312.828 22.488 312.828 c 24.504 312.828
 26.387 313.602 27.793 315.008 c 59.613 346.828 l 62.535 349.754 62.535 
354.512 59.609 357.434 c h
149.766 277.883 m 146.844 280.809 142.086 280.809 139.16 277.883 c 96.734
 235.457 l 95.332 234.055 94.559 232.172 94.559 230.156 c 94.559 228.141
 95.332 226.258 96.738 224.852 c 98.141 223.449 100.023 222.676 102.039 
222.676 c 104.055 222.676 105.938 223.449 107.34 224.852 c 149.766 267.277
 l 151.172 268.684 151.945 270.566 151.945 272.582 c 151.945 274.594 151.172
 276.48 149.766 277.883 c h
148.441 244.738 m 129.883 226.18 l 237.68 118.379 l 241.363 120.945 244.758
 123.766 247.809 126.812 c 250.953 129.961 253.773 133.336 256.27 136.91
 c h
369 101.602 m 368.996 101.633 368.992 101.664 368.992 101.695 c 368.262
 112.555 365.633 123.055 361.168 132.895 c 356.68 142.793 350.5 151.715 
342.801 159.418 c 335.102 167.117 326.18 173.297 316.281 177.785 c 306.406
 182.262 295.871 184.895 284.961 185.613 c 284.609 185.629 284.297 185.367
 284.273 185.012 c 284.273 184.98 284.273 184.949 284.277 184.871 c 284.598
 179.961 284.496 175.008 283.996 170.09 c 289.211 169.742 294.379 168.844
 299.43 167.41 c 303.414 166.273 305.727 162.129 304.59 158.145 c 303.457
 154.16 299.309 151.844 295.328 152.98 c 290.711 154.297 285.973 155.035
 281.203 155.211 c 280.504 152.68 279.699 150.18 278.777 147.727 c 274.316
 135.867 267.465 125.262 258.414 116.207 c 252.898 110.691 246.496 105.812
 239.383 101.695 c 239.438 101.629 239.5 101.559 239.582 101.48 c 285.074
 55.984 l 289.012 62.922 293.895 69.324 299.594 75.027 c 308.648 84.082 
319.254 90.934 331.113 95.391 c 333.562 96.312 336.062 97.117 338.598 97.816
 c 338.422 102.605 337.684 107.344 336.375 111.957 c 335.246 115.941 337.559
 120.086 341.543 121.219 c 342.227 121.41 342.918 121.504 343.594 121.504
 c 346.863 121.504 349.867 119.352 350.805 116.051 c 352.238 111 353.117
 105.832 353.465 100.609 c 358.402 101.113 363.379 101.215 368.316 100.891
 c 368.496 100.883 368.648 100.934 368.781 101.051 c 368.98 101.223 368.996
 101.426 369 101.488 c 369 101.527 369 101.562 369 101.602 c h
369 101.602 m f
326.48 135.594 m 326.473 135.594 l 322.332 135.594 318.977 138.953 318.977
 143.094 c 318.977 147.234 322.336 150.594 326.48 150.594 c 330.621 150.594
 333.98 147.234 333.98 143.094 c 333.98 138.953 330.621 135.594 326.48 135.594
 c h
326.48 135.594 m f
Q Q
showpage
%%Trailer
end
%%EOF
