%!PS-Adobe-3.0 EPSF-3.0
%%Creator: cairo 1.16.0 (https://cairographics.org)
%%CreationDate: Wed Sep 30 14:01:07 2020
%%Pages: 1
%%DocumentData: Clean7Bit
%%LanguageLevel: 2
%%BoundingBox: 31 0 353 384
%%EndComments
%%BeginProlog
50 dict begin
/q { gsave } bind def
/Q { grestore } bind def
/cm { 6 array astore concat } bind def
/w { setlinewidth } bind def
/J { setlinecap } bind def
/j { setlinejoin } bind def
/M { setmiterlimit } bind def
/d { setdash } bind def
/m { moveto } bind def
/l { lineto } bind def
/c { curveto } bind def
/h { closepath } bind def
/re { exch dup neg 3 1 roll 5 3 roll moveto 0 rlineto
      0 exch rlineto 0 rlineto closepath } bind def
/S { stroke } bind def
/f { fill } bind def
/f* { eofill } bind def
/n { newpath } bind def
/W { clip } bind def
/W* { eoclip } bind def
/BT { } bind def
/ET { } bind def
/BDC { mark 3 1 roll /BDC pdfmark } bind def
/EMC { mark /EMC pdfmark } bind def
/cairo_store_point { /cairo_point_y exch def /cairo_point_x exch def } def
/Tj { show currentpoint cairo_store_point } bind def
/TJ {
  {
    dup
    type /stringtype eq
    { show } { -0.001 mul 0 cairo_font_matrix dtransform rmoveto } ifelse
  } forall
  currentpoint cairo_store_point
} bind def
/cairo_selectfont { cairo_font_matrix aload pop pop pop 0 0 6 array astore
    cairo_font exch selectfont cairo_point_x cairo_point_y moveto } bind def
/Tf { pop /cairo_font exch def /cairo_font_matrix where
      { pop cairo_selectfont } if } bind def
/Td { matrix translate cairo_font_matrix matrix concatmatrix dup
      /cairo_font_matrix exch def dup 4 get exch 5 get cairo_store_point
      /cairo_font where { pop cairo_selectfont } if } bind def
/Tm { 2 copy 8 2 roll 6 array astore /cairo_font_matrix exch def
      cairo_store_point /cairo_font where { pop cairo_selectfont } if } bind def
/g { setgray } bind def
/rg { setrgbcolor } bind def
/d1 { setcachedevice } bind def
/cairo_data_source {
  CairoDataIndex CairoData length lt
    { CairoData CairoDataIndex get /CairoDataIndex CairoDataIndex 1 add def }
    { () } ifelse
} def
/cairo_flush_ascii85_file { cairo_ascii85_file status { cairo_ascii85_file flushfile } if } def
/cairo_image { image cairo_flush_ascii85_file } def
/cairo_imagemask { imagemask cairo_flush_ascii85_file } def
%%EndProlog
%%BeginSetup
%%EndSetup
%%Page: 1 1
%%BeginPageSetup
%%PageBoundingBox: 31 0 353 384
%%EndPageSetup
q 31 0 322 384 rectclip
1 0 0 -1 0 384 cm q
0 g
348.375 14.82 m 337.91 4.355 l 332.102 -1.453 322.648 -1.453 316.836 4.355
 c 308.5 12.695 l 304.41 8.602 l 301.48 5.676 296.73 5.676 293.801 8.602
 c 290.871 11.531 290.871 16.281 293.801 19.211 c 297.895 23.301 l 250.27
 70.926 l 242.203 71.121 234.66 74.328 228.965 80.027 c 156.598 152.391 
l 136.488 156.582 l 135.055 156.883 133.746 157.59 132.711 158.625 c 34.113
 257.32 l 32.746 258.691 31.961 260.535 31.922 262.469 c 31.27 294.48 l 
31.227 296.523 32.02 298.492 33.465 299.938 c 70.051 336.523 l 71.457 337.93
 73.367 338.719 75.355 338.719 c 75.395 338.719 75.434 338.719 75.477 338.719
 c 77.508 338.684 79.438 337.828 80.828 336.348 c 86.945 329.816 l 90.82
 333.516 94.41 337.508 97.656 341.738 c 106.09 352.73 112.184 365.078 115.762
 378.441 c 116.277 380.363 117.539 382.004 119.266 383 c 120.41 383.66 121.703
 384 123.008 384 c 123.664 384 124.32 383.914 124.965 383.742 c 160.488 
374.145 l 164.48 373.066 166.848 368.957 165.773 364.965 c 160.422 344.984
 151.328 326.543 138.75 310.148 c 133.785 303.68 128.297 297.59 122.395 
291.969 c 146.453 266.281 l 156.391 274.164 167.188 280.945 178.633 286.457
 c 179.68 286.961 180.789 287.199 181.883 287.199 c 184.672 287.199 187.352
 285.637 188.645 282.953 c 190.441 279.219 188.871 274.738 185.141 272.941
 c 175.066 268.09 165.551 262.156 156.75 255.285 c 181.34 229.035 l 208.918
 249.48 244.035 257.309 277.59 250.523 c 286.887 284.941 l 273.922 287.762
 260.66 288.926 247.348 288.406 c 243.234 288.227 239.723 291.469 239.562
 295.609 c 239.402 299.75 242.625 303.234 246.766 303.395 c 249.012 303.484
 251.254 303.527 253.5 303.527 c 268.555 303.527 283.52 301.559 298.078 
297.66 c 300 297.145 301.641 295.883 302.633 294.156 c 303.629 292.434 303.895
 290.383 303.375 288.457 c 290.184 239.613 l 289.105 235.621 284.996 233.254
 281 234.324 c 250.277 242.555 217.395 236.438 191.668 218.004 c 198.363
 210.855 l 200.789 208.266 201.066 204.328 199.031 201.422 c 197.746 199.594
 l 283.391 113.949 l 286.543 110.793 288.281 106.59 288.281 102.113 c 288.281
 100.293 287.98 98.523 287.426 96.844 c 348.375 35.895 l 354.184 30.086 
354.184 20.633 348.375 14.82 c h
46.859 265.789 m 95.887 216.711 l 110.82 231.648 l 48.605 293.867 l 46.332
 291.59 l h
75.176 320.438 m 59.211 304.473 l 126.73 236.953 l 129.66 234.023 129.66
 229.273 126.73 226.344 c 106.488 206.102 l 141.742 170.809 l 157.012 167.625
 l 183.25 205.047 l h
126.852 319.281 m 136.699 332.121 144.188 346.348 149.16 361.668 c 128.082
 367.359 l 123.875 354.836 117.66 343.176 109.555 332.609 c 105.812 327.73
 101.672 323.129 97.199 318.867 c 112.141 302.914 l 117.449 307.977 122.383
 313.461 126.852 319.281 c h
170.074 160.129 m 192.984 137.219 l 215.945 160.176 l 189 187.121 l h
272.781 103.344 m 226.551 149.57 l 203.594 126.609 l 239.57 90.633 l 242.617
 87.586 246.695 85.906 251.051 85.906 c 255.406 85.906 259.484 87.582 262.531
 90.633 c 272.781 100.883 l 273.195 101.297 273.281 101.777 273.281 102.113
 c 273.281 102.387 273.215 102.91 272.781 103.344 c h
278.082 84.973 m 273.137 80.027 l 271.301 78.188 269.273 76.613 267.098
 75.309 c 327.375 15.035 l 337.699 25.359 l h
278.082 84.973 m f
213.645 283.652 m 213.637 283.652 l 209.496 283.652 206.141 287.012 206.141
 291.152 c 206.141 295.293 209.5 298.652 213.645 298.652 c 217.785 298.652
 221.145 295.293 221.145 291.152 c 221.145 287.012 217.785 283.652 213.645
 283.652 c h
213.645 283.652 m f
Q Q
showpage
%%Trailer
end
%%EOF
