%!PS-Adobe-3.0 EPSF-3.0
%%Creator: cairo 1.16.0 (https://cairographics.org)
%%CreationDate: Wed Sep 30 14:01:09 2020
%%Pages: 1
%%DocumentData: Clean7Bit
%%LanguageLevel: 2
%%BoundingBox: 0 24 384 360
%%EndComments
%%BeginProlog
50 dict begin
/q { gsave } bind def
/Q { grestore } bind def
/cm { 6 array astore concat } bind def
/w { setlinewidth } bind def
/J { setlinecap } bind def
/j { setlinejoin } bind def
/M { setmiterlimit } bind def
/d { setdash } bind def
/m { moveto } bind def
/l { lineto } bind def
/c { curveto } bind def
/h { closepath } bind def
/re { exch dup neg 3 1 roll 5 3 roll moveto 0 rlineto
      0 exch rlineto 0 rlineto closepath } bind def
/S { stroke } bind def
/f { fill } bind def
/f* { eofill } bind def
/n { newpath } bind def
/W { clip } bind def
/W* { eoclip } bind def
/BT { } bind def
/ET { } bind def
/BDC { mark 3 1 roll /BDC pdfmark } bind def
/EMC { mark /EMC pdfmark } bind def
/cairo_store_point { /cairo_point_y exch def /cairo_point_x exch def } def
/Tj { show currentpoint cairo_store_point } bind def
/TJ {
  {
    dup
    type /stringtype eq
    { show } { -0.001 mul 0 cairo_font_matrix dtransform rmoveto } ifelse
  } forall
  currentpoint cairo_store_point
} bind def
/cairo_selectfont { cairo_font_matrix aload pop pop pop 0 0 6 array astore
    cairo_font exch selectfont cairo_point_x cairo_point_y moveto } bind def
/Tf { pop /cairo_font exch def /cairo_font_matrix where
      { pop cairo_selectfont } if } bind def
/Td { matrix translate cairo_font_matrix matrix concatmatrix dup
      /cairo_font_matrix exch def dup 4 get exch 5 get cairo_store_point
      /cairo_font where { pop cairo_selectfont } if } bind def
/Tm { 2 copy 8 2 roll 6 array astore /cairo_font_matrix exch def
      cairo_store_point /cairo_font where { pop cairo_selectfont } if } bind def
/g { setgray } bind def
/rg { setrgbcolor } bind def
/d1 { setcachedevice } bind def
/cairo_data_source {
  CairoDataIndex CairoData length lt
    { CairoData CairoDataIndex get /CairoDataIndex CairoDataIndex 1 add def }
    { () } ifelse
} def
/cairo_flush_ascii85_file { cairo_ascii85_file status { cairo_ascii85_file flushfile } if } def
/cairo_image { image cairo_flush_ascii85_file } def
/cairo_imagemask { imagemask cairo_flush_ascii85_file } def
%%EndProlog
%%BeginSetup
%%EndSetup
%%Page: 1 1
%%BeginPageSetup
%%PageBoundingBox: 0 24 384 360
%%EndPageSetup
q 0 24 384 336 rectclip
1 0 0 -1 0 384 cm q
0 g
382.996 28.469 m 381.656 26.148 379.18 24.719 376.5 24.719 c 259.5 24.719
 l 255.359 24.719 252 28.078 252 32.219 c 252 54.02 240.141 74.141 221.047
 84.727 c 217.426 86.734 216.117 91.301 218.125 94.922 c 220.133 98.547 
224.699 99.855 228.324 97.844 c 249.973 85.84 264.18 64.02 266.625 39.719
 c 363.508 39.719 l 315.07 123.613 l 305.43 119.27 294.91 117 284.25 117
 c 242.895 117 209.25 150.645 209.25 192 c 209.25 216.172 221.035 238.871
 240.441 252.879 c 192 336.781 l 143.559 252.879 l 162.965 238.871 174.75
 216.176 174.75 192 c 174.75 150.645 141.105 117 99.75 117 c 89.09 117 78.57
 119.27 68.926 123.613 c 20.488 39.719 l 117.375 39.719 l 119.82 64.016 
134.023 85.836 155.672 97.844 c 159.293 99.852 163.859 98.543 165.871 94.922
 c 167.879 91.297 166.57 86.734 162.949 84.723 c 143.859 74.137 132 54.02
 132 32.219 c 132 28.078 128.641 24.719 124.5 24.719 c 7.5 24.719 l 4.82
 24.719 2.344 26.148 1.004 28.469 c -0.336 30.789 -0.336 33.648 1.004 35.969
 c 59.5 137.285 l 60.496 139.008 62.137 140.266 64.059 140.781 c 65.98 141.293
 68.027 141.023 69.75 140.027 c 78.828 134.777 89.199 132 99.75 132 c 132.836
 132 159.75 158.914 159.75 192 c 159.75 213.352 148.254 233.266 129.75 243.973
 c 126.168 246.047 124.941 250.629 127.012 254.215 c 185.504 355.531 l 186.844
 357.852 189.32 359.281 192 359.281 c 194.68 359.281 197.156 357.852 198.496
 355.531 c 256.992 254.215 l 259.059 250.629 257.836 246.047 254.25 243.973
 c 235.746 233.266 224.25 213.352 224.25 192 c 224.25 158.914 251.164 132
 284.25 132 c 294.797 132 305.172 134.777 314.25 140.027 c 315.973 141.023
 318.02 141.297 319.941 140.781 c 321.863 140.266 323.504 139.008 324.5 
137.285 c 382.996 35.969 l 384.336 33.648 384.336 30.789 382.996 28.469 
c h
382.996 28.469 m f
192 216.09 m 188.793 216.09 185.941 218.129 184.902 221.16 c 180.938 232.742
 174.766 243.227 166.555 252.32 c 164.371 254.734 163.996 258.281 165.625
 261.098 c 185.504 295.531 l 186.844 297.852 189.32 299.281 192 299.281 
c 194.68 299.281 197.156 297.852 198.496 295.531 c 218.375 261.098 l 220.004
 258.281 219.629 254.734 217.449 252.32 c 209.238 243.23 203.062 232.746
 199.098 221.16 c 198.059 218.129 195.207 216.09 192 216.09 c h
202.73 258.195 m 192 276.781 l 181.27 258.195 l 185.352 253.176 188.934
 247.832 192 242.191 c 195.066 247.832 198.648 253.18 202.73 258.195 c h
202.73 258.195 m f
99.203 54.719 m 59.461 54.719 l 56.781 54.719 54.305 56.148 52.965 58.469
 c 51.629 60.789 51.629 63.648 52.965 65.969 c 72.844 100.398 l 74.203 102.75
 76.699 104.148 79.34 104.148 c 79.859 104.148 80.383 104.094 80.906 103.984
 c 92.746 101.457 105.25 101.359 117.094 103.668 c 120.242 104.277 123.426
 102.828 125.027 100.055 c 126.629 97.277 126.289 93.789 124.18 91.375 c
 116.098 82.121 110.098 71.535 106.34 59.91 c 105.34 56.816 102.457 54.719
 99.203 54.719 c h
83.184 88.309 m 72.453 69.719 l 93.898 69.719 l 96.203 75.762 99.051 81.547
 102.418 87.035 c 95.984 86.871 89.527 87.301 83.184 88.309 c h
83.184 88.309 m f
266.906 103.668 m 278.75 101.359 291.254 101.457 303.094 103.984 c 303.617
 104.094 304.141 104.148 304.66 104.148 c 307.301 104.148 309.797 102.75
 311.156 100.398 c 331.035 65.969 l 332.375 63.648 332.375 60.789 331.035
 58.469 c 329.695 56.148 327.219 54.719 324.539 54.719 c 284.797 54.719 
l 281.543 54.719 278.66 56.816 277.66 59.914 c 273.902 71.535 267.902 82.121
 259.82 91.375 c 257.715 93.789 257.371 97.277 258.973 100.055 c 260.574
 102.828 263.762 104.277 266.906 103.668 c h
290.102 69.719 m 311.547 69.719 l 300.816 88.309 l 295.348 87.438 289.797
 87 284.25 87 c 283.359 87 282.469 87.012 281.578 87.035 c 284.949 81.547
 287.797 75.762 290.102 69.719 c h
290.102 69.719 m f
192 161.238 m 204.406 161.238 214.5 151.145 214.5 138.738 c 214.5 126.332
 204.406 116.238 192 116.238 c 179.594 116.238 169.5 126.332 169.5 138.738
 c 169.5 151.145 179.594 161.238 192 161.238 c h
192 131.238 m 196.137 131.238 199.5 134.605 199.5 138.738 c 199.5 142.875
 196.137 146.238 192 146.238 c 187.863 146.238 184.5 142.875 184.5 138.738
 c 184.5 134.605 187.863 131.238 192 131.238 c h
192 131.238 m f
192 107.219 m 196.141 107.219 199.5 103.859 199.5 99.719 c 199.5 95.578
 196.141 92.219 192 92.219 c 191.996 92.219 l 187.852 92.219 184.496 95.578
 184.496 99.719 c 184.496 103.859 187.859 107.219 192 107.219 c h
192 107.219 m f
Q Q
showpage
%%Trailer
end
%%EOF
