%!PS-Adobe-3.0 EPSF-3.0
%%Creator: cairo 1.16.0 (https://cairographics.org)
%%CreationDate: Wed Sep 30 14:01:10 2020
%%Pages: 1
%%DocumentData: Clean7Bit
%%LanguageLevel: 2
%%BoundingBox: 3 0 381 384
%%EndComments
%%BeginProlog
50 dict begin
/q { gsave } bind def
/Q { grestore } bind def
/cm { 6 array astore concat } bind def
/w { setlinewidth } bind def
/J { setlinecap } bind def
/j { setlinejoin } bind def
/M { setmiterlimit } bind def
/d { setdash } bind def
/m { moveto } bind def
/l { lineto } bind def
/c { curveto } bind def
/h { closepath } bind def
/re { exch dup neg 3 1 roll 5 3 roll moveto 0 rlineto
      0 exch rlineto 0 rlineto closepath } bind def
/S { stroke } bind def
/f { fill } bind def
/f* { eofill } bind def
/n { newpath } bind def
/W { clip } bind def
/W* { eoclip } bind def
/BT { } bind def
/ET { } bind def
/BDC { mark 3 1 roll /BDC pdfmark } bind def
/EMC { mark /EMC pdfmark } bind def
/cairo_store_point { /cairo_point_y exch def /cairo_point_x exch def } def
/Tj { show currentpoint cairo_store_point } bind def
/TJ {
  {
    dup
    type /stringtype eq
    { show } { -0.001 mul 0 cairo_font_matrix dtransform rmoveto } ifelse
  } forall
  currentpoint cairo_store_point
} bind def
/cairo_selectfont { cairo_font_matrix aload pop pop pop 0 0 6 array astore
    cairo_font exch selectfont cairo_point_x cairo_point_y moveto } bind def
/Tf { pop /cairo_font exch def /cairo_font_matrix where
      { pop cairo_selectfont } if } bind def
/Td { matrix translate cairo_font_matrix matrix concatmatrix dup
      /cairo_font_matrix exch def dup 4 get exch 5 get cairo_store_point
      /cairo_font where { pop cairo_selectfont } if } bind def
/Tm { 2 copy 8 2 roll 6 array astore /cairo_font_matrix exch def
      cairo_store_point /cairo_font where { pop cairo_selectfont } if } bind def
/g { setgray } bind def
/rg { setrgbcolor } bind def
/d1 { setcachedevice } bind def
/cairo_data_source {
  CairoDataIndex CairoData length lt
    { CairoData CairoDataIndex get /CairoDataIndex CairoDataIndex 1 add def }
    { () } ifelse
} def
/cairo_flush_ascii85_file { cairo_ascii85_file status { cairo_ascii85_file flushfile } if } def
/cairo_image { image cairo_flush_ascii85_file } def
/cairo_imagemask { imagemask cairo_flush_ascii85_file } def
%%EndProlog
%%BeginSetup
%%EndSetup
%%Page: 1 1
%%BeginPageSetup
%%PageBoundingBox: 3 0 381 384
%%EndPageSetup
q 3 0 378 384 rectclip
1 0 0 -1 0 384 cm q
0 g
376.836 120 m 315.383 84.52 l 316.328 82.008 316.832 79.312 316.832 76.539
 c 316.832 70.512 314.496 64.855 310.254 60.613 c 304.938 55.297 l 347.43
 12.805 l 350.355 9.875 350.355 5.129 347.43 2.199 c 344.5 -0.73 339.75 
-0.73 336.82 2.199 c 325.926 13.094 l 321.902 9.07 l 318.973 6.141 314.223
 6.141 311.297 9.07 c 308.367 12 308.367 16.746 311.297 19.676 c 315.316
 23.699 l 218.898 120.121 l 196.281 115.598 l 188.156 113.973 180.555 115.977
 175.434 121.102 c 109.809 186.723 l 104.504 181.422 l 101.578 178.492 96.828
 178.492 93.898 181.422 c 90.969 184.348 90.969 189.098 93.898 192.027 c
 99.203 197.332 l 83.297 213.238 l 77.445 219.09 77.445 228.613 83.297 234.465
 c 93.926 245.094 l 8.297 330.719 l 4.832 334.184 3.07 338.918 3.469 343.711
 c 3.871 348.562 6.402 352.992 10.414 355.859 c 45.09 380.625 l 48.246 382.883
 51.77 384 55.164 384 c 58.965 384 62.602 382.602 65.371 379.828 c 103.859
 341.34 l 108.613 336.586 110.418 329.508 108.57 322.871 c 102.309 300.406
 l 122.496 280.219 l 129.277 300.559 l 130.59 304.488 134.836 306.613 138.766
 305.301 c 142.695 303.992 144.82 299.742 143.508 295.812 c 134.355 268.359
 l 186.512 216.203 l 218.746 248.438 l 221.574 251.27 225.344 252.828 229.359
 252.828 c 233.375 252.828 237.145 251.27 239.973 248.441 c 254.844 233.57
 l 260.695 227.719 260.699 218.195 254.844 212.34 c 222.609 180.105 l 303.344
 99.375 l 321.637 131.059 l 323.027 133.465 325.547 134.809 328.137 134.809
 c 329.41 134.809 330.699 134.484 331.883 133.805 c 335.469 131.734 336.699
 127.145 334.625 123.559 c 325.441 107.652 l 369.336 132.992 l 372.922 135.062
 377.512 133.832 379.582 130.246 c 381.652 126.66 380.422 122.07 376.836
 120 c h
299.648 71.223 m 301.055 72.629 301.828 74.516 301.828 76.539 c 301.828
 78.559 301.055 80.445 299.648 81.852 c 299.648 81.855 299.648 81.855 299.645
 81.855 c 299.645 81.855 299.645 81.855 299.641 81.859 c 242.602 138.898
 l 231.969 128.262 l 294.328 65.902 l h
88.605 292.895 m 86.691 294.809 85.957 297.605 86.684 300.211 c 94.121 
326.898 l 94.523 328.352 94.199 329.785 93.254 330.73 c 54.992 368.992 l
 54.746 368.938 54.32 368.785 53.809 368.422 c 19.133 343.652 l 18.543 343.23
 18.438 342.688 18.418 342.473 c 18.383 342.059 18.539 341.691 18.906 341.324
 c 104.531 255.703 l 104.531 255.703 104.531 255.703 104.531 255.699 c 115.164
 266.336 l h
244.238 222.961 m 229.355 237.832 l 197.121 205.598 l 212 190.715 l h
179.469 170.156 m 182.398 173.086 187.148 173.086 190.078 170.156 c 190.762
 169.473 l 201.395 180.109 l 152.293 229.207 l 141.66 218.574 l 142.348 
217.887 l 145.273 214.961 145.273 210.211 142.348 207.281 c 139.418 204.352
 134.668 204.352 131.738 207.281 c 125.75 213.27 l 122.82 216.199 122.82
 220.949 125.75 223.879 c 141.688 239.816 l 125.777 255.727 l 93.906 223.844
 l 186.039 131.707 l 187.121 130.629 188.848 130.055 190.891 130.055 c 191.668
 130.055 192.488 130.137 193.336 130.309 c 217.664 135.172 l 231.996 149.504
 l 212 169.5 l 196.062 153.559 l 193.133 150.633 188.387 150.633 185.457
 153.559 c 179.469 159.547 l 176.539 162.477 176.539 167.227 179.469 170.156
 c h
179.469 170.156 m f
160.91 181.219 m 160.906 181.219 l 156.766 181.219 153.41 184.578 153.41
 188.719 c 153.41 192.863 156.77 196.219 160.91 196.219 c 165.055 196.219
 168.41 192.863 168.41 188.719 c 168.41 184.578 165.055 181.219 160.91 181.219
 c h
160.91 181.219 m f
Q Q
showpage
%%Trailer
end
%%EOF
