%!PS-Adobe-3.0 EPSF-3.0
%%Creator: cairo 1.16.0 (https://cairographics.org)
%%CreationDate: Wed Sep 30 14:01:11 2020
%%Pages: 1
%%DocumentData: Clean7Bit
%%LanguageLevel: 2
%%BoundingBox: 24 0 360 384
%%EndComments
%%BeginProlog
50 dict begin
/q { gsave } bind def
/Q { grestore } bind def
/cm { 6 array astore concat } bind def
/w { setlinewidth } bind def
/J { setlinecap } bind def
/j { setlinejoin } bind def
/M { setmiterlimit } bind def
/d { setdash } bind def
/m { moveto } bind def
/l { lineto } bind def
/c { curveto } bind def
/h { closepath } bind def
/re { exch dup neg 3 1 roll 5 3 roll moveto 0 rlineto
      0 exch rlineto 0 rlineto closepath } bind def
/S { stroke } bind def
/f { fill } bind def
/f* { eofill } bind def
/n { newpath } bind def
/W { clip } bind def
/W* { eoclip } bind def
/BT { } bind def
/ET { } bind def
/BDC { mark 3 1 roll /BDC pdfmark } bind def
/EMC { mark /EMC pdfmark } bind def
/cairo_store_point { /cairo_point_y exch def /cairo_point_x exch def } def
/Tj { show currentpoint cairo_store_point } bind def
/TJ {
  {
    dup
    type /stringtype eq
    { show } { -0.001 mul 0 cairo_font_matrix dtransform rmoveto } ifelse
  } forall
  currentpoint cairo_store_point
} bind def
/cairo_selectfont { cairo_font_matrix aload pop pop pop 0 0 6 array astore
    cairo_font exch selectfont cairo_point_x cairo_point_y moveto } bind def
/Tf { pop /cairo_font exch def /cairo_font_matrix where
      { pop cairo_selectfont } if } bind def
/Td { matrix translate cairo_font_matrix matrix concatmatrix dup
      /cairo_font_matrix exch def dup 4 get exch 5 get cairo_store_point
      /cairo_font where { pop cairo_selectfont } if } bind def
/Tm { 2 copy 8 2 roll 6 array astore /cairo_font_matrix exch def
      cairo_store_point /cairo_font where { pop cairo_selectfont } if } bind def
/g { setgray } bind def
/rg { setrgbcolor } bind def
/d1 { setcachedevice } bind def
/cairo_data_source {
  CairoDataIndex CairoData length lt
    { CairoData CairoDataIndex get /CairoDataIndex CairoDataIndex 1 add def }
    { () } ifelse
} def
/cairo_flush_ascii85_file { cairo_ascii85_file status { cairo_ascii85_file flushfile } if } def
/cairo_image { image cairo_flush_ascii85_file } def
/cairo_imagemask { imagemask cairo_flush_ascii85_file } def
%%EndProlog
%%BeginSetup
%%EndSetup
%%Page: 1 1
%%BeginPageSetup
%%PageBoundingBox: 24 0 360 384
%%EndPageSetup
q 24 0 336 384 rectclip
1 0 0 -1 0 384 cm q
0 g
315.887 204.141 m 314.914 202.387 313.277 201.098 311.348 200.555 c 309.418
 200.016 307.352 200.273 305.609 201.27 c 294.227 207.773 275.77 209.84 
257.848 206.91 c 258.945 202.043 259.5 197.055 259.5 192 c 259.5 186.945
 258.945 181.957 257.848 177.09 c 275.766 174.16 294.227 176.227 305.609
 182.734 c 307.352 183.727 309.418 183.984 311.348 183.445 c 313.277 182.906
 314.914 181.613 315.887 179.859 c 358.34 103.391 l 359.617 101.086 359.594
 98.281 358.277 96 c 356.961 93.719 354.543 92.297 351.91 92.25 c 264.457
 90.781 l 262.461 90.75 260.516 91.516 259.086 92.918 c 257.652 94.324 256.84
 96.242 256.832 98.246 c 256.773 111.363 249.328 128.387 237.824 142.445
 c 230.426 135.605 221.598 130.504 212.012 127.523 c 218.434 110.539 229.453
 95.586 240.777 88.977 c 242.512 87.969 243.766 86.305 244.266 84.363 c 
244.762 82.422 244.461 80.359 243.43 78.641 c 198.43 3.641 l 197.074 1.383
 194.633 0 192 0 c 189.367 0 186.926 1.383 185.57 3.641 c 140.57 78.641 
l 139.539 80.359 139.238 82.422 139.734 84.363 c 140.234 86.305 141.488 
87.969 143.223 88.977 c 154.547 95.586 165.566 110.539 171.988 127.523 c
 162.402 130.5 153.574 135.605 146.176 142.445 c 134.672 128.387 127.227
 111.363 127.168 98.246 c 127.16 96.238 126.348 94.32 124.918 92.918 c 123.484
 91.516 121.52 90.734 119.543 90.777 c 32.094 92.25 l 29.457 92.297 27.039
 93.719 25.723 96 c 24.406 98.281 24.383 101.086 25.66 103.391 c 68.113 
179.859 l 69.086 181.613 70.723 182.906 72.652 183.445 c 74.582 183.984 
76.652 183.727 78.391 182.734 c 89.773 176.227 108.234 174.16 126.152 177.09
 c 125.055 181.957 124.5 186.945 124.5 192 c 124.5 197.055 125.055 202.043
 126.152 206.91 c 108.234 209.84 89.773 207.773 78.391 201.27 c 76.648 200.273
 74.582 200.016 72.652 200.555 c 70.719 201.098 69.086 202.387 68.113 204.141
 c 25.66 280.609 l 24.383 282.914 24.406 285.719 25.723 288 c 27.039 290.281
 29.457 291.703 32.094 291.75 c 119.543 293.223 l 121.566 293.27 123.484
 292.484 124.918 291.082 c 126.352 289.68 127.16 287.762 127.168 285.754
 c 127.227 272.641 134.672 255.613 146.176 241.555 c 153.574 248.395 162.402
 253.496 171.988 256.477 c 165.566 273.461 154.547 288.414 143.223 295.023
 c 141.488 296.031 140.234 297.695 139.734 299.637 c 139.238 301.578 139.535
 303.641 140.566 305.359 c 185.566 380.359 l 186.926 382.617 189.363 384
 192 384 c 194.633 384 197.074 382.617 198.43 380.359 c 243.43 305.359 l
 244.461 303.641 244.762 301.578 244.266 299.637 c 243.766 297.695 242.512
 296.031 240.777 295.023 c 229.453 288.414 218.434 273.461 212.012 256.477
 c 221.598 253.496 230.43 248.395 237.824 241.559 c 249.328 255.613 256.773
 272.641 256.832 285.754 c 256.84 287.762 257.652 289.68 259.086 291.082
 c 260.516 292.484 262.461 293.254 264.457 293.223 c 351.906 291.75 l 354.543
 291.703 356.961 290.281 358.277 288 c 359.594 285.719 359.617 282.914 358.34
 280.609 c h
243.418 225.289 m 241.941 223.758 239.895 222.918 237.754 223 c 235.629
 223.074 233.637 224.051 232.27 225.68 c 224.297 235.203 213.207 241.609
 201.047 243.723 c 198.949 244.086 197.105 245.324 195.973 247.129 c 194.844
 248.934 194.531 251.137 195.121 253.184 c 201.062 273.863 213.156 292.836
 226.945 303.684 c 199.5 349.422 l 199.5 313.035 l 199.5 308.895 196.141
 305.535 192 305.535 c 187.859 305.535 184.5 308.895 184.5 313.035 c 184.5
 349.422 l 157.055 303.684 l 170.844 292.836 182.938 273.863 188.879 253.184
 c 189.469 251.137 189.156 248.934 188.027 247.129 c 186.895 245.324 185.051
 244.086 182.953 243.723 c 170.793 241.613 159.707 235.203 151.73 225.68
 c 150.363 224.047 148.367 223.074 146.242 223 c 144.113 222.918 142.059
 223.758 140.582 225.289 c 125.637 240.777 115.254 260.738 112.75 278.105
 c 59.418 277.207 l 90.93 259.016 l 94.516 256.941 95.746 252.355 93.676
 248.77 c 91.602 245.18 87.016 243.953 83.43 246.023 c 51.918 264.215 l 
77.809 217.578 l 94.094 224.094 116.566 225.082 137.445 219.891 c 139.512
 219.379 141.262 218.012 142.258 216.129 c 143.258 214.25 143.41 212.035
 142.68 210.035 c 140.57 204.273 139.5 198.203 139.5 192 c 139.5 185.797
 140.57 179.73 142.68 173.965 c 143.41 171.965 143.258 169.75 142.258 167.871
 c 141.262 165.992 139.512 164.625 137.445 164.109 c 116.566 158.918 94.094
 159.906 77.809 166.422 c 51.918 119.785 l 83.43 137.977 l 84.609 138.66
 85.898 138.984 87.172 138.984 c 89.766 138.984 92.285 137.641 93.676 135.234
 c 95.746 131.645 94.516 127.059 90.93 124.988 c 59.418 106.793 l 112.75
 105.898 l 115.254 123.266 125.637 143.227 140.582 158.715 c 142.059 160.246
 144.113 161.082 146.242 161 c 148.367 160.926 150.363 159.953 151.73 158.32
 c 159.707 148.797 170.793 142.391 182.953 140.281 c 185.051 139.914 186.895
 138.676 188.027 136.871 c 189.156 135.066 189.465 132.867 188.879 130.82
 c 182.938 110.137 170.844 91.168 157.055 80.32 c 184.5 34.578 l 184.5 48.75
 l 184.5 52.891 187.855 56.25 192 56.25 c 196.141 56.25 199.5 52.891 199.5
 48.75 c 199.5 34.578 l 226.941 80.316 l 213.156 91.164 201.062 110.137 
195.121 130.816 c 194.531 132.863 194.84 135.066 195.973 136.871 c 197.105
 138.676 198.949 139.914 201.047 140.277 c 213.203 142.387 224.293 148.797
 232.27 158.32 c 233.637 159.953 235.629 160.926 237.754 161 c 239.875 161.078
 241.938 160.242 243.418 158.711 c 258.359 143.223 268.746 123.262 271.246
 105.895 c 324.582 106.793 l 293.07 124.984 l 289.48 127.059 288.254 131.645
 290.324 135.23 c 291.715 137.637 294.234 138.984 296.828 138.984 c 298.098
 138.984 299.387 138.656 300.57 137.977 c 332.082 119.781 l 306.191 166.418
 l 289.906 159.906 267.434 158.918 246.555 164.109 c 244.488 164.621 242.738
 165.988 241.738 167.867 c 240.742 169.75 240.59 171.965 241.32 173.965 
c 243.43 179.727 244.496 185.797 244.496 192 c 244.496 198.203 243.43 204.27
 241.32 210.035 c 240.586 212.031 240.742 214.25 241.738 216.129 c 242.738
 218.008 244.488 219.375 246.555 219.887 c 267.434 225.082 289.906 224.09
 306.191 217.578 c 332.078 264.215 l 300.57 246.02 l 296.98 243.949 292.395
 245.18 290.324 248.766 c 288.254 252.352 289.48 256.941 293.07 259.012 
c 324.582 277.203 l 271.246 278.102 l 268.746 260.738 258.363 240.777 243.418
 225.289 c h
243.418 225.289 m f
192 162 m 175.457 162 162 175.457 162 192 c 162 208.543 175.457 222 192
 222 c 208.543 222 222 208.543 222 192 c 222 175.457 208.543 162 192 162
 c h
192 207 m 183.73 207 177 200.27 177 192 c 177 183.73 183.73 177 192 177
 c 200.27 177 207 183.73 207 192 c 207 200.27 200.27 207 192 207 c h
192 207 m f
199.5 82.496 m 199.5 78.352 196.141 74.996 192 74.996 c 187.859 74.996 
184.5 78.352 184.5 82.496 c 184.5 82.5 l 184.5 86.641 187.859 89.996 192
 89.996 c 196.141 89.996 199.5 86.637 199.5 82.496 c h
199.5 82.496 m f
Q Q
showpage
%%Trailer
end
%%EOF
