%!PS-Adobe-3.0 EPSF-3.0
%%Creator: cairo 1.16.0 (https://cairographics.org)
%%CreationDate: Wed Sep 30 14:01:13 2020
%%Pages: 1
%%DocumentData: Clean7Bit
%%LanguageLevel: 2
%%BoundingBox: 0 0 384 384
%%EndComments
%%BeginProlog
50 dict begin
/q { gsave } bind def
/Q { grestore } bind def
/cm { 6 array astore concat } bind def
/w { setlinewidth } bind def
/J { setlinecap } bind def
/j { setlinejoin } bind def
/M { setmiterlimit } bind def
/d { setdash } bind def
/m { moveto } bind def
/l { lineto } bind def
/c { curveto } bind def
/h { closepath } bind def
/re { exch dup neg 3 1 roll 5 3 roll moveto 0 rlineto
      0 exch rlineto 0 rlineto closepath } bind def
/S { stroke } bind def
/f { fill } bind def
/f* { eofill } bind def
/n { newpath } bind def
/W { clip } bind def
/W* { eoclip } bind def
/BT { } bind def
/ET { } bind def
/BDC { mark 3 1 roll /BDC pdfmark } bind def
/EMC { mark /EMC pdfmark } bind def
/cairo_store_point { /cairo_point_y exch def /cairo_point_x exch def } def
/Tj { show currentpoint cairo_store_point } bind def
/TJ {
  {
    dup
    type /stringtype eq
    { show } { -0.001 mul 0 cairo_font_matrix dtransform rmoveto } ifelse
  } forall
  currentpoint cairo_store_point
} bind def
/cairo_selectfont { cairo_font_matrix aload pop pop pop 0 0 6 array astore
    cairo_font exch selectfont cairo_point_x cairo_point_y moveto } bind def
/Tf { pop /cairo_font exch def /cairo_font_matrix where
      { pop cairo_selectfont } if } bind def
/Td { matrix translate cairo_font_matrix matrix concatmatrix dup
      /cairo_font_matrix exch def dup 4 get exch 5 get cairo_store_point
      /cairo_font where { pop cairo_selectfont } if } bind def
/Tm { 2 copy 8 2 roll 6 array astore /cairo_font_matrix exch def
      cairo_store_point /cairo_font where { pop cairo_selectfont } if } bind def
/g { setgray } bind def
/rg { setrgbcolor } bind def
/d1 { setcachedevice } bind def
/cairo_data_source {
  CairoDataIndex CairoData length lt
    { CairoData CairoDataIndex get /CairoDataIndex CairoDataIndex 1 add def }
    { () } ifelse
} def
/cairo_flush_ascii85_file { cairo_ascii85_file status { cairo_ascii85_file flushfile } if } def
/cairo_image { image cairo_flush_ascii85_file } def
/cairo_imagemask { imagemask cairo_flush_ascii85_file } def
%%EndProlog
%%BeginSetup
%%EndSetup
%%Page: 1 1
%%BeginPageSetup
%%PageBoundingBox: 0 0 384 384
%%EndPageSetup
q 0 0 384 384 rectclip
1 0 0 -1 0 384 cm q
0 g
382.648 4.094 m 381.992 2.953 381.043 2.008 379.906 1.352 c 377.156 -0.234
 373.746 -1.074 354.797 2.605 c 345.988 4.312 336.09 6.617 333.117 7.535
 c 320.039 11.574 316.766 14.445 307.43 23.785 c 306.969 24.25 l 306.922
 24.293 306.875 24.344 306.828 24.391 c 276.648 56.215 l 273.797 59.219 
273.922 63.965 276.93 66.816 c 279.934 69.668 284.684 69.539 287.531 66.535
 c 317.645 34.785 l 318.039 34.391 l 326.367 26.059 327.438 24.988 337.543
 21.867 c 342.09 20.461 359.109 16.762 368.547 15.453 c 367.238 24.895 363.539
 41.914 362.137 46.457 c 359.012 56.562 357.941 57.633 349.613 65.961 c 
349.219 66.355 l 149.797 255.477 l 128.523 234.203 l 241.086 115.512 l 243.938
 112.504 243.809 107.758 240.805 104.906 c 237.797 102.059 233.051 102.184
 230.203 105.188 c 117.914 223.594 l 113.68 219.379 108.043 217.055 102.039
 217.055 c 96.016 217.055 90.367 219.391 86.129 223.629 c 81.891 227.863
 79.555 233.516 79.555 239.539 c 79.555 243.137 80.395 246.602 81.973 249.711
 c 31.672 309.156 l 23.402 305.473 13.352 307.012 6.578 313.781 c -2.195
 322.555 -2.195 336.828 6.578 345.602 c 38.398 377.422 l 42.785 381.809 
48.547 384 54.309 384 c 60.066 384 65.832 381.809 70.215 377.422 c 76.988
 370.648 78.527 360.598 74.84 352.328 c 134.289 302.027 l 137.477 303.641
 140.969 304.449 144.461 304.449 c 150.223 304.449 155.988 302.258 160.371
 297.871 c 164.609 293.633 166.945 287.984 166.945 281.961 c 166.945 275.957
 164.621 270.32 160.406 266.086 c 359.609 77.172 l 359.656 77.129 359.707
 77.082 359.75 77.035 c 360.219 76.566 l 369.555 67.234 372.426 63.961 376.465
 50.883 c 377.383 47.914 379.688 38.012 381.395 29.203 c 385.074 10.25 384.234
 6.844 382.648 4.094 c h
111.301 301.832 m 82.172 272.699 l 91.895 261.211 l 122.789 292.109 l h
88.32 321.277 m 62.723 295.68 l 72.445 284.191 l 99.809 311.555 l h
43.277 318.664 m 53 307.172 l 76.828 331 l 65.34 340.723 l h
59.609 366.812 m 58.207 368.219 56.324 368.992 54.309 368.992 c 52.293 
368.992 50.41 368.219 49.004 366.812 c 17.184 334.996 l 14.262 332.07 14.262
 327.312 17.184 324.387 c 18.59 322.984 20.473 322.211 22.488 322.211 c 
24.504 322.211 26.387 322.984 27.793 324.387 c 59.609 356.207 l 61.016 357.613
 61.789 359.496 61.789 361.512 c 61.789 363.527 61.016 365.41 59.609 366.812
 c h
149.766 287.266 m 146.844 290.188 142.086 290.188 139.16 287.266 c 96.734
 244.84 l 95.332 243.434 94.559 241.551 94.559 239.539 c 94.559 237.523 
95.332 235.641 96.734 234.234 c 98.141 232.828 100.023 232.055 102.039 232.055
 c 104.055 232.055 105.938 232.828 107.34 234.234 c 149.766 276.66 l 151.172
 278.062 151.945 279.945 151.945 281.961 c 151.945 283.977 151.172 285.859
 149.766 287.266 c h
149.766 287.266 m f
258.867 93.359 m 263.008 93.359 266.367 90.004 266.367 85.859 c 266.367
 81.719 263.008 78.359 258.867 78.359 c 258.863 78.359 l 254.719 78.359 
251.363 81.719 251.363 85.859 c 251.363 90.004 254.727 93.359 258.867 93.359
 c h
258.867 93.359 m f
Q Q
showpage
%%Trailer
end
%%EOF
