%!PS-Adobe-3.0 EPSF-3.0
%%Creator: cairo 1.16.0 (https://cairographics.org)
%%CreationDate: Wed Sep 30 14:01:16 2020
%%Pages: 1
%%DocumentData: Clean7Bit
%%LanguageLevel: 2
%%BoundingBox: 11 0 373 384
%%EndComments
%%BeginProlog
50 dict begin
/q { gsave } bind def
/Q { grestore } bind def
/cm { 6 array astore concat } bind def
/w { setlinewidth } bind def
/J { setlinecap } bind def
/j { setlinejoin } bind def
/M { setmiterlimit } bind def
/d { setdash } bind def
/m { moveto } bind def
/l { lineto } bind def
/c { curveto } bind def
/h { closepath } bind def
/re { exch dup neg 3 1 roll 5 3 roll moveto 0 rlineto
      0 exch rlineto 0 rlineto closepath } bind def
/S { stroke } bind def
/f { fill } bind def
/f* { eofill } bind def
/n { newpath } bind def
/W { clip } bind def
/W* { eoclip } bind def
/BT { } bind def
/ET { } bind def
/BDC { mark 3 1 roll /BDC pdfmark } bind def
/EMC { mark /EMC pdfmark } bind def
/cairo_store_point { /cairo_point_y exch def /cairo_point_x exch def } def
/Tj { show currentpoint cairo_store_point } bind def
/TJ {
  {
    dup
    type /stringtype eq
    { show } { -0.001 mul 0 cairo_font_matrix dtransform rmoveto } ifelse
  } forall
  currentpoint cairo_store_point
} bind def
/cairo_selectfont { cairo_font_matrix aload pop pop pop 0 0 6 array astore
    cairo_font exch selectfont cairo_point_x cairo_point_y moveto } bind def
/Tf { pop /cairo_font exch def /cairo_font_matrix where
      { pop cairo_selectfont } if } bind def
/Td { matrix translate cairo_font_matrix matrix concatmatrix dup
      /cairo_font_matrix exch def dup 4 get exch 5 get cairo_store_point
      /cairo_font where { pop cairo_selectfont } if } bind def
/Tm { 2 copy 8 2 roll 6 array astore /cairo_font_matrix exch def
      cairo_store_point /cairo_font where { pop cairo_selectfont } if } bind def
/g { setgray } bind def
/rg { setrgbcolor } bind def
/d1 { setcachedevice } bind def
/cairo_data_source {
  CairoDataIndex CairoData length lt
    { CairoData CairoDataIndex get /CairoDataIndex CairoDataIndex 1 add def }
    { () } ifelse
} def
/cairo_flush_ascii85_file { cairo_ascii85_file status { cairo_ascii85_file flushfile } if } def
/cairo_image { image cairo_flush_ascii85_file } def
/cairo_imagemask { imagemask cairo_flush_ascii85_file } def
%%EndProlog
%%BeginSetup
%%EndSetup
%%Page: 1 1
%%BeginPageSetup
%%PageBoundingBox: 11 0 373 384
%%EndPageSetup
q 11 0 362 384 rectclip
1 0 0 -1 0 384 cm q
0 g
370.75 3.977 m 367.82 1.047 363.074 1.047 360.145 3.977 c 358.199 5.918
 l 354.48 2.195 l 351.551 -0.734 346.801 -0.73 343.871 2.199 c 340.945 5.125
 340.945 9.875 343.875 12.805 c 347.594 16.523 l 298.891 65.227 l 295.773
 62.109 l 285.246 51.582 268.117 51.582 257.59 62.109 c 198.422 121.277 
l 182.289 124.641 l 180.859 124.938 179.547 125.648 178.516 126.684 c 97.512
 207.766 l 96.145 209.137 95.359 210.98 95.32 212.914 c 94.816 237.633 l
 81.133 267.02 l 69.812 267.02 l 67.531 267.02 65.375 268.059 63.953 269.84
 c 12.695 333.977 l 11.355 335.652 10.797 337.82 11.16 339.93 c 11.523 342.043
 12.773 343.898 14.594 345.031 c 75.516 382.871 l 76.715 383.617 78.086 
384 79.473 384 c 80.242 384 81.016 383.883 81.762 383.641 c 83.859 382.969
 85.551 381.41 86.398 379.379 c 96.707 354.574 l 98.297 350.75 96.484 346.359
 92.66 344.77 c 88.836 343.184 84.445 344.992 82.855 348.816 c 75.934 365.473
 l 29.684 336.742 l 73.418 282.02 l 85.914 282.02 l 88.828 282.02 91.48 
280.328 92.711 277.688 c 104.559 252.246 l 117.586 265.273 l 108.77 286.473
 l 107.184 290.301 108.992 294.688 112.816 296.277 c 113.758 296.672 114.734
 296.855 115.695 296.855 c 118.633 296.855 121.426 295.117 122.621 292.234
 c 129.266 276.254 l 130.227 276.688 131.27 276.922 132.34 276.922 c 132.383
 276.922 132.422 276.922 132.461 276.922 c 134.496 276.887 136.426 276.031
 137.816 274.547 c 141.906 270.18 l 144.672 272.906 147.25 275.812 149.602
 278.879 c 156.422 287.77 161.352 297.758 164.246 308.562 c 164.762 310.488
 166.02 312.125 167.746 313.121 c 168.895 313.781 170.188 314.121 171.488
 314.121 c 172.145 314.121 172.801 314.035 173.445 313.863 c 202.629 305.98
 l 206.621 304.902 208.988 300.793 207.918 296.797 c 203.473 280.211 195.926
 264.902 185.484 251.297 c 181.633 246.277 177.402 241.531 172.867 237.125
 c 190.883 217.887 l 216.156 237.598 247.086 248.027 278.602 248.027 c 290.969
 248.027 303.426 246.422 315.664 243.141 c 317.586 242.625 319.227 241.367
 320.223 239.641 c 321.215 237.914 321.484 235.863 320.965 233.941 c 310.125
 193.812 l 309.047 189.82 304.938 187.453 300.941 188.523 c 276.586 195.047
 250.551 190.422 229.93 176.199 c 234.375 171.453 l 236.801 168.863 237.078
 164.926 235.043 162.02 c 234.633 161.434 l 304.195 91.867 l 308.148 87.918
 309.434 82.301 308.074 77.258 c 370.75 14.582 l 373.68 11.652 373.68 6.906
 370.75 3.977 c h
187.543 138.867 m 198.836 136.512 l 219.262 165.645 l 132.164 258.641 l
 120.973 247.449 l 175.496 192.926 l 176.902 191.516 177.691 189.609 177.691
 187.621 c 177.691 185.633 176.902 183.723 175.496 182.316 c 159.809 166.633
 l h
110.258 216.234 m 149.207 177.242 l 159.586 187.621 l 110.363 236.84 l 
109.848 236.324 l h
173.586 260.43 m 181.297 270.48 187.227 281.582 191.258 293.516 c 176.52
 297.496 l 173.027 287.516 167.992 278.211 161.5 269.75 c 158.652 266.035
 155.52 262.52 152.16 259.234 c 162.609 248.078 l 166.551 251.926 170.23
 256.059 173.586 260.43 c h
297.52 204.68 m 304.465 230.387 l 268.227 237.859 230.555 229.293 201.184
 206.891 c 219.578 187.254 l 242.055 203.504 270.352 209.816 297.52 204.68
 c h
211.898 129.016 m 228.98 111.934 l 245.949 128.902 l 225.887 148.965 l 
h
293.59 81.266 m 256.555 118.297 l 239.586 101.328 l 268.199 72.715 l 272.879
 68.035 280.492 68.035 285.168 72.715 c 293.59 81.137 l 293.613 81.16 293.613
 81.242 293.59 81.266 c h
293.59 81.266 m f
102.738 313.027 m 102.734 313.027 l 98.594 313.027 95.238 316.383 95.238
 320.527 c 95.238 324.668 98.598 328.027 102.738 328.027 c 106.883 328.027
 110.238 324.668 110.238 320.527 c 110.238 316.383 106.883 313.027 102.738
 313.027 c h
102.738 313.027 m f
Q Q
showpage
%%Trailer
end
%%EOF
