%!PS-Adobe-3.0 EPSF-3.0
%%Creator: cairo 1.16.0 (https://cairographics.org)
%%CreationDate: Wed Sep 30 14:01:18 2020
%%Pages: 1
%%DocumentData: Clean7Bit
%%LanguageLevel: 2
%%BoundingBox: 0 0 384 384
%%EndComments
%%BeginProlog
50 dict begin
/q { gsave } bind def
/Q { grestore } bind def
/cm { 6 array astore concat } bind def
/w { setlinewidth } bind def
/J { setlinecap } bind def
/j { setlinejoin } bind def
/M { setmiterlimit } bind def
/d { setdash } bind def
/m { moveto } bind def
/l { lineto } bind def
/c { curveto } bind def
/h { closepath } bind def
/re { exch dup neg 3 1 roll 5 3 roll moveto 0 rlineto
      0 exch rlineto 0 rlineto closepath } bind def
/S { stroke } bind def
/f { fill } bind def
/f* { eofill } bind def
/n { newpath } bind def
/W { clip } bind def
/W* { eoclip } bind def
/BT { } bind def
/ET { } bind def
/BDC { mark 3 1 roll /BDC pdfmark } bind def
/EMC { mark /EMC pdfmark } bind def
/cairo_store_point { /cairo_point_y exch def /cairo_point_x exch def } def
/Tj { show currentpoint cairo_store_point } bind def
/TJ {
  {
    dup
    type /stringtype eq
    { show } { -0.001 mul 0 cairo_font_matrix dtransform rmoveto } ifelse
  } forall
  currentpoint cairo_store_point
} bind def
/cairo_selectfont { cairo_font_matrix aload pop pop pop 0 0 6 array astore
    cairo_font exch selectfont cairo_point_x cairo_point_y moveto } bind def
/Tf { pop /cairo_font exch def /cairo_font_matrix where
      { pop cairo_selectfont } if } bind def
/Td { matrix translate cairo_font_matrix matrix concatmatrix dup
      /cairo_font_matrix exch def dup 4 get exch 5 get cairo_store_point
      /cairo_font where { pop cairo_selectfont } if } bind def
/Tm { 2 copy 8 2 roll 6 array astore /cairo_font_matrix exch def
      cairo_store_point /cairo_font where { pop cairo_selectfont } if } bind def
/g { setgray } bind def
/rg { setrgbcolor } bind def
/d1 { setcachedevice } bind def
/cairo_data_source {
  CairoDataIndex CairoData length lt
    { CairoData CairoDataIndex get /CairoDataIndex CairoDataIndex 1 add def }
    { () } ifelse
} def
/cairo_flush_ascii85_file { cairo_ascii85_file status { cairo_ascii85_file flushfile } if } def
/cairo_image { image cairo_flush_ascii85_file } def
/cairo_imagemask { imagemask cairo_flush_ascii85_file } def
%%EndProlog
%%BeginSetup
%%EndSetup
%%Page: 1 1
%%BeginPageSetup
%%PageBoundingBox: 0 0 384 384
%%EndPageSetup
q 0 0 384 384 rectclip
1 0 0 -1 0 384 cm q
0 g
383.746 138.129 m 382.789 132.336 379.047 127.316 373.742 124.707 c 318.211
 97.379 l 321.617 88.629 319.801 78.301 312.75 71.25 c 305.699 64.199 295.367
 62.383 286.621 65.789 c 259.293 10.258 l 256.684 4.953 251.664 1.211 245.871
 0.254 c 240.023 -0.719 234.25 1.145 230.035 5.359 c 184.391 51.004 l 177.871
 57.527 176.418 68.184 180.777 77.523 c 198.176 114.816 l 192.535 113.73
 186.742 113.172 180.859 113.172 c 156.738 113.172 134.121 122.504 117.176
 139.453 c 32.258 224.371 l 32.258 224.371 32.254 224.375 32.254 224.375
 c 32.254 224.375 32.25 224.379 32.25 224.379 c 15.375 241.254 3.59 266.734
 0.711 292.539 c -2.449 320.91 4.984 345.707 21.637 362.363 c 35.785 376.508
 55.801 384 78.895 384 c 82.992 384 87.188 383.766 91.461 383.289 c 117.27
 380.414 142.75 368.621 159.625 351.746 c 244.547 266.824 l 244.547 266.824
 244.551 266.82 244.551 266.82 c 261.496 249.875 270.824 227.258 270.824
 203.137 c 270.824 197.258 270.266 191.465 269.184 185.824 c 306.477 203.223
 l 310.066 204.898 313.852 205.715 317.52 205.715 c 323.398 205.715 328.98
 203.621 332.996 199.605 c 378.637 153.961 l 382.855 149.75 384.719 143.977
 383.746 138.129 c h
302.145 81.855 m 305.805 85.516 305.805 91.473 302.145 95.133 c 250.84 
146.438 l 248.875 144.02 246.781 141.684 244.547 139.453 c 242.312 137.223
 239.98 135.125 237.562 133.16 c 288.867 81.859 l 292.527 78.195 298.484
 78.195 302.145 81.855 c h
194.367 71.184 m 192.691 67.594 192.953 63.656 194.996 61.609 c 240.645
 15.965 l 241.668 14.938 242.824 14.949 243.422 15.051 c 244.035 15.152 
245.168 15.523 245.836 16.883 c 274.461 75.047 l 224.93 124.582 l 222.527
 123.234 220.07 122.004 217.559 120.887 c h
89.801 368.379 m 66.051 371.027 45.609 365.121 32.242 351.758 c 18.879 
338.391 12.973 317.949 15.621 294.199 c 17.828 274.371 25.98 254.855 37.812
 240.543 c 143.457 346.188 l 129.148 358.02 109.629 366.172 89.801 368.379
 c h
238.98 250.652 m 210.027 221.699 l 207.098 218.77 202.348 218.77 199.418
 221.699 c 196.492 224.625 196.492 229.375 199.418 232.305 c 228.637 261.523
 l 154.324 335.836 l 48.164 229.676 l 122.477 155.363 l 151.695 184.578 
l 153.16 186.043 155.078 186.773 156.996 186.773 c 158.914 186.773 160.836
 186.043 162.301 184.578 c 165.227 181.648 165.227 176.898 162.301 173.973
 c 133.348 145.02 l 146.676 134.105 163.285 128.172 180.859 128.172 c 200.977
 128.172 219.828 135.945 233.941 150.059 c 248.055 164.172 255.828 183.023
 255.828 203.137 c 255.828 220.715 249.895 237.324 238.98 250.652 c h
368.035 143.355 m 322.391 189.004 l 320.344 191.047 316.406 191.305 312.816
 189.633 c 263.113 166.441 l 261.996 163.93 260.766 161.473 259.418 159.07
 c 308.953 109.539 l 367.121 138.164 l 368.477 138.832 368.848 139.965 368.949
 140.578 c 369.051 141.176 369.062 142.328 368.035 143.355 c h
368.035 143.355 m f
164.391 242.801 m 167.297 232.148 l 167.883 230.027 167.898 227.777 167.34
 225.637 c 166.496 222.391 164.438 219.672 161.543 217.977 c 158.652 216.281
 155.273 215.812 152.043 216.656 c 140.863 219.555 l 131.598 213.477 l 129.781
 212.281 127.66 211.582 125.473 211.445 c 118.562 211.012 112.605 216.301
 112.18 223.211 c 111.48 234.75 l 102.809 241.711 l 101.117 243.07 99.805
 244.859 99.008 246.887 c 96.477 253.332 99.66 260.629 106.098 263.16 c 
116.852 267.391 l 120.773 277.75 l 121.539 279.773 122.836 281.582 124.52
 282.977 c 126.789 284.855 129.586 285.859 132.496 285.859 c 132.895 285.859
 133.297 285.84 133.699 285.801 c 137.039 285.484 140.051 283.891 142.199
 281.293 c 149.551 272.367 l 160.613 271.836 l 162.785 271.734 164.918 271.055
 166.777 269.871 c 169.602 268.066 171.555 265.27 172.277 262 c 173 258.727
 172.406 255.367 170.605 252.543 c h
145.52 257.543 m 143.406 257.645 141.43 258.633 140.086 260.266 c 133.309
 268.5 l 129.703 258.973 l 128.953 256.992 127.402 255.422 125.434 254.648
 c 115.512 250.746 l 123.461 244.367 l 125.113 243.043 126.125 241.086 126.254
 238.973 c 126.898 228.336 l 135.414 233.922 l 137.184 235.082 139.359 235.441
 141.41 234.91 c 151.727 232.234 l 149.043 242.059 l 148.488 244.102 148.82
 246.281 149.957 248.066 c 155.691 257.059 l h
145.52 257.543 m f
180.863 195.641 m 180.855 195.641 l 176.715 195.641 173.359 199 173.359
 203.141 c 173.359 207.281 176.719 210.641 180.863 210.641 c 185.004 210.641
 188.359 207.281 188.359 203.141 c 188.359 199 185.004 195.641 180.863 195.641
 c h
180.863 195.641 m f
Q Q
showpage
%%Trailer
end
%%EOF
