%!PS-Adobe-3.0 EPSF-3.0
%%Creator: cairo 1.16.0 (https://cairographics.org)
%%CreationDate: Wed Sep 30 14:01:21 2020
%%Pages: 1
%%DocumentData: Clean7Bit
%%LanguageLevel: 2
%%BoundingBox: 0 0 384 384
%%EndComments
%%BeginProlog
50 dict begin
/q { gsave } bind def
/Q { grestore } bind def
/cm { 6 array astore concat } bind def
/w { setlinewidth } bind def
/J { setlinecap } bind def
/j { setlinejoin } bind def
/M { setmiterlimit } bind def
/d { setdash } bind def
/m { moveto } bind def
/l { lineto } bind def
/c { curveto } bind def
/h { closepath } bind def
/re { exch dup neg 3 1 roll 5 3 roll moveto 0 rlineto
      0 exch rlineto 0 rlineto closepath } bind def
/S { stroke } bind def
/f { fill } bind def
/f* { eofill } bind def
/n { newpath } bind def
/W { clip } bind def
/W* { eoclip } bind def
/BT { } bind def
/ET { } bind def
/BDC { mark 3 1 roll /BDC pdfmark } bind def
/EMC { mark /EMC pdfmark } bind def
/cairo_store_point { /cairo_point_y exch def /cairo_point_x exch def } def
/Tj { show currentpoint cairo_store_point } bind def
/TJ {
  {
    dup
    type /stringtype eq
    { show } { -0.001 mul 0 cairo_font_matrix dtransform rmoveto } ifelse
  } forall
  currentpoint cairo_store_point
} bind def
/cairo_selectfont { cairo_font_matrix aload pop pop pop 0 0 6 array astore
    cairo_font exch selectfont cairo_point_x cairo_point_y moveto } bind def
/Tf { pop /cairo_font exch def /cairo_font_matrix where
      { pop cairo_selectfont } if } bind def
/Td { matrix translate cairo_font_matrix matrix concatmatrix dup
      /cairo_font_matrix exch def dup 4 get exch 5 get cairo_store_point
      /cairo_font where { pop cairo_selectfont } if } bind def
/Tm { 2 copy 8 2 roll 6 array astore /cairo_font_matrix exch def
      cairo_store_point /cairo_font where { pop cairo_selectfont } if } bind def
/g { setgray } bind def
/rg { setrgbcolor } bind def
/d1 { setcachedevice } bind def
/cairo_data_source {
  CairoDataIndex CairoData length lt
    { CairoData CairoDataIndex get /CairoDataIndex CairoDataIndex 1 add def }
    { () } ifelse
} def
/cairo_flush_ascii85_file { cairo_ascii85_file status { cairo_ascii85_file flushfile } if } def
/cairo_image { image cairo_flush_ascii85_file } def
/cairo_imagemask { imagemask cairo_flush_ascii85_file } def
%%EndProlog
%%BeginSetup
%%EndSetup
%%Page: 1 1
%%BeginPageSetup
%%PageBoundingBox: 0 0 384 384
%%EndPageSetup
q 0 0 384 384 rectclip
1 0 0 -1 0 384 cm q
0 g
382.375 6.93 m 381.68 4.344 379.656 2.32 377.07 1.629 c 346.457 -6.574 
308.418 17.633 283.027 43.02 c 231.324 94.727 l 205.988 87.41 l 197.98 85.098
 190.223 87.172 184.137 93.254 c 157.438 119.953 l 154.031 123.359 152.309
 128.391 152.945 133.086 c 153.48 137.047 155.703 140.406 159.039 142.301
 c 174.801 151.246 l 139.527 186.52 l 114.191 179.203 l 106.188 176.891 
98.426 178.965 92.34 185.051 c 86.684 190.707 l 83.277 194.113 81.555 199.145
 82.191 203.836 c 82.727 207.801 84.949 211.16 88.285 213.055 c 104.047 
222 l 62.723 263.324 l 37.387 256.004 l 29.383 253.695 21.621 255.77 15.539
 261.852 c 4.625 272.77 l 1.219 276.176 -0.504 281.207 0.129 285.902 c 0.668
 289.863 2.887 293.223 6.227 295.117 c 24.738 305.625 l 24.129 310.098 25.52
 314.797 28.953 318.227 c 65.773 355.051 l 68.688 357.961 72.512 359.418
 76.34 359.418 c 77.02 359.418 77.699 359.355 78.375 359.262 c 88.883 377.777
 l 90.777 381.113 94.137 383.336 98.102 383.871 c 98.746 383.961 99.398 
384 100.051 384 c 104.145 384 108.293 382.316 111.23 379.379 c 122.148 368.461
 l 128.23 362.379 130.309 354.617 127.996 346.609 c 120.68 321.277 l 162.004
 279.949 l 170.949 295.715 l 172.84 299.051 176.199 301.273 180.164 301.809
 c 180.809 301.895 181.461 301.938 182.113 301.938 c 186.207 301.938 190.355
 300.254 193.293 297.316 c 198.953 291.66 l 205.035 285.574 207.113 277.816
 204.797 269.809 c 197.48 244.473 l 232.754 209.199 l 241.699 224.961 l 
243.594 228.297 246.953 230.52 250.914 231.055 c 251.562 231.141 252.211
 231.184 252.863 231.184 c 256.961 231.184 261.109 229.5 264.047 226.562
 c 290.746 199.863 l 296.828 193.777 298.906 186.02 296.594 178.012 c 289.273
 152.676 l 340.98 100.973 l 366.367 75.582 390.574 37.543 382.375 6.93 c
 h
368.73 15.27 m 370.957 34 358.461 60.281 335.574 84.957 c 299.043 48.426
 l 323.719 25.535 350 13.039 368.73 15.27 c h
209.691 211.047 m 172.953 174.309 l 288.332 58.934 l 325.066 95.668 l h
122.762 297.973 m 86.027 261.238 l 162.348 184.918 l 199.086 221.652 l 
h
168.301 130.309 m 194.746 103.863 l 197.559 101.051 200.008 101.293 201.824
 101.82 c 219.211 106.84 l 185.805 140.246 l h
97.547 201.059 m 102.949 195.656 l 105.762 192.844 108.211 193.09 110.031
 193.613 c 127.414 198.637 l 115.055 210.996 l h
26.148 272.461 m 28.957 269.648 31.41 269.891 33.227 270.418 c 50.613 275.438
 l 32.988 293.059 l 15.484 283.125 l h
63.273 331.336 m 79.734 314.871 l 82.664 311.941 82.664 307.195 79.734 
304.266 c 76.809 301.336 72.059 301.336 69.129 304.266 c 52.664 320.73 l
 39.598 307.668 l 75.418 271.844 l 112.156 308.582 l 76.34 344.398 l h
113.582 350.773 m 114.109 352.594 114.352 355.043 111.539 357.852 c 100.879
 368.516 l 90.941 351.012 l 108.562 333.387 l h
190.387 273.969 m 190.914 275.789 191.156 278.238 188.344 281.051 c 182.941
 286.453 l 173.004 268.945 l 185.363 256.586 l h
282.18 182.176 m 282.707 183.996 282.949 186.445 280.137 189.254 c 253.691
 215.703 l 243.758 198.195 l 277.16 164.793 l h
282.18 182.176 m f
160.68 223.32 m 157.754 220.391 153.004 220.391 150.074 223.32 c 124.691
 248.699 l 121.762 251.629 121.762 256.379 124.691 259.309 c 126.156 260.773
 128.074 261.504 129.996 261.504 c 131.914 261.504 133.836 260.773 135.297
 259.309 c 160.68 233.926 l 163.609 230.996 163.609 226.246 160.68 223.32
 c h
160.68 223.32 m f
269.078 114.922 m 266.148 111.992 261.398 111.996 258.469 114.926 c 255.539
 117.852 255.539 122.602 258.469 125.531 c 259.934 126.996 261.852 127.727
 263.773 127.727 c 265.691 127.727 267.609 126.996 269.074 125.531 c 269.078
 125.527 l 272.008 122.598 272.008 117.852 269.078 114.922 c h
269.078 114.922 m f
234.605 138.789 m 205.438 167.953 l 202.508 170.883 202.508 175.633 205.438
 178.562 c 206.902 180.027 208.824 180.758 210.742 180.758 c 212.66 180.758
 214.582 180.027 216.047 178.562 c 245.211 149.395 l 248.141 146.465 248.141
 141.719 245.211 138.789 c 242.285 135.859 237.535 135.859 234.605 138.789
 c h
234.605 138.789 m f
Q Q
showpage
%%Trailer
end
%%EOF
