%!PS-Adobe-3.0 EPSF-3.0
%%Creator: cairo 1.16.0 (https://cairographics.org)
%%CreationDate: Wed Sep 30 14:01:22 2020
%%Pages: 1
%%DocumentData: Clean7Bit
%%LanguageLevel: 2
%%BoundingBox: 0 0 384 384
%%EndComments
%%BeginProlog
50 dict begin
/q { gsave } bind def
/Q { grestore } bind def
/cm { 6 array astore concat } bind def
/w { setlinewidth } bind def
/J { setlinecap } bind def
/j { setlinejoin } bind def
/M { setmiterlimit } bind def
/d { setdash } bind def
/m { moveto } bind def
/l { lineto } bind def
/c { curveto } bind def
/h { closepath } bind def
/re { exch dup neg 3 1 roll 5 3 roll moveto 0 rlineto
      0 exch rlineto 0 rlineto closepath } bind def
/S { stroke } bind def
/f { fill } bind def
/f* { eofill } bind def
/n { newpath } bind def
/W { clip } bind def
/W* { eoclip } bind def
/BT { } bind def
/ET { } bind def
/BDC { mark 3 1 roll /BDC pdfmark } bind def
/EMC { mark /EMC pdfmark } bind def
/cairo_store_point { /cairo_point_y exch def /cairo_point_x exch def } def
/Tj { show currentpoint cairo_store_point } bind def
/TJ {
  {
    dup
    type /stringtype eq
    { show } { -0.001 mul 0 cairo_font_matrix dtransform rmoveto } ifelse
  } forall
  currentpoint cairo_store_point
} bind def
/cairo_selectfont { cairo_font_matrix aload pop pop pop 0 0 6 array astore
    cairo_font exch selectfont cairo_point_x cairo_point_y moveto } bind def
/Tf { pop /cairo_font exch def /cairo_font_matrix where
      { pop cairo_selectfont } if } bind def
/Td { matrix translate cairo_font_matrix matrix concatmatrix dup
      /cairo_font_matrix exch def dup 4 get exch 5 get cairo_store_point
      /cairo_font where { pop cairo_selectfont } if } bind def
/Tm { 2 copy 8 2 roll 6 array astore /cairo_font_matrix exch def
      cairo_store_point /cairo_font where { pop cairo_selectfont } if } bind def
/g { setgray } bind def
/rg { setrgbcolor } bind def
/d1 { setcachedevice } bind def
/cairo_data_source {
  CairoDataIndex CairoData length lt
    { CairoData CairoDataIndex get /CairoDataIndex CairoDataIndex 1 add def }
    { () } ifelse
} def
/cairo_flush_ascii85_file { cairo_ascii85_file status { cairo_ascii85_file flushfile } if } def
/cairo_image { image cairo_flush_ascii85_file } def
/cairo_imagemask { imagemask cairo_flush_ascii85_file } def
%%EndProlog
%%BeginSetup
%%EndSetup
%%Page: 1 1
%%BeginPageSetup
%%PageBoundingBox: 0 0 384 384
%%EndPageSetup
q 0 0 384 384 rectclip
1 0 0 -1 0 384 cm q
0 g
381.805 171.898 m 376.5 166.598 l 379.328 163.77 380.887 160.004 380.887
 155.988 c 380.887 151.977 379.328 148.211 376.5 145.383 c 344.684 113.562
 l 341.855 110.734 338.09 109.18 334.074 109.18 c 332.75 109.18 331.453 
109.367 330.207 109.695 c 274.305 53.793 l 275.633 48.789 274.352 43.234
 270.438 39.316 c 238.617 7.5 l 232.77 1.652 223.254 1.652 217.402 7.5 c
 212.102 2.195 l 209.172 -0.73 204.422 -0.73 201.492 2.195 c 198.566 5.125
 198.566 9.875 201.492 12.805 c 206.797 18.105 l 196.191 28.711 l 190.887
 23.41 l 187.957 20.48 183.211 20.48 180.281 23.41 c 177.352 26.336 177.352
 31.086 180.281 34.016 c 185.582 39.32 l 174.977 49.926 l 169.676 44.621
 l 166.746 41.695 161.996 41.695 159.066 44.621 c 156.141 47.551 156.137
 52.301 159.066 55.23 c 164.371 60.531 l 153.766 71.137 l 148.461 65.836
 l 145.535 62.906 140.785 62.906 137.855 65.836 c 134.926 68.766 134.926
 73.512 137.855 76.441 c 143.16 81.746 l 137.312 87.594 137.312 97.109 143.16
 102.957 c 174.977 134.777 l 177.902 137.703 181.742 139.164 185.586 139.164
 c 186.887 139.164 188.184 138.98 189.453 138.645 c 201.492 150.688 l 186.234
 165.945 l 183.305 168.871 183.305 173.621 186.234 176.551 c 187.699 178.016
 189.621 178.75 191.539 178.75 c 193.457 178.75 195.379 178.016 196.84 176.551
 c 212.098 161.293 l 222.707 171.902 l 144.465 250.141 l 133.859 239.535
 l 149.113 224.277 l 152.043 221.352 152.043 216.602 149.113 213.672 c 146.184
 210.742 141.438 210.742 138.508 213.672 c 123.25 228.926 l 117.949 223.625
 l 113.711 219.387 108.059 217.055 102.039 217.055 c 96.02 217.055 90.367
 219.387 86.129 223.625 c 81.891 227.863 79.559 233.512 79.559 239.535 c
 79.559 243.133 80.398 246.598 81.973 249.711 c 31.672 309.156 l 23.402 
305.469 13.352 307.008 6.578 313.781 c -2.195 322.555 -2.195 336.828 6.578
 345.602 c 38.398 377.422 l 42.785 381.809 48.547 384 54.309 384 c 60.07
 384 65.832 381.809 70.219 377.422 c 76.992 370.648 78.527 360.598 74.844
 352.328 c 134.289 302.027 l 137.402 303.602 140.863 304.441 144.465 304.441
 c 150.488 304.441 156.137 302.109 160.375 297.871 c 164.613 293.633 166.945
 287.98 166.945 281.961 c 166.945 275.941 164.613 270.289 160.375 266.051
 c 155.07 260.75 l 233.312 182.508 l 245.355 194.547 l 245.023 195.797 244.84
 197.09 244.84 198.414 c 244.84 202.43 246.395 206.195 249.223 209.023 c
 281.043 240.844 l 283.965 243.766 287.809 245.227 291.648 245.227 c 295.488
 245.227 299.332 243.766 302.254 240.844 c 307.559 246.145 l 309.023 247.609
 310.941 248.344 312.863 248.344 c 314.781 248.344 316.699 247.609 318.164
 246.145 c 321.094 243.219 321.094 238.469 318.164 235.539 c 312.863 230.234
 l 323.469 219.629 l 328.77 224.934 l 330.234 226.395 332.156 227.129 334.074
 227.129 c 335.992 227.129 337.914 226.395 339.379 224.934 c 342.305 222.004
 342.309 217.254 339.379 214.324 c 334.074 209.023 l 344.68 198.414 l 349.984
 203.719 l 351.449 205.184 353.367 205.914 355.285 205.914 c 357.207 205.914
 359.125 205.184 360.59 203.719 c 363.52 200.789 363.52 196.043 360.59 193.113
 c 355.285 187.809 l 365.895 177.203 l 371.195 182.504 l 372.66 183.969 
374.582 184.703 376.5 184.703 c 378.418 184.703 380.34 183.969 381.801 182.504
 c 384.73 179.578 384.734 174.828 381.805 171.898 c h
111.301 301.828 m 82.172 272.699 l 91.895 261.211 l 122.793 292.105 l h
88.32 321.277 m 62.723 295.68 l 72.445 284.191 l 99.809 311.551 l h
43.277 318.66 m 53.004 307.172 l 76.832 331 l 65.34 340.723 l h
59.613 366.812 m 58.207 368.219 56.324 368.992 54.309 368.992 c 52.293 
368.992 50.41 368.219 49.004 366.816 c 17.188 334.996 l 15.781 333.59 15.008
 331.707 15.008 329.691 c 15.008 327.676 15.781 325.793 17.188 324.391 c
 18.59 322.984 20.473 322.211 22.488 322.211 c 24.504 322.211 26.387 322.984
 27.793 324.391 c 59.613 356.211 l 61.016 357.613 61.789 359.496 61.789 
361.512 c 61.789 363.527 61.016 365.41 59.613 366.812 c h
149.77 287.266 m 148.363 288.668 146.48 289.441 144.465 289.441 c 142.449
 289.441 140.566 288.668 139.164 287.266 c 96.734 244.84 l 93.812 241.914
 93.812 237.156 96.734 234.23 c 98.199 232.77 100.117 232.039 102.039 232.039
 c 103.961 232.039 105.883 232.77 107.344 234.23 c 149.77 276.656 l 152.691
 279.582 152.691 284.34 149.77 287.266 c h
254.527 182.508 m 201.496 129.473 l 265.133 65.836 l 318.164 118.867 l 
h
153.766 92.352 m 228.008 18.105 l 259.828 49.926 l 259.828 49.926 259.824
 49.93 259.824 49.934 c 185.59 124.164 l 185.59 124.164 185.586 124.168 
185.586 124.172 c h
259.828 198.414 m 334.066 124.176 l 334.07 124.176 334.074 124.172 334.074
 124.172 c 365.895 155.988 l 291.648 230.234 l h
259.828 198.414 m f
175.176 195.109 m 175.176 190.969 171.816 187.609 167.676 187.609 c 167.672
 187.609 l 163.527 187.609 160.176 190.969 160.176 195.109 c 160.176 199.254
 163.535 202.609 167.676 202.609 c 171.816 202.609 175.176 199.254 175.176
 195.109 c h
175.176 195.109 m f
Q Q
showpage
%%Trailer
end
%%EOF
