%!PS-Adobe-3.0 EPSF-3.0
%%Creator: cairo 1.16.0 (https://cairographics.org)
%%CreationDate: Wed Sep 30 14:01:23 2020
%%Pages: 1
%%DocumentData: Clean7Bit
%%LanguageLevel: 2
%%BoundingBox: 0 25 384 359
%%EndComments
%%BeginProlog
50 dict begin
/q { gsave } bind def
/Q { grestore } bind def
/cm { 6 array astore concat } bind def
/w { setlinewidth } bind def
/J { setlinecap } bind def
/j { setlinejoin } bind def
/M { setmiterlimit } bind def
/d { setdash } bind def
/m { moveto } bind def
/l { lineto } bind def
/c { curveto } bind def
/h { closepath } bind def
/re { exch dup neg 3 1 roll 5 3 roll moveto 0 rlineto
      0 exch rlineto 0 rlineto closepath } bind def
/S { stroke } bind def
/f { fill } bind def
/f* { eofill } bind def
/n { newpath } bind def
/W { clip } bind def
/W* { eoclip } bind def
/BT { } bind def
/ET { } bind def
/BDC { mark 3 1 roll /BDC pdfmark } bind def
/EMC { mark /EMC pdfmark } bind def
/cairo_store_point { /cairo_point_y exch def /cairo_point_x exch def } def
/Tj { show currentpoint cairo_store_point } bind def
/TJ {
  {
    dup
    type /stringtype eq
    { show } { -0.001 mul 0 cairo_font_matrix dtransform rmoveto } ifelse
  } forall
  currentpoint cairo_store_point
} bind def
/cairo_selectfont { cairo_font_matrix aload pop pop pop 0 0 6 array astore
    cairo_font exch selectfont cairo_point_x cairo_point_y moveto } bind def
/Tf { pop /cairo_font exch def /cairo_font_matrix where
      { pop cairo_selectfont } if } bind def
/Td { matrix translate cairo_font_matrix matrix concatmatrix dup
      /cairo_font_matrix exch def dup 4 get exch 5 get cairo_store_point
      /cairo_font where { pop cairo_selectfont } if } bind def
/Tm { 2 copy 8 2 roll 6 array astore /cairo_font_matrix exch def
      cairo_store_point /cairo_font where { pop cairo_selectfont } if } bind def
/g { setgray } bind def
/rg { setrgbcolor } bind def
/d1 { setcachedevice } bind def
/cairo_data_source {
  CairoDataIndex CairoData length lt
    { CairoData CairoDataIndex get /CairoDataIndex CairoDataIndex 1 add def }
    { () } ifelse
} def
/cairo_flush_ascii85_file { cairo_ascii85_file status { cairo_ascii85_file flushfile } if } def
/cairo_image { image cairo_flush_ascii85_file } def
/cairo_imagemask { imagemask cairo_flush_ascii85_file } def
%%EndProlog
%%BeginSetup
%%EndSetup
%%Page: 1 1
%%BeginPageSetup
%%PageBoundingBox: 0 25 384 359
%%EndPageSetup
q 0 25 384 334 rectclip
1 0 0 -1 0 384 cm q
0 g
381.801 70.582 m 378.875 67.652 374.125 67.652 371.195 70.582 c 365.855
 75.922 l 355.172 65.238 l 360.516 59.898 l 363.441 56.973 363.441 52.223
 360.516 49.293 c 357.586 46.363 352.836 46.363 349.906 49.293 c 344.566
 54.633 l 333.883 43.949 l 339.223 38.609 l 342.152 35.68 342.152 30.93 
339.223 28.004 c 336.297 25.074 331.547 25.074 328.617 28.004 c 323.277 
33.344 l 323.258 33.324 l 320.328 30.398 315.582 30.398 312.652 33.324 c
 291.363 54.613 l 289.957 56.023 289.168 57.93 289.168 59.918 c 289.168 
61.906 289.957 63.816 291.363 65.223 c 291.383 65.238 l 186.766 169.855 
l 170.785 153.871 l 167.855 150.945 163.105 150.945 160.18 153.871 c 138.891
 175.16 l 137.484 176.566 136.695 178.473 136.695 180.465 c 136.695 182.453
 137.484 184.359 138.891 185.766 c 154.875 201.754 l 144.195 212.434 l 138.852
 207.094 l 137.445 205.688 135.539 204.895 133.551 204.895 c 131.562 204.895
 129.652 205.688 128.246 207.094 c 103.215 232.125 l 81.906 210.816 l 79.074
 207.984 75.301 206.426 71.281 206.426 c 67.262 206.426 63.488 207.984 60.656
 210.816 c 4.391 267.082 l 1.559 269.914 0 273.684 0 277.703 c 0 281.723
 1.559 285.496 4.391 288.328 c 25.68 309.617 l 28.512 312.449 32.285 314.012
 36.309 314.012 c 40.328 314.012 44.102 312.449 46.934 309.621 c 59.117 
297.438 l 117.676 355.996 l 119.141 357.461 121.062 358.191 122.98 358.191
 c 124.898 358.191 126.82 357.461 128.285 355.996 c 202.715 281.562 l 205.645
 278.637 205.645 273.887 202.715 270.957 c 197.375 265.617 l 208.059 254.934
 l 213.398 260.273 l 214.863 261.738 216.781 262.473 218.703 262.473 c 220.621
 262.473 222.539 261.738 224.004 260.273 c 245.293 238.988 l 248.223 236.059
 248.223 231.309 245.293 228.379 c 239.953 223.039 l 344.566 118.422 l 344.586
 118.441 l 346.051 119.906 347.969 120.637 349.887 120.637 c 351.809 120.637
 353.727 119.906 355.191 118.441 c 376.48 97.152 l 377.887 95.746 378.676
 93.84 378.676 91.848 c 378.676 89.859 377.887 87.953 376.48 86.547 c 376.461
 86.527 l 381.801 81.188 l 384.73 78.258 384.73 73.512 381.801 70.582 c 
h
36.289 299.012 m 15 277.688 l 71.297 221.422 l 92.605 242.73 l 80.406 254.934
 l 75.062 249.594 l 72.133 246.664 67.387 246.664 64.457 249.594 c 43.168
 270.879 l 41.762 272.289 40.973 274.195 40.973 276.184 c 40.973 278.172
 41.762 280.078 43.168 281.488 c 48.512 286.828 l h
122.98 340.086 m 59.078 276.184 l 69.758 265.504 l 133.66 329.406 l h
144.27 318.797 m 133.586 308.117 l 151.094 290.613 l 154.023 287.684 154.023
 282.934 151.094 280.004 c 148.164 277.078 143.414 277.078 140.484 280.004
 c 122.98 297.512 l 112.301 286.828 l 129.805 269.324 l 132.734 266.395 
132.734 261.648 129.805 258.719 c 126.875 255.789 122.129 255.789 119.199
 258.719 c 101.691 276.223 l 91.012 265.543 l 133.551 223.004 l 186.809 
276.262 l h
186.77 255.008 m 154.801 223.039 l 165.48 212.359 l 197.449 244.328 l h
218.703 244.363 m 154.801 180.465 l 165.48 169.781 l 229.383 233.684 l 
h
229.344 212.434 m 218.664 201.75 l 247.109 173.305 l 250.035 170.375 250.035
 165.629 247.109 162.699 c 244.18 159.77 239.43 159.77 236.5 162.699 c 208.055
 191.145 l 197.371 180.461 l 301.988 75.848 l 312.672 86.527 l 284.23 114.969
 l 281.301 117.898 281.301 122.648 284.23 125.578 c 285.695 127.039 287.613
 127.773 289.531 127.773 c 291.453 127.773 293.371 127.039 294.836 125.578
 c 323.277 97.137 l 333.957 107.816 l h
349.887 102.531 m 307.273 59.918 l 317.957 49.238 l 360.57 91.852 l h
349.887 102.531 m f
270.469 138.375 m 267.289 135.727 262.559 136.156 259.906 139.34 c 257.254
 142.52 257.684 147.25 260.867 149.902 c 262.266 151.07 263.969 151.641 
265.664 151.641 c 267.812 151.641 269.945 150.719 271.43 148.941 c 271.434
 148.938 l 274.086 145.754 273.652 141.027 270.469 138.375 c h
270.469 138.375 m f
Q Q
showpage
%%Trailer
end
%%EOF
