%!PS-Adobe-3.0 EPSF-3.0
%%Creator: cairo 1.16.0 (https://cairographics.org)
%%CreationDate: Wed Sep 30 14:01:24 2020
%%Pages: 1
%%DocumentData: Clean7Bit
%%LanguageLevel: 2
%%BoundingBox: 0 0 384 384
%%EndComments
%%BeginProlog
50 dict begin
/q { gsave } bind def
/Q { grestore } bind def
/cm { 6 array astore concat } bind def
/w { setlinewidth } bind def
/J { setlinecap } bind def
/j { setlinejoin } bind def
/M { setmiterlimit } bind def
/d { setdash } bind def
/m { moveto } bind def
/l { lineto } bind def
/c { curveto } bind def
/h { closepath } bind def
/re { exch dup neg 3 1 roll 5 3 roll moveto 0 rlineto
      0 exch rlineto 0 rlineto closepath } bind def
/S { stroke } bind def
/f { fill } bind def
/f* { eofill } bind def
/n { newpath } bind def
/W { clip } bind def
/W* { eoclip } bind def
/BT { } bind def
/ET { } bind def
/BDC { mark 3 1 roll /BDC pdfmark } bind def
/EMC { mark /EMC pdfmark } bind def
/cairo_store_point { /cairo_point_y exch def /cairo_point_x exch def } def
/Tj { show currentpoint cairo_store_point } bind def
/TJ {
  {
    dup
    type /stringtype eq
    { show } { -0.001 mul 0 cairo_font_matrix dtransform rmoveto } ifelse
  } forall
  currentpoint cairo_store_point
} bind def
/cairo_selectfont { cairo_font_matrix aload pop pop pop 0 0 6 array astore
    cairo_font exch selectfont cairo_point_x cairo_point_y moveto } bind def
/Tf { pop /cairo_font exch def /cairo_font_matrix where
      { pop cairo_selectfont } if } bind def
/Td { matrix translate cairo_font_matrix matrix concatmatrix dup
      /cairo_font_matrix exch def dup 4 get exch 5 get cairo_store_point
      /cairo_font where { pop cairo_selectfont } if } bind def
/Tm { 2 copy 8 2 roll 6 array astore /cairo_font_matrix exch def
      cairo_store_point /cairo_font where { pop cairo_selectfont } if } bind def
/g { setgray } bind def
/rg { setrgbcolor } bind def
/d1 { setcachedevice } bind def
/cairo_data_source {
  CairoDataIndex CairoData length lt
    { CairoData CairoDataIndex get /CairoDataIndex CairoDataIndex 1 add def }
    { () } ifelse
} def
/cairo_flush_ascii85_file { cairo_ascii85_file status { cairo_ascii85_file flushfile } if } def
/cairo_image { image cairo_flush_ascii85_file } def
/cairo_imagemask { imagemask cairo_flush_ascii85_file } def
%%EndProlog
%%BeginSetup
%%EndSetup
%%Page: 1 1
%%BeginPageSetup
%%PageBoundingBox: 0 0 384 384
%%EndPageSetup
q 0 0 384 384 rectclip
1 0 0 -1 0 384 cm q
0 g
382.488 4.254 m 381.832 3.113 380.883 2.168 379.742 1.508 c 377.207 0.047
 374.051 -1.777 345.82 3.699 c 332.18 6.348 318.617 9.574 314.902 10.723
 c 295.984 16.57 291.762 20.793 279.219 33.34 c 278.551 34.008 l 278.508
 34.051 278.461 34.098 278.418 34.145 c 132.789 187.348 l 124.453 183.453
 114.207 184.941 107.336 191.812 c 100.32 198.828 98.922 209.355 103.121
 217.777 c 31.797 298.613 l 28.91 297.305 25.754 296.613 22.48 296.613 c
 16.461 296.613 10.809 298.945 6.57 303.184 c 2.332 307.422 0 313.07 0 319.094
 c 0 325.113 2.332 330.766 6.57 335.004 c 48.996 377.426 l 53.234 381.664
 58.887 384 64.906 384 c 70.93 384 76.578 381.664 80.816 377.426 c 85.055
 373.188 87.387 367.539 87.387 361.52 c 87.387 358.246 86.695 355.086 85.387
 352.203 c 166.219 280.879 l 169.301 282.418 172.723 283.238 176.277 283.238
 c 182.297 283.238 187.949 280.902 192.188 276.664 c 199.059 269.793 200.547
 259.547 196.652 251.211 c 349.855 105.578 l 349.902 105.535 349.949 105.492
 349.992 105.445 c 350.66 104.781 l 363.207 92.238 367.43 88.016 373.273
 69.098 c 374.422 65.379 377.648 51.82 380.297 38.176 c 385.777 9.949 383.953
 6.793 382.488 4.254 c h
135.938 287.594 m 96.406 248.062 l 112.98 229.277 l 154.723 271.02 l h
105.887 314.109 m 69.891 278.113 l 86.465 259.332 l 124.668 297.535 l h
43.371 308.164 m 59.945 289.383 l 94.617 324.055 l 75.836 340.629 l h
70.211 366.82 m 67.285 369.746 62.527 369.746 59.605 366.82 c 17.18 324.395
 l 14.254 321.473 14.254 316.715 17.18 313.789 c 18.641 312.328 20.562 311.598
 22.48 311.598 c 24.402 311.598 26.324 312.328 27.785 313.789 c 70.211 356.215
 l 71.613 357.621 72.387 359.504 72.387 361.52 c 72.387 363.531 71.613 365.418
 70.211 366.82 c h
181.578 266.059 m 178.656 268.98 173.898 268.98 170.973 266.059 c 117.941
 213.027 l 116.535 211.621 115.762 209.738 115.762 207.723 c 115.762 205.707
 116.535 203.824 117.941 202.422 c 119.348 201.016 121.23 200.242 123.242
 200.242 c 125.258 200.242 127.141 201.016 128.547 202.422 c 181.578 255.453
 l 184.504 258.375 184.504 263.133 181.578 266.059 c h
358.941 64.668 m 354.195 80.035 352.039 82.191 340.055 94.172 c 339.453
 94.773 l 187.016 239.676 l 170.973 223.633 l 294.051 100.555 l 296.98 97.629
 296.98 92.879 294.051 89.949 c 291.121 87.02 286.371 87.02 283.445 89.949
 c 160.367 213.027 l 144.324 196.984 l 289.227 44.547 l 289.828 43.945 l
 301.805 31.961 303.965 29.805 319.328 25.055 c 326.938 22.707 356.328 16.406
 368.816 15.18 c 367.594 27.672 361.293 57.062 358.941 64.668 c h
358.941 64.668 m f
312.613 63.887 m 312.605 63.887 l 308.465 63.887 305.109 67.246 305.109
 71.387 c 305.109 75.531 308.469 78.887 312.613 78.887 c 316.754 78.887 
320.113 75.531 320.113 71.387 c 320.113 67.246 316.754 63.887 312.613 63.887
 c h
312.613 63.887 m f
Q Q
showpage
%%Trailer
end
%%EOF
