%!PS-Adobe-3.0 EPSF-3.0
%%Creator: cairo 1.16.0 (https://cairographics.org)
%%CreationDate: Wed Sep 30 14:01:26 2020
%%Pages: 1
%%DocumentData: Clean7Bit
%%LanguageLevel: 2
%%BoundingBox: 0 0 384 384
%%EndComments
%%BeginProlog
50 dict begin
/q { gsave } bind def
/Q { grestore } bind def
/cm { 6 array astore concat } bind def
/w { setlinewidth } bind def
/J { setlinecap } bind def
/j { setlinejoin } bind def
/M { setmiterlimit } bind def
/d { setdash } bind def
/m { moveto } bind def
/l { lineto } bind def
/c { curveto } bind def
/h { closepath } bind def
/re { exch dup neg 3 1 roll 5 3 roll moveto 0 rlineto
      0 exch rlineto 0 rlineto closepath } bind def
/S { stroke } bind def
/f { fill } bind def
/f* { eofill } bind def
/n { newpath } bind def
/W { clip } bind def
/W* { eoclip } bind def
/BT { } bind def
/ET { } bind def
/BDC { mark 3 1 roll /BDC pdfmark } bind def
/EMC { mark /EMC pdfmark } bind def
/cairo_store_point { /cairo_point_y exch def /cairo_point_x exch def } def
/Tj { show currentpoint cairo_store_point } bind def
/TJ {
  {
    dup
    type /stringtype eq
    { show } { -0.001 mul 0 cairo_font_matrix dtransform rmoveto } ifelse
  } forall
  currentpoint cairo_store_point
} bind def
/cairo_selectfont { cairo_font_matrix aload pop pop pop 0 0 6 array astore
    cairo_font exch selectfont cairo_point_x cairo_point_y moveto } bind def
/Tf { pop /cairo_font exch def /cairo_font_matrix where
      { pop cairo_selectfont } if } bind def
/Td { matrix translate cairo_font_matrix matrix concatmatrix dup
      /cairo_font_matrix exch def dup 4 get exch 5 get cairo_store_point
      /cairo_font where { pop cairo_selectfont } if } bind def
/Tm { 2 copy 8 2 roll 6 array astore /cairo_font_matrix exch def
      cairo_store_point /cairo_font where { pop cairo_selectfont } if } bind def
/g { setgray } bind def
/rg { setrgbcolor } bind def
/d1 { setcachedevice } bind def
/cairo_data_source {
  CairoDataIndex CairoData length lt
    { CairoData CairoDataIndex get /CairoDataIndex CairoDataIndex 1 add def }
    { () } ifelse
} def
/cairo_flush_ascii85_file { cairo_ascii85_file status { cairo_ascii85_file flushfile } if } def
/cairo_image { image cairo_flush_ascii85_file } def
/cairo_imagemask { imagemask cairo_flush_ascii85_file } def
%%EndProlog
%%BeginSetup
%%EndSetup
%%Page: 1 1
%%BeginPageSetup
%%PageBoundingBox: 0 0 384 384
%%EndPageSetup
q 0 0 384 384 rectclip
1 0 0 -1 0 384 cm q
0 g
376.5 0 m 310.133 0 254.379 56.285 213.672 97.379 c 210.727 100.352 207.871
 103.238 205.094 106.012 c 203.5 107.609 202.707 109.84 202.938 112.086 
c 205.402 135.906 l 184.438 156.871 l 184.434 156.871 184.434 156.871 184.434
 156.871 c 135.902 205.402 l 112.086 202.938 l 109.84 202.707 107.609 203.5
 106.012 205.094 c 103.238 207.867 100.352 210.727 97.379 213.672 c 56.285
 254.379 0 310.133 0 376.5 c 0 380.641 3.359 384 7.5 384 c 73.867 384 129.621
 327.715 170.328 286.621 c 173.273 283.648 176.133 280.762 178.906 277.988
 c 180.504 276.391 181.297 274.16 181.062 271.914 c 178.598 248.094 l 203.633
 223.059 l 203.637 223.059 203.637 223.059 203.637 223.055 c 203.637 223.055
 203.641 223.055 203.641 223.055 c 227.117 199.578 l 227.121 199.57 227.125
 199.57 227.129 199.566 c 227.133 199.559 227.137 199.555 227.141 199.551
 c 248.094 178.598 l 271.914 181.062 l 274.16 181.285 276.391 180.5 277.988
 178.902 c 280.762 176.129 283.648 173.27 286.621 170.328 c 327.719 129.621
 384 73.867 384 7.5 c 384 3.359 380.641 0 376.5 0 c h
249.344 134.656 m 261.203 164.875 l 248.738 163.586 l 220.414 135.262 l
 219.125 122.797 l h
213.23 149.289 m 234.711 170.77 l 221.824 183.656 l 200.344 162.176 l h
198.336 207.145 m 176.855 185.664 l 189.738 172.781 l 211.219 194.262 l
 h
134.656 249.344 m 122.797 219.125 l 135.262 220.414 l 163.586 248.734 l
 164.875 261.203 l h
170.77 234.711 m 149.289 213.23 l 166.246 196.273 l 187.727 217.754 l h
107.938 224.328 m 108.129 224.137 108.312 223.953 108.504 223.766 c 120.098
 253.297 l 16.961 356.434 l 26.941 304.566 73.141 258.797 107.938 224.328
 c h
27.566 367.039 m 130.703 263.902 l 160.234 275.496 l 160.047 275.688 159.863
 275.871 159.672 276.062 c 125.203 310.863 79.434 357.062 27.566 367.039
 c h
276.062 159.672 m 275.871 159.863 275.688 160.047 275.496 160.234 c 263.906
 130.703 l 315.602 79.004 l 318.531 76.074 318.531 71.328 315.602 68.398
 c 312.672 65.469 307.926 65.469 304.996 68.398 c 253.297 120.094 l 223.766
 108.504 l 223.953 108.312 224.137 108.125 224.328 107.934 c 261.492 70.418
 311.789 19.641 368.699 15.297 c 364.359 72.211 313.582 122.512 276.062 
159.672 c h
276.062 159.672 m f
334.164 57.336 m 338.305 57.336 341.664 53.977 341.664 49.836 c 341.664
 45.695 338.305 42.336 334.164 42.336 c 334.16 42.336 l 330.016 42.336 326.66
 45.695 326.66 49.836 c 326.66 53.977 330.023 57.336 334.164 57.336 c h
334.164 57.336 m f
Q Q
showpage
%%Trailer
end
%%EOF
