%!PS-Adobe-3.0 EPSF-3.0
%%Creator: cairo 1.16.0 (https://cairographics.org)
%%CreationDate: Wed Sep 30 14:01:27 2020
%%Pages: 1
%%DocumentData: Clean7Bit
%%LanguageLevel: 2
%%BoundingBox: 0 0 384 384
%%EndComments
%%BeginProlog
50 dict begin
/q { gsave } bind def
/Q { grestore } bind def
/cm { 6 array astore concat } bind def
/w { setlinewidth } bind def
/J { setlinecap } bind def
/j { setlinejoin } bind def
/M { setmiterlimit } bind def
/d { setdash } bind def
/m { moveto } bind def
/l { lineto } bind def
/c { curveto } bind def
/h { closepath } bind def
/re { exch dup neg 3 1 roll 5 3 roll moveto 0 rlineto
      0 exch rlineto 0 rlineto closepath } bind def
/S { stroke } bind def
/f { fill } bind def
/f* { eofill } bind def
/n { newpath } bind def
/W { clip } bind def
/W* { eoclip } bind def
/BT { } bind def
/ET { } bind def
/BDC { mark 3 1 roll /BDC pdfmark } bind def
/EMC { mark /EMC pdfmark } bind def
/cairo_store_point { /cairo_point_y exch def /cairo_point_x exch def } def
/Tj { show currentpoint cairo_store_point } bind def
/TJ {
  {
    dup
    type /stringtype eq
    { show } { -0.001 mul 0 cairo_font_matrix dtransform rmoveto } ifelse
  } forall
  currentpoint cairo_store_point
} bind def
/cairo_selectfont { cairo_font_matrix aload pop pop pop 0 0 6 array astore
    cairo_font exch selectfont cairo_point_x cairo_point_y moveto } bind def
/Tf { pop /cairo_font exch def /cairo_font_matrix where
      { pop cairo_selectfont } if } bind def
/Td { matrix translate cairo_font_matrix matrix concatmatrix dup
      /cairo_font_matrix exch def dup 4 get exch 5 get cairo_store_point
      /cairo_font where { pop cairo_selectfont } if } bind def
/Tm { 2 copy 8 2 roll 6 array astore /cairo_font_matrix exch def
      cairo_store_point /cairo_font where { pop cairo_selectfont } if } bind def
/g { setgray } bind def
/rg { setrgbcolor } bind def
/d1 { setcachedevice } bind def
/cairo_data_source {
  CairoDataIndex CairoData length lt
    { CairoData CairoDataIndex get /CairoDataIndex CairoDataIndex 1 add def }
    { () } ifelse
} def
/cairo_flush_ascii85_file { cairo_ascii85_file status { cairo_ascii85_file flushfile } if } def
/cairo_image { image cairo_flush_ascii85_file } def
/cairo_imagemask { imagemask cairo_flush_ascii85_file } def
%%EndProlog
%%BeginSetup
%%EndSetup
%%Page: 1 1
%%BeginPageSetup
%%PageBoundingBox: 0 0 384 384
%%EndPageSetup
q 0 0 384 384 rectclip
1 0 0 -1 0 384 cm q
0 g
380.332 101.766 m 347.855 69.289 l 352.668 59.766 353.27 48.066 344.602
 39.398 c 335.934 30.73 324.234 31.332 314.711 36.145 c 282.234 3.664 l 
278.809 0.242 273.535 -0.887 268.473 0.719 c 262.758 2.535 258.695 7.387
 257.605 13.699 c 244.723 88.457 l 118.406 184.238 l 118.133 184.445 117.875
 184.668 117.633 184.91 c 98.586 203.961 l 95.656 206.887 95.656 211.637
 98.586 214.566 c 101.512 217.492 106.262 217.492 109.191 214.566 c 122.938
 200.82 l 183.18 261.062 l 103.863 340.379 l 43.617 280.137 l 61.461 262.293
 l 64.391 259.367 64.391 254.617 61.461 251.688 c 58.531 248.762 53.785 
248.762 50.855 251.688 c 16.809 285.734 l 5.969 296.574 0 311.039 0 326.465
 c 0 341.887 5.969 356.352 16.809 367.191 c 27.648 378.031 42.113 384 57.539
 384 c 72.961 384 87.426 378.031 98.266 367.191 c 199.09 266.367 l 199.332
 266.125 199.555 265.867 199.762 265.594 c 295.543 139.277 l 370.301 126.395
 l 376.613 125.305 381.465 121.242 383.281 115.527 c 384.887 110.465 383.758
 105.191 380.332 101.766 c h
333.996 50.004 m 339.754 55.762 333.156 64.848 332.383 65.867 c 290.574
 121.004 l 262.996 93.426 l 318.137 51.617 l 319.152 50.844 328.238 44.246
 333.996 50.004 c h
272.391 16.246 m 272.461 15.84 272.566 15.535 272.688 15.328 c 302.219 
44.859 l 262.23 75.18 l h
27.418 356.586 m 10.809 339.977 10.805 312.949 27.414 296.34 c 33.012 290.746
 l 93.254 350.988 l 87.66 356.586 l 71.051 373.191 44.023 373.195 27.418
 356.586 c h
193.008 249.68 m 134.32 190.992 l 250.93 102.574 l 281.426 133.07 l h
367.754 111.613 m 308.816 121.77 l 339.137 81.781 l 368.672 111.312 l 368.465
 111.434 368.16 111.539 367.754 111.613 c h
367.754 111.613 m f
80.023 240.625 m 84.164 240.625 87.523 237.27 87.523 233.125 c 87.523 228.984
 84.164 225.625 80.023 225.625 c 80.02 225.625 l 75.875 225.625 72.523 228.984
 72.523 233.125 c 72.523 237.27 75.883 240.625 80.023 240.625 c h
80.023 240.625 m f
Q Q
showpage
%%Trailer
end
%%EOF
