%!PS-Adobe-3.0 EPSF-3.0
%%Creator: cairo 1.16.0 (https://cairographics.org)
%%CreationDate: Wed Sep 30 14:01:28 2020
%%Pages: 1
%%DocumentData: Clean7Bit
%%LanguageLevel: 2
%%BoundingBox: 0 0 384 384
%%EndComments
%%BeginProlog
50 dict begin
/q { gsave } bind def
/Q { grestore } bind def
/cm { 6 array astore concat } bind def
/w { setlinewidth } bind def
/J { setlinecap } bind def
/j { setlinejoin } bind def
/M { setmiterlimit } bind def
/d { setdash } bind def
/m { moveto } bind def
/l { lineto } bind def
/c { curveto } bind def
/h { closepath } bind def
/re { exch dup neg 3 1 roll 5 3 roll moveto 0 rlineto
      0 exch rlineto 0 rlineto closepath } bind def
/S { stroke } bind def
/f { fill } bind def
/f* { eofill } bind def
/n { newpath } bind def
/W { clip } bind def
/W* { eoclip } bind def
/BT { } bind def
/ET { } bind def
/BDC { mark 3 1 roll /BDC pdfmark } bind def
/EMC { mark /EMC pdfmark } bind def
/cairo_store_point { /cairo_point_y exch def /cairo_point_x exch def } def
/Tj { show currentpoint cairo_store_point } bind def
/TJ {
  {
    dup
    type /stringtype eq
    { show } { -0.001 mul 0 cairo_font_matrix dtransform rmoveto } ifelse
  } forall
  currentpoint cairo_store_point
} bind def
/cairo_selectfont { cairo_font_matrix aload pop pop pop 0 0 6 array astore
    cairo_font exch selectfont cairo_point_x cairo_point_y moveto } bind def
/Tf { pop /cairo_font exch def /cairo_font_matrix where
      { pop cairo_selectfont } if } bind def
/Td { matrix translate cairo_font_matrix matrix concatmatrix dup
      /cairo_font_matrix exch def dup 4 get exch 5 get cairo_store_point
      /cairo_font where { pop cairo_selectfont } if } bind def
/Tm { 2 copy 8 2 roll 6 array astore /cairo_font_matrix exch def
      cairo_store_point /cairo_font where { pop cairo_selectfont } if } bind def
/g { setgray } bind def
/rg { setrgbcolor } bind def
/d1 { setcachedevice } bind def
/cairo_data_source {
  CairoDataIndex CairoData length lt
    { CairoData CairoDataIndex get /CairoDataIndex CairoDataIndex 1 add def }
    { () } ifelse
} def
/cairo_flush_ascii85_file { cairo_ascii85_file status { cairo_ascii85_file flushfile } if } def
/cairo_image { image cairo_flush_ascii85_file } def
/cairo_imagemask { imagemask cairo_flush_ascii85_file } def
%%EndProlog
%%BeginSetup
%%EndSetup
%%Page: 1 1
%%BeginPageSetup
%%PageBoundingBox: 0 0 384 384
%%EndPageSetup
q 0 0 384 384 rectclip
1 0 0 -1 0 384 cm q
0 g
381.801 2.199 m 380.039 0.438 377.52 -0.34 375.07 0.141 c 323.121 10.203
 l 321.141 10.586 319.398 11.75 318.289 13.434 c 289.414 57.141 l 262.547
 76.184 l 260.742 77.461 259.594 79.469 259.41 81.672 c 259.227 83.809 259.977
 85.914 261.449 87.465 c 173.105 175.812 l 170.176 178.738 170.176 183.488
 173.105 186.418 c 174.57 187.883 176.488 188.613 178.406 188.613 c 180.328
 188.613 182.246 187.883 183.711 186.418 c 212.207 157.922 l 226.082 171.793
 l 115.922 281.953 l 102.047 268.078 l 135.98 234.145 l 138.91 231.215 138.91
 226.465 135.98 223.535 c 133.055 220.609 128.305 220.609 125.375 223.535
 c 36.219 312.695 l 32.738 310.891 28.844 309.93 24.797 309.93 c 18.16 309.93
 11.93 312.504 7.254 317.176 c -2.418 326.848 -2.418 342.59 7.254 352.262
 c 31.734 376.742 l 36.574 381.582 42.926 384 49.281 384 c 55.633 384 61.984
 381.582 66.824 376.742 c 74.648 368.918 76.141 357.125 71.305 347.781 c
 138.762 280.324 l 166.102 307.66 l 167.566 309.125 169.484 309.859 171.406
 309.859 c 173.324 309.859 175.242 309.125 176.707 307.66 c 198.469 285.898
 l 201.398 282.973 201.398 278.223 198.469 275.293 c 171.129 247.953 l 214.926
 204.16 l 242.266 231.496 l 243.672 232.902 245.578 233.695 247.566 233.695
 c 249.559 233.695 251.465 232.902 252.871 231.496 c 274.633 209.734 l 277.559
 206.809 277.559 202.059 274.633 199.129 c 247.293 171.789 l 296.535 122.547
 l 297.934 123.875 299.781 124.617 301.695 124.617 c 301.906 124.617 302.117
 124.605 302.328 124.59 c 304.531 124.402 306.539 123.258 307.816 121.453
 c 326.859 94.582 l 370.566 65.707 l 372.25 64.598 373.414 62.855 373.797
 60.879 c 383.859 8.926 l 384.336 6.48 383.562 3.961 381.801 2.199 c h
105.316 292.559 m 94.16 303.715 l 80.289 289.84 l 91.441 278.684 l h
47.645 322.48 m 69.68 300.445 l 83.555 314.32 l 61.52 336.355 l h
56.219 366.137 m 54.379 367.977 51.914 368.992 49.281 368.992 c 46.645 
368.992 44.184 367.977 42.344 366.137 c 17.863 341.656 l 14.039 337.832 
14.039 331.609 17.863 327.781 c 19.703 325.945 22.164 324.93 24.801 324.93
 c 27.434 324.93 29.898 325.945 31.734 327.781 c 56.219 352.266 l 58.055
 354.102 59.07 356.566 59.07 359.199 c 59.07 361.836 58.055 364.297 56.219
 366.137 c h
182.559 280.598 m 171.406 291.754 l 149.371 269.719 l 160.523 258.562 l
 h
361.758 44.168 m 339.832 22.242 l 367.023 16.977 l h
325.738 29.367 m 354.633 58.262 l 322.527 79.469 l 304.531 61.473 l h
258.449 139.426 m 244.574 125.551 l 272.051 98.074 l 285.922 111.949 l 
h
258.723 204.434 m 247.57 215.59 l 225.535 193.555 l 236.688 182.398 l h
222.812 147.312 m 233.969 136.16 l 247.84 150.031 l 236.688 161.188 l h
300.719 105.531 m 278.469 83.281 l 294.07 72.227 l 311.773 89.93 l h
300.719 105.531 m f
154.543 212.48 m 156.461 212.48 158.379 211.746 159.844 210.281 c 159.848
 210.277 l 162.777 207.352 162.773 202.605 159.848 199.676 c 156.918 196.746
 152.168 196.75 149.238 199.676 c 146.309 202.605 146.309 207.352 149.238
 210.281 c 150.703 211.746 152.621 212.48 154.543 212.48 c h
154.543 212.48 m f
Q Q
showpage
%%Trailer
end
%%EOF
