%!PS-Adobe-3.0 EPSF-3.0
%%Creator: cairo 1.16.0 (https://cairographics.org)
%%CreationDate: Wed Sep 30 14:01:30 2020
%%Pages: 1
%%DocumentData: Clean7Bit
%%LanguageLevel: 2
%%BoundingBox: 13 0 371 384
%%EndComments
%%BeginProlog
50 dict begin
/q { gsave } bind def
/Q { grestore } bind def
/cm { 6 array astore concat } bind def
/w { setlinewidth } bind def
/J { setlinecap } bind def
/j { setlinejoin } bind def
/M { setmiterlimit } bind def
/d { setdash } bind def
/m { moveto } bind def
/l { lineto } bind def
/c { curveto } bind def
/h { closepath } bind def
/re { exch dup neg 3 1 roll 5 3 roll moveto 0 rlineto
      0 exch rlineto 0 rlineto closepath } bind def
/S { stroke } bind def
/f { fill } bind def
/f* { eofill } bind def
/n { newpath } bind def
/W { clip } bind def
/W* { eoclip } bind def
/BT { } bind def
/ET { } bind def
/BDC { mark 3 1 roll /BDC pdfmark } bind def
/EMC { mark /EMC pdfmark } bind def
/cairo_store_point { /cairo_point_y exch def /cairo_point_x exch def } def
/Tj { show currentpoint cairo_store_point } bind def
/TJ {
  {
    dup
    type /stringtype eq
    { show } { -0.001 mul 0 cairo_font_matrix dtransform rmoveto } ifelse
  } forall
  currentpoint cairo_store_point
} bind def
/cairo_selectfont { cairo_font_matrix aload pop pop pop 0 0 6 array astore
    cairo_font exch selectfont cairo_point_x cairo_point_y moveto } bind def
/Tf { pop /cairo_font exch def /cairo_font_matrix where
      { pop cairo_selectfont } if } bind def
/Td { matrix translate cairo_font_matrix matrix concatmatrix dup
      /cairo_font_matrix exch def dup 4 get exch 5 get cairo_store_point
      /cairo_font where { pop cairo_selectfont } if } bind def
/Tm { 2 copy 8 2 roll 6 array astore /cairo_font_matrix exch def
      cairo_store_point /cairo_font where { pop cairo_selectfont } if } bind def
/g { setgray } bind def
/rg { setrgbcolor } bind def
/d1 { setcachedevice } bind def
/cairo_data_source {
  CairoDataIndex CairoData length lt
    { CairoData CairoDataIndex get /CairoDataIndex CairoDataIndex 1 add def }
    { () } ifelse
} def
/cairo_flush_ascii85_file { cairo_ascii85_file status { cairo_ascii85_file flushfile } if } def
/cairo_image { image cairo_flush_ascii85_file } def
/cairo_imagemask { imagemask cairo_flush_ascii85_file } def
%%EndProlog
%%BeginSetup
%%EndSetup
%%Page: 1 1
%%BeginPageSetup
%%PageBoundingBox: 13 0 371 384
%%EndPageSetup
q 13 0 358 384 rectclip
1 0 0 -1 0 384 cm q
0 g
366.363 336.832 m 299.594 270.062 l 299.648 270.008 l 301.055 268.602 301.844
 266.695 301.844 264.707 c 301.844 262.719 301.055 260.809 299.648 259.402
 c 258.395 218.148 l 295.133 181.406 l 297.535 179.008 298.023 175.293 296.324
 172.352 c 274.449 134.457 l 315.727 93.18 l 321.602 87.301 321.602 77.734
 315.727 71.855 c 304.953 61.086 l 331.801 34.238 l 334.73 31.309 334.73
 26.559 331.801 23.633 c 310.367 2.195 l 308.961 0.789 307.051 0 305.062
 0 c 303.074 0 301.164 0.789 299.758 2.195 c 272.91 29.043 l 262.141 18.273
 l 259.297 15.43 255.512 13.863 251.477 13.863 c 247.445 13.863 243.66 15.43
 240.816 18.273 c 234.035 25.051 l 219.223 21.082 l 215.223 20.008 211.109
 22.383 210.039 26.387 c 208.965 30.387 211.34 34.5 215.34 35.57 c 221.789
 37.297 l 168.227 90.859 l 165.297 93.789 165.297 98.539 168.227 101.469
 c 171.156 104.395 175.902 104.395 178.832 101.469 c 251.43 28.871 l 251.449
 28.863 251.508 28.859 251.531 28.879 c 283.738 61.086 l 224.684 120.137
 l 208.555 104.008 l 207.148 102.602 205.242 101.809 203.25 101.809 c 201.262
 101.809 199.355 102.602 197.949 104.008 c 165.797 136.156 l 164.391 137.562
 163.602 139.473 163.602 141.461 c 163.602 143.449 164.391 145.355 165.797
 146.762 c 181.93 162.895 l 142.277 202.547 l 91.391 188.91 l 131.102 149.195
 l 134.031 146.27 134.031 141.52 131.102 138.59 c 128.176 135.66 123.426
 135.66 120.496 138.59 c 103.066 156.016 l 73.441 148.078 l 70.855 147.383
 68.094 148.125 66.199 150.02 c 26.477 189.742 l 17.934 198.285 13.227 209.684
 13.227 221.836 c 13.227 233.992 17.934 245.387 26.477 253.934 c 101.496
 328.949 l 104.434 331.891 108.297 333.359 112.156 333.359 c 116.02 333.359
 119.879 331.891 122.82 328.949 c 138.895 312.875 l 141.738 310.031 143.301
 306.246 143.301 302.215 c 143.301 298.18 141.738 294.395 138.895 291.551
 c 128.125 280.777 l 162.52 246.383 l 185.742 254.031 196.781 270.684 209.457
 289.832 c 216.922 301.113 224.641 312.773 235.457 323.59 c 236.922 325.055
 238.84 325.789 240.762 325.789 c 242.68 325.789 244.602 325.055 246.062
 323.59 c 256.836 312.82 l 323.605 379.59 l 326.547 382.527 330.406 383.996
 334.266 383.996 c 338.129 383.996 341.988 382.527 344.926 379.59 c 366.363
 358.156 l 372.242 352.277 372.242 342.711 366.363 336.832 c h
267.551 280.891 m 197.781 211.121 l 213.969 194.938 l 283.738 264.707 l
 h
280.457 174.867 m 247.785 207.539 l 224.574 184.328 l 232.512 176.391 l
 237.824 180.398 244.953 182.855 251.438 182.855 c 252.289 182.855 253.133
 182.812 253.961 182.723 c 258.078 182.289 261.066 178.598 260.633 174.48
 c 260.195 170.359 256.504 167.383 252.387 167.809 c 249.664 168.098 246.141
 167.168 243.32 165.586 c 263.465 145.438 l h
283.52 39.652 m 305.062 18.105 l 315.891 28.934 l 294.348 50.477 l h
192.535 152.289 m 181.707 141.461 l 203.25 119.918 l 214.078 130.746 l 
h
142.578 218.156 m 143.219 218.328 143.871 218.41 144.52 218.41 c 146.48
 218.41 148.395 217.641 149.82 216.215 c 294.344 71.691 l 305.125 82.469
 l 305.133 82.488 305.133 82.547 305.117 82.574 c 112.207 275.484 l 112.188
 275.492 112.129 275.496 112.102 275.477 c 58.512 221.887 l 58.5 221.867
 58.5 221.809 58.52 221.781 c 79.141 201.156 l h
28.23 221.84 m 28.23 213.691 31.375 206.059 37.086 200.348 c 73.742 163.691
 l 90.82 168.266 l 47.91 211.176 l 42.031 217.055 42.031 226.621 47.91 232.5
 c 85.477 270.062 l 74.648 280.891 l 37.086 243.328 l 31.375 237.617 28.23
 229.984 28.23 221.84 c h
128.289 302.27 m 112.207 318.352 l 112.188 318.359 112.129 318.363 112.102
 318.344 c 85.254 291.496 l 96.082 280.672 l 101.496 286.082 l 104.336 288.926
 108.125 290.492 112.156 290.492 c 113.504 290.492 114.82 290.301 116.09
 289.961 c 128.293 302.164 l 128.305 302.188 128.305 302.242 128.289 302.27
 c h
240.938 307.508 m 233.648 299.211 227.727 290.262 221.961 281.555 c 210.012
 263.5 197.699 244.91 174.145 234.758 c 187.176 221.73 l 256.945 291.5 l
 h
355.758 347.551 m 334.316 368.988 l 334.297 369 334.238 369 334.211 368.984
 c 267.441 302.215 l 288.988 280.672 l 355.762 347.445 l 355.773 347.465
 355.773 347.523 355.758 347.551 c h
355.758 347.551 m f
149.66 127.531 m 151.691 127.531 153.711 126.711 155.191 125.098 c 155.195
 125.094 l 157.996 122.043 157.785 117.301 154.734 114.5 c 151.68 111.703
 146.934 111.91 144.137 114.965 c 141.336 118.016 141.543 122.762 144.594
 125.559 c 146.035 126.879 147.852 127.531 149.66 127.531 c h
149.66 127.531 m f
Q Q
showpage
%%Trailer
end
%%EOF
