%!PS-Adobe-3.0 EPSF-3.0
%%Creator: cairo 1.16.0 (https://cairographics.org)
%%CreationDate: Wed Sep 30 14:01:30 2020
%%Pages: 1
%%DocumentData: Clean7Bit
%%LanguageLevel: 2
%%BoundingBox: 0 19 384 365
%%EndComments
%%BeginProlog
50 dict begin
/q { gsave } bind def
/Q { grestore } bind def
/cm { 6 array astore concat } bind def
/w { setlinewidth } bind def
/J { setlinecap } bind def
/j { setlinejoin } bind def
/M { setmiterlimit } bind def
/d { setdash } bind def
/m { moveto } bind def
/l { lineto } bind def
/c { curveto } bind def
/h { closepath } bind def
/re { exch dup neg 3 1 roll 5 3 roll moveto 0 rlineto
      0 exch rlineto 0 rlineto closepath } bind def
/S { stroke } bind def
/f { fill } bind def
/f* { eofill } bind def
/n { newpath } bind def
/W { clip } bind def
/W* { eoclip } bind def
/BT { } bind def
/ET { } bind def
/BDC { mark 3 1 roll /BDC pdfmark } bind def
/EMC { mark /EMC pdfmark } bind def
/cairo_store_point { /cairo_point_y exch def /cairo_point_x exch def } def
/Tj { show currentpoint cairo_store_point } bind def
/TJ {
  {
    dup
    type /stringtype eq
    { show } { -0.001 mul 0 cairo_font_matrix dtransform rmoveto } ifelse
  } forall
  currentpoint cairo_store_point
} bind def
/cairo_selectfont { cairo_font_matrix aload pop pop pop 0 0 6 array astore
    cairo_font exch selectfont cairo_point_x cairo_point_y moveto } bind def
/Tf { pop /cairo_font exch def /cairo_font_matrix where
      { pop cairo_selectfont } if } bind def
/Td { matrix translate cairo_font_matrix matrix concatmatrix dup
      /cairo_font_matrix exch def dup 4 get exch 5 get cairo_store_point
      /cairo_font where { pop cairo_selectfont } if } bind def
/Tm { 2 copy 8 2 roll 6 array astore /cairo_font_matrix exch def
      cairo_store_point /cairo_font where { pop cairo_selectfont } if } bind def
/g { setgray } bind def
/rg { setrgbcolor } bind def
/d1 { setcachedevice } bind def
/cairo_data_source {
  CairoDataIndex CairoData length lt
    { CairoData CairoDataIndex get /CairoDataIndex CairoDataIndex 1 add def }
    { () } ifelse
} def
/cairo_flush_ascii85_file { cairo_ascii85_file status { cairo_ascii85_file flushfile } if } def
/cairo_image { image cairo_flush_ascii85_file } def
/cairo_imagemask { imagemask cairo_flush_ascii85_file } def
%%EndProlog
%%BeginSetup
%%EndSetup
%%Page: 1 1
%%BeginPageSetup
%%PageBoundingBox: 0 19 384 365
%%EndPageSetup
q 0 19 384 346 rectclip
1 0 0 -1 0 384 cm q
0 g
364.199 19.5 m 315 19.5 l 310.355 19.5 306.082 21.105 302.699 23.793 c 
299.32 21.105 295.043 19.5 290.398 19.5 c 241.199 19.5 l 236.555 19.5 232.281
 21.105 228.898 23.793 c 225.52 21.105 221.246 19.5 216.602 19.5 c 167.398
 19.5 l 162.754 19.5 158.48 21.105 155.102 23.793 c 151.719 21.105 147.445
 19.5 142.801 19.5 c 93.602 19.5 l 88.957 19.5 84.68 21.105 81.301 23.793
 c 77.918 21.105 73.645 19.5 69 19.5 c 19.801 19.5 l 8.883 19.5 0 28.383
 0 39.301 c 0 344.699 l 0 355.617 8.883 364.5 19.801 364.5 c 69 364.5 l 
73.645 364.5 77.918 362.891 81.301 360.203 c 84.68 362.891 88.957 364.5 
93.602 364.5 c 142.801 364.5 l 147.445 364.5 151.719 362.891 155.102 360.203
 c 158.48 362.891 162.754 364.5 167.398 364.5 c 216.602 364.5 l 221.246 
364.5 225.52 362.891 228.898 360.203 c 232.281 362.891 236.555 364.5 241.199
 364.5 c 290.398 364.5 l 295.043 364.5 299.32 362.891 302.699 360.203 c 
306.082 362.891 310.355 364.5 315 364.5 c 364.199 364.5 l 375.117 364.5 
384 355.617 384 344.699 c 384 39.301 l 384 28.383 375.117 19.5 364.199 19.5
 c h
369 230.891 m 313.426 230.891 l 317.363 218.625 319.5 205.559 319.5 192
 c 319.5 178.441 317.363 165.375 313.426 153.109 c 369 153.109 l h
315 34.5 m 364.199 34.5 l 366.801 34.5 369 36.699 369 39.301 c 369 138.109
 l 310.199 138.109 l 310.199 39.301 l 310.199 39.301 310.199 39.297 310.199
 39.297 c 310.203 36.695 312.398 34.5 315 34.5 c h
241.199 34.5 m 290.398 34.5 l 293 34.5 295.199 36.699 295.199 39.301 c 
295.199 117.219 l 280.547 97.051 260.137 81.328 236.398 72.48 c 236.398 
39.301 l 236.398 36.699 238.598 34.5 241.199 34.5 c h
167.398 34.5 m 216.602 34.5 l 219.203 34.5 221.398 36.699 221.398 39.301
 c 221.398 67.926 l 211.957 65.691 202.117 64.5 192 64.5 c 182.02 64.5 172.184
 65.648 162.602 67.914 c 162.602 39.301 l 162.602 36.699 164.797 34.5 167.398
 34.5 c h
93.602 34.5 m 142.801 34.5 l 145.402 34.5 147.602 36.699 147.602 39.301
 c 147.602 72.465 l 147.195 72.613 146.789 72.758 146.387 72.914 c 142.52
 74.395 140.586 78.73 142.066 82.602 c 143.551 86.469 147.887 88.402 151.754
 86.918 c 164.602 81.996 178.141 79.5 192 79.5 c 254.031 79.5 304.5 129.969
 304.5 192 c 304.5 254.031 254.031 304.5 192 304.5 c 129.969 304.5 79.5 
254.031 79.5 192 c 79.5 176.984 82.41 162.43 88.027 148.906 c 88.168 148.625
 88.289 148.332 88.391 148.031 c 91.879 139.844 96.359 132.039 101.801 124.754
 c 104.281 121.438 103.598 116.738 100.281 114.258 c 96.961 111.777 92.262
 112.461 89.785 115.777 c 89.449 116.223 89.125 116.676 88.801 117.125 c
 88.801 39.301 l 88.801 36.699 91 34.5 93.602 34.5 c h
15 153.109 m 70.52 153.109 l 66.547 165.543 64.5 178.613 64.5 192 c 64.5
 205.555 66.637 218.625 70.574 230.891 c 15 230.891 l h
15 39.301 m 15 36.699 17.199 34.5 19.801 34.5 c 69 34.5 l 71.602 34.5 73.801
 36.699 73.801 39.301 c 73.801 138.109 l 15 138.109 l h
69 349.5 m 19.801 349.5 l 17.199 349.5 15 347.301 15 344.699 c 15 245.891
 l 73.801 245.891 l 73.801 344.699 l 73.801 347.301 71.602 349.5 69 349.5
 c h
142.801 349.5 m 93.602 349.5 l 91 349.5 88.801 347.301 88.801 344.699 c
 88.801 266.781 l 103.453 286.949 123.863 302.672 147.602 311.52 c 147.602
 344.699 l 147.602 347.301 145.402 349.5 142.801 349.5 c h
216.602 349.5 m 167.398 349.5 l 164.797 349.5 162.602 347.301 162.602 344.699
 c 162.602 316.074 l 172.043 318.309 181.883 319.5 192 319.5 c 202.117 319.5
 211.957 318.309 221.398 316.074 c 221.398 344.699 l 221.398 347.301 219.203
 349.5 216.602 349.5 c h
290.398 349.5 m 241.199 349.5 l 238.598 349.5 236.398 347.301 236.398 344.699
 c 236.398 311.52 l 260.137 302.672 280.547 286.949 295.199 266.781 c 295.199
 344.699 l 295.199 347.301 293 349.5 290.398 349.5 c h
369 344.699 m 369 347.301 366.801 349.5 364.199 349.5 c 315 349.5 l 312.398
 349.5 310.203 347.305 310.199 344.703 c 310.199 344.703 310.199 344.699
 310.199 344.699 c 310.199 245.891 l 369 245.891 l h
369 344.699 m f
94.5 192 m 94.5 245.762 138.238 289.5 192 289.5 c 245.762 289.5 289.5 245.762
 289.5 192 c 289.5 138.238 245.762 94.5 192 94.5 c 138.238 94.5 94.5 138.238
 94.5 192 c h
144.441 124.625 m 146.281 127.809 l 147.668 130.215 150.191 131.559 152.781
 131.559 c 154.055 131.559 155.344 131.234 156.523 130.555 c 160.113 128.48
 161.34 123.895 159.27 120.309 c 157.422 117.105 l 165.789 113.227 174.91
 110.711 184.5 109.844 c 184.5 113.547 l 184.5 117.691 187.859 121.047 192
 121.047 c 196.145 121.047 199.5 117.691 199.5 113.547 c 199.5 109.844 l
 209.09 110.711 218.211 113.227 226.578 117.105 c 224.73 120.309 l 222.66
 123.895 223.891 128.48 227.477 130.555 c 228.656 131.234 229.945 131.559
 231.219 131.559 c 233.812 131.559 236.332 130.215 237.723 127.809 c 239.559
 124.625 l 247.234 130.059 253.941 136.766 259.375 144.441 c 256.191 146.277
 l 252.605 148.352 251.375 152.938 253.445 156.523 c 254.836 158.93 257.355
 160.277 259.949 160.277 c 261.223 160.277 262.512 159.949 263.691 159.27
 c 266.895 157.422 l 270.773 165.789 273.289 174.91 274.156 184.5 c 270.453
 184.5 l 266.309 184.5 262.953 187.855 262.953 192 c 262.953 196.141 266.309
 199.5 270.453 199.5 c 274.156 199.5 l 273.289 209.09 270.773 218.211 266.895
 226.578 c 263.691 224.73 l 260.105 222.66 255.52 223.887 253.445 227.477
 c 251.375 231.062 252.605 235.648 256.191 237.719 c 259.375 239.559 l 253.941
 247.234 247.234 253.941 239.559 259.375 c 237.723 256.191 l 235.648 252.602
 231.062 251.375 227.477 253.445 c 223.891 255.516 222.66 260.105 224.73
 263.691 c 226.578 266.895 l 218.211 270.773 209.09 273.285 199.5 274.156
 c 199.5 270.453 l 199.5 266.309 196.145 262.953 192 262.953 c 187.859 262.953
 184.5 266.309 184.5 270.453 c 184.5 274.156 l 174.91 273.285 165.789 270.77
 157.422 266.891 c 159.27 263.691 l 161.34 260.105 160.113 255.516 156.523
 253.445 c 152.938 251.375 148.352 252.605 146.281 256.191 c 144.441 259.375
 l 136.766 253.941 130.059 247.234 124.625 239.559 c 127.809 237.719 l 131.395
 235.648 132.625 231.062 130.555 227.477 c 128.484 223.887 123.895 222.66
 120.309 224.73 c 117.109 226.578 l 113.23 218.211 110.715 209.09 109.844
 199.5 c 113.547 199.5 l 117.691 199.5 121.047 196.141 121.047 192 c 121.047
 187.855 117.691 184.5 113.547 184.5 c 109.844 184.5 l 110.715 174.91 113.23
 165.789 117.109 157.422 c 120.309 159.27 l 121.488 159.949 122.777 160.277
 124.051 160.277 c 126.645 160.277 129.164 158.93 130.555 156.523 c 132.625
 152.938 131.395 148.352 127.809 146.277 c 124.625 144.441 l 130.059 136.766
 136.766 130.059 144.441 124.625 c h
144.441 124.625 m f
192 199.5 m 225.449 199.5 l 229.594 199.5 232.949 196.141 232.949 192 c
 232.949 187.855 229.594 184.5 225.449 184.5 c 199.5 184.5 l 199.5 143.547
 l 199.5 139.406 196.141 136.047 192 136.047 c 187.855 136.047 184.5 139.406
 184.5 143.547 c 184.5 192 l 184.5 196.141 187.859 199.5 192 199.5 c h
192 199.5 m f
119.57 103.816 m 123.715 103.816 127.07 100.457 127.07 96.316 c 127.07 
92.172 123.715 88.816 119.57 88.816 c 119.566 88.816 l 115.422 88.816 112.07
 92.172 112.07 96.316 c 112.07 100.457 115.43 103.816 119.57 103.816 c h
119.57 103.816 m f
Q Q
showpage
%%Trailer
end
%%EOF
