%!PS-Adobe-3.0 EPSF-3.0
%%Creator: cairo 1.16.0 (https://cairographics.org)
%%CreationDate: Wed Sep 30 14:01:32 2020
%%Pages: 1
%%DocumentData: Clean7Bit
%%LanguageLevel: 2
%%BoundingBox: 0 0 384 384
%%EndComments
%%BeginProlog
50 dict begin
/q { gsave } bind def
/Q { grestore } bind def
/cm { 6 array astore concat } bind def
/w { setlinewidth } bind def
/J { setlinecap } bind def
/j { setlinejoin } bind def
/M { setmiterlimit } bind def
/d { setdash } bind def
/m { moveto } bind def
/l { lineto } bind def
/c { curveto } bind def
/h { closepath } bind def
/re { exch dup neg 3 1 roll 5 3 roll moveto 0 rlineto
      0 exch rlineto 0 rlineto closepath } bind def
/S { stroke } bind def
/f { fill } bind def
/f* { eofill } bind def
/n { newpath } bind def
/W { clip } bind def
/W* { eoclip } bind def
/BT { } bind def
/ET { } bind def
/BDC { mark 3 1 roll /BDC pdfmark } bind def
/EMC { mark /EMC pdfmark } bind def
/cairo_store_point { /cairo_point_y exch def /cairo_point_x exch def } def
/Tj { show currentpoint cairo_store_point } bind def
/TJ {
  {
    dup
    type /stringtype eq
    { show } { -0.001 mul 0 cairo_font_matrix dtransform rmoveto } ifelse
  } forall
  currentpoint cairo_store_point
} bind def
/cairo_selectfont { cairo_font_matrix aload pop pop pop 0 0 6 array astore
    cairo_font exch selectfont cairo_point_x cairo_point_y moveto } bind def
/Tf { pop /cairo_font exch def /cairo_font_matrix where
      { pop cairo_selectfont } if } bind def
/Td { matrix translate cairo_font_matrix matrix concatmatrix dup
      /cairo_font_matrix exch def dup 4 get exch 5 get cairo_store_point
      /cairo_font where { pop cairo_selectfont } if } bind def
/Tm { 2 copy 8 2 roll 6 array astore /cairo_font_matrix exch def
      cairo_store_point /cairo_font where { pop cairo_selectfont } if } bind def
/g { setgray } bind def
/rg { setrgbcolor } bind def
/d1 { setcachedevice } bind def
/cairo_data_source {
  CairoDataIndex CairoData length lt
    { CairoData CairoDataIndex get /CairoDataIndex CairoDataIndex 1 add def }
    { () } ifelse
} def
/cairo_flush_ascii85_file { cairo_ascii85_file status { cairo_ascii85_file flushfile } if } def
/cairo_image { image cairo_flush_ascii85_file } def
/cairo_imagemask { imagemask cairo_flush_ascii85_file } def
%%EndProlog
%%BeginSetup
%%EndSetup
%%Page: 1 1
%%BeginPageSetup
%%PageBoundingBox: 0 0 384 384
%%EndPageSetup
q 0 0 384 384 rectclip
1 0 0 -1 0 384 cm q
0 g
376.887 129.836 m 344.758 111.648 l 344.375 100.188 341.383 89.023 335.984
 78.902 c 354.656 47.184 l 357.941 41.699 357.316 35.164 353.102 30.922 
c 348.906 26.699 342.398 26.043 336.91 29.281 c 305.109 48 l 295.012 42.605
 283.836 39.617 272.352 39.238 c 254.215 7.207 l 251.105 1.621 245.137 -1.109
 239.355 0.422 c 233.602 1.945 229.777 7.254 229.836 13.625 c 230.148 50.531
 l 225.32 53.547 220.832 57.098 216.785 61.148 c 212.73 65.203 209.18 69.688
 206.164 74.516 c 169.375 74.203 l 162.965 74.098 157.633 77.91 156.066 
83.68 c 154.508 89.426 157.195 95.391 162.742 98.527 c 194.875 116.719 l
 195.258 128.207 198.242 139.379 203.637 149.473 c 184.973 181.18 l 181.691
 186.664 182.312 193.199 186.527 197.441 c 188.707 199.633 191.512 200.855
 194.473 201.078 c 144.934 250.617 l 133.379 239.062 l 141.004 231.438 l
 143.934 228.508 143.934 223.762 141.004 220.832 c 138.078 217.902 133.328
 217.902 130.398 220.832 c 122.773 228.457 l 117.949 223.633 l 113.711 219.395
 108.059 217.059 102.039 217.059 c 96.02 217.062 90.367 219.395 86.129 223.633
 c 81.895 227.871 79.559 233.52 79.559 239.543 c 79.559 243.141 80.398 246.605
 81.973 249.719 c 31.672 309.164 l 23.406 305.477 13.355 307.016 6.582 313.789
 c -2.191 322.562 -2.191 336.836 6.582 345.609 c 38.398 377.426 l 42.637
 381.664 48.289 384 54.309 384 c 60.332 384 65.98 381.664 70.219 377.426
 c 76.992 370.652 78.531 360.602 74.844 352.332 c 134.289 302.035 l 137.402
 303.609 140.867 304.449 144.465 304.449 c 150.484 304.449 156.137 302.113
 160.375 297.875 c 164.613 293.641 166.945 287.988 166.945 281.969 c 166.945
 275.945 164.613 270.297 160.375 266.059 c 155.539 261.223 l 235.754 181.008
 l 245.527 185.996 256.258 188.77 267.285 189.137 c 285.414 221.156 l 287.949
 225.707 292.379 228.359 297.062 228.359 c 298.125 228.359 299.203 228.223
 300.273 227.941 c 306.027 226.418 309.852 221.109 309.793 214.738 c 309.484
 177.832 l 314.312 174.816 318.793 171.262 322.844 167.215 c 326.887 163.176
 330.434 158.691 333.449 153.848 c 370.258 154.156 l 370.34 154.16 370.426
 154.16 370.508 154.16 c 376.789 154.16 382.016 150.375 383.562 144.68 c
 385.121 138.938 382.434 132.973 376.887 129.836 c h
111.301 301.836 m 82.172 272.707 l 91.895 261.215 l 122.789 292.113 l h
88.32 321.281 m 62.723 295.688 l 72.449 284.195 l 99.809 311.559 l h
43.277 318.668 m 53 307.18 l 76.828 331.004 l 65.336 340.727 l h
59.609 366.82 m 58.207 368.223 56.324 369 54.309 369 c 52.293 369 50.41
 368.223 49.004 366.82 c 17.188 335 l 15.781 333.594 15.008 331.711 15.008
 329.699 c 15.008 327.684 15.781 325.801 17.188 324.395 c 18.59 322.992 
20.473 322.215 22.488 322.215 c 24.504 322.215 26.387 322.992 27.793 324.395
 c 59.609 356.215 l 62.535 359.137 62.535 363.895 59.609 366.82 c h
149.766 287.27 m 146.84 290.195 142.082 290.195 139.16 287.27 c 96.734 
244.844 l 95.328 243.441 94.555 241.559 94.555 239.543 c 94.555 237.527 
95.332 235.645 96.734 234.238 c 98.195 232.777 100.117 232.047 102.039 232.047
 c 103.957 232.047 105.879 232.777 107.34 234.238 c 149.766 276.664 l 151.172
 278.07 151.945 279.953 151.945 281.969 c 151.945 283.98 151.172 285.867
 149.766 287.27 c h
337.879 46.117 m 320.832 75.078 l 320.828 75.086 320.82 75.098 320.816 
75.109 c 317.801 80.23 l 314.766 78.77 311.984 76.805 309.59 74.406 c 307.191
 72.012 305.227 69.23 303.766 66.195 c h
261.395 50.336 m 261.438 50.41 261.48 50.484 261.523 50.559 c 264.406 55.648
 l 261.621 57.547 258.527 58.973 255.258 59.848 c 251.984 60.727 248.594
 61.035 245.234 60.785 c 245.184 54.832 l 245.184 54.812 245.184 54.793 
245.184 54.773 c 244.902 21.199 l h
210.406 89.551 m 210.414 89.551 210.426 89.551 210.434 89.551 c 210.438
 89.551 210.445 89.551 210.449 89.551 c 216.418 89.602 l 216.668 92.957 
216.355 96.352 215.48 99.621 c 214.605 102.895 213.18 105.988 211.281 108.77
 c 206.113 105.844 l 206.102 105.836 206.086 105.828 206.07 105.82 c 176.832
 89.266 l h
218.785 153.301 m 218.793 153.285 218.805 153.27 218.812 153.258 c 221.828
 148.133 l 224.863 149.594 227.645 151.559 230.039 153.953 c 232.434 156.352
 234.402 159.133 235.859 162.168 c 230.738 165.184 l 230.719 165.191 230.703
 165.203 230.684 165.215 c 201.746 182.246 l h
278.199 177.969 m 278.176 177.93 278.156 177.887 278.129 177.848 c 275.223
 172.715 l 278.008 170.816 281.102 169.391 284.371 168.512 c 287.645 167.637
 291.035 167.324 294.395 167.578 c 294.445 173.527 l 294.445 173.547 294.445
 173.57 294.445 173.59 c 294.727 207.16 l h
309.129 159.504 m 308.492 156.883 306.477 154.746 303.781 154.023 c 296.164
 151.984 288.109 151.984 280.488 154.023 c 272.871 156.066 265.895 160.094
 260.316 165.672 c 258.344 167.645 257.664 170.508 258.434 173.102 c 255.641
 172.566 252.891 171.828 250.203 170.902 c 252.168 169.043 253.016 166.223
 252.293 163.523 c 250.25 155.902 246.223 148.93 240.648 143.348 c 235.07
 137.77 228.094 133.742 220.473 131.703 c 217.777 130.98 214.957 131.824
 213.094 133.789 c 212.168 131.102 211.434 128.352 210.895 125.555 c 211.594
 125.762 212.305 125.875 213.02 125.875 c 214.961 125.875 216.879 125.121
 218.324 123.676 c 223.902 118.102 227.93 111.125 229.969 103.504 c 232.012
 95.887 232.012 87.832 229.969 80.211 c 229.246 77.52 227.113 75.504 224.492
 74.867 c 225.418 73.801 226.383 72.762 227.391 71.758 c 228.395 70.75 229.434
 69.785 230.5 68.859 c 231.137 71.48 233.152 73.617 235.844 74.336 c 239.656
 75.359 243.574 75.867 247.492 75.867 c 251.41 75.867 255.328 75.359 259.137
 74.336 c 266.758 72.297 273.73 68.27 279.309 62.691 c 281.285 60.715 281.961
 57.855 281.195 55.262 c 283.988 55.797 286.738 56.531 289.422 57.461 c 
287.457 59.32 286.613 62.141 287.336 64.84 c 289.375 72.461 293.402 79.438
 298.98 85.012 c 304.559 90.59 311.535 94.617 319.152 96.66 c 319.797 96.832
 320.449 96.918 321.094 96.918 c 323.141 96.918 325.105 96.062 326.52 94.574
 c 327.449 97.262 328.188 100.008 328.723 102.797 c 326.137 102.035 323.273
 102.711 321.305 104.684 c 315.723 110.262 311.695 117.238 309.656 124.855
 c 307.613 132.477 307.613 140.531 309.656 148.148 c 310.379 150.844 312.512
 152.859 315.133 153.496 c 314.207 154.562 313.242 155.602 312.238 156.605
 c 311.234 157.609 310.195 158.578 309.129 159.504 c h
329.207 138.812 m 329.188 138.812 329.168 138.812 329.145 138.812 c 323.211
 138.762 l 322.957 135.402 323.27 132.012 324.145 128.738 c 325.023 125.469
 326.449 122.375 328.348 119.59 c 333.516 122.52 l 333.527 122.527 333.543
 122.531 333.555 122.539 c 362.793 139.094 l h
329.207 138.812 m f
251.254 95.621 m 246.297 100.578 243.562 107.172 243.562 114.18 c 243.562
 121.191 246.297 127.785 251.254 132.742 c 256.211 137.699 262.801 140.43
 269.812 140.43 c 276.824 140.43 283.418 137.699 288.375 132.742 c 293.332
 127.785 296.062 121.195 296.062 114.18 c 296.062 107.172 293.332 100.578
 288.375 95.621 c 278.141 85.383 261.488 85.387 251.254 95.621 c h
277.77 122.137 m 275.645 124.262 272.82 125.43 269.816 125.43 c 266.809
 125.43 263.984 124.262 261.859 122.137 c 259.734 120.012 258.566 117.188
 258.566 114.18 c 258.566 111.176 259.734 108.352 261.859 106.227 c 264.055
 104.035 266.934 102.938 269.816 102.938 c 272.695 102.938 275.578 104.035
 277.77 106.227 c 279.895 108.352 281.062 111.18 281.062 114.18 c 281.062
 117.188 279.895 120.012 277.77 122.137 c h
277.77 122.137 m f
159.562 209.773 m 161.484 209.773 163.402 209.039 164.867 207.574 c 164.871
 207.57 l 167.801 204.645 167.797 199.895 164.871 196.965 c 161.941 194.039
 157.191 194.039 154.262 196.969 c 151.332 199.898 151.332 204.645 154.262
 207.574 c 155.727 209.039 157.645 209.773 159.562 209.773 c h
159.562 209.773 m f
Q Q
showpage
%%Trailer
end
%%EOF
