%!PS-Adobe-3.0 EPSF-3.0
%%Creator: cairo 1.16.0 (https://cairographics.org)
%%CreationDate: Wed Sep 30 14:01:33 2020
%%Pages: 1
%%DocumentData: Clean7Bit
%%LanguageLevel: 2
%%BoundingBox: 0 1 384 383
%%EndComments
%%BeginProlog
50 dict begin
/q { gsave } bind def
/Q { grestore } bind def
/cm { 6 array astore concat } bind def
/w { setlinewidth } bind def
/J { setlinecap } bind def
/j { setlinejoin } bind def
/M { setmiterlimit } bind def
/d { setdash } bind def
/m { moveto } bind def
/l { lineto } bind def
/c { curveto } bind def
/h { closepath } bind def
/re { exch dup neg 3 1 roll 5 3 roll moveto 0 rlineto
      0 exch rlineto 0 rlineto closepath } bind def
/S { stroke } bind def
/f { fill } bind def
/f* { eofill } bind def
/n { newpath } bind def
/W { clip } bind def
/W* { eoclip } bind def
/BT { } bind def
/ET { } bind def
/BDC { mark 3 1 roll /BDC pdfmark } bind def
/EMC { mark /EMC pdfmark } bind def
/cairo_store_point { /cairo_point_y exch def /cairo_point_x exch def } def
/Tj { show currentpoint cairo_store_point } bind def
/TJ {
  {
    dup
    type /stringtype eq
    { show } { -0.001 mul 0 cairo_font_matrix dtransform rmoveto } ifelse
  } forall
  currentpoint cairo_store_point
} bind def
/cairo_selectfont { cairo_font_matrix aload pop pop pop 0 0 6 array astore
    cairo_font exch selectfont cairo_point_x cairo_point_y moveto } bind def
/Tf { pop /cairo_font exch def /cairo_font_matrix where
      { pop cairo_selectfont } if } bind def
/Td { matrix translate cairo_font_matrix matrix concatmatrix dup
      /cairo_font_matrix exch def dup 4 get exch 5 get cairo_store_point
      /cairo_font where { pop cairo_selectfont } if } bind def
/Tm { 2 copy 8 2 roll 6 array astore /cairo_font_matrix exch def
      cairo_store_point /cairo_font where { pop cairo_selectfont } if } bind def
/g { setgray } bind def
/rg { setrgbcolor } bind def
/d1 { setcachedevice } bind def
/cairo_data_source {
  CairoDataIndex CairoData length lt
    { CairoData CairoDataIndex get /CairoDataIndex CairoDataIndex 1 add def }
    { () } ifelse
} def
/cairo_flush_ascii85_file { cairo_ascii85_file status { cairo_ascii85_file flushfile } if } def
/cairo_image { image cairo_flush_ascii85_file } def
/cairo_imagemask { imagemask cairo_flush_ascii85_file } def
%%EndProlog
%%BeginSetup
%%EndSetup
%%Page: 1 1
%%BeginPageSetup
%%PageBoundingBox: 0 1 384 383
%%EndPageSetup
q 0 1 384 382 rectclip
1 0 0 -1 0 384 cm q
0 g
373.805 9.734 m 370.766 4.824 366.094 1.77 360.645 1.137 c 354.336 0.41
 347.789 3.07 342.223 8.641 c 276.234 74.629 l 269.941 80.922 269.941 80.922
 260.684 80.922 c 243.531 80.922 l 228.18 80.922 223.68 84.133 213.742 94.07
 c 132.73 175.082 l 127.27 169.621 l 122.988 165.344 117.285 162.984 111.203
 162.984 c 105.125 162.984 99.418 165.344 95.141 169.621 c 90.859 173.902
 88.5 179.605 88.5 185.688 c 88.5 191.77 90.859 197.473 95.137 201.754 c
 105.977 212.594 l 35.699 282.875 l 30.238 277.418 l 27.391 274.57 23.598
 273 19.555 273 c 15.512 273 11.719 274.57 8.871 277.418 c -2.957 289.246
 -2.953 308.484 8.871 320.312 c 62.684 374.125 l 68.395 379.836 76.012 382.98
 84.129 382.98 c 92.25 382.98 99.867 379.836 105.578 374.125 c 111.469 368.234
 111.469 358.648 105.578 352.754 c 100.121 347.297 l 170.402 277.016 l 181.242
 287.855 l 185.52 292.137 191.227 294.492 197.309 294.492 c 203.387 294.492
 209.094 292.137 213.375 287.855 c 222.23 278.996 222.23 264.582 213.375
 255.723 c 207.914 250.262 l 364.047 94.129 l 374.977 83.199 381.922 68.68
 383.598 53.246 c 385.25 38.062 381.77 22.609 373.805 9.734 c h
116.473 309.727 m 73.266 266.52 l 89.621 250.164 l 132.828 293.371 l h
94.969 363.516 m 92.094 366.395 88.242 367.98 84.129 367.98 c 80.016 367.98
 76.168 366.395 73.289 363.516 c 19.477 309.703 l 13.496 303.727 13.496 
294 19.477 288.023 c 19.492 288.008 19.523 288 19.555 288 c 19.586 288 19.617
 288.008 19.633 288.023 c 94.969 363.359 l 95 363.391 95 363.484 94.969 
363.516 c h
46.305 293.48 m 62.66 277.125 l 105.867 320.336 l 89.512 336.691 l h
143.438 282.766 m 100.227 239.559 l 116.586 223.199 l 159.793 266.41 l 
h
202.766 277.25 m 201.316 278.695 199.379 279.492 197.305 279.492 c 195.23
 279.492 193.293 278.695 191.848 277.25 c 105.746 191.148 l 104.297 189.699
 103.5 187.762 103.5 185.688 c 103.5 183.613 104.297 181.676 105.746 180.23
 c 107.25 178.723 109.227 177.969 111.203 177.969 c 113.18 177.969 115.156
 178.723 116.664 180.23 c 202.766 266.328 l 204.211 267.777 205.008 269.715
 205.008 271.789 c 205.008 273.863 204.211 275.801 202.766 277.25 c h
353.441 83.52 m 197.305 239.656 l 186.387 228.738 l 256.562 158.562 l 259.492
 155.633 259.492 150.883 256.562 147.953 c 253.633 145.027 248.887 145.027
 245.957 147.953 c 175.777 218.129 l 143.336 185.688 l 154.258 174.766 l
 154.285 174.793 154.305 174.82 154.332 174.848 c 165.094 185.609 l 166.559
 187.074 168.48 187.805 170.398 187.805 c 172.316 187.805 174.234 187.074
 175.699 185.609 c 178.629 182.68 178.629 177.934 175.699 175.004 c 164.938
 164.238 l 164.914 164.215 164.883 164.191 164.855 164.164 c 175.785 153.238
 l 175.809 153.266 175.832 153.293 175.855 153.32 c 186.621 164.082 l 188.086
 165.547 190.004 166.281 191.922 166.281 c 193.844 166.281 195.762 165.547
 197.227 164.082 c 200.156 161.156 200.156 156.406 197.227 153.477 c 186.465
 142.715 l 186.438 142.688 186.41 142.664 186.383 142.641 c 197.309 131.715
 l 197.336 131.742 197.355 131.77 197.383 131.797 c 208.145 142.559 l 209.609
 144.023 211.527 144.754 213.449 144.754 c 215.367 144.754 217.285 144.023
 218.75 142.559 c 221.68 139.629 221.68 134.883 218.75 131.953 c 207.988
 121.188 l 207.961 121.164 207.934 121.141 207.906 121.113 c 218.832 110.188
 l 218.859 110.215 218.879 110.246 218.906 110.27 c 229.668 121.035 l 231.133
 122.496 233.055 123.23 234.973 123.23 c 236.891 123.23 238.809 122.496 
240.273 121.035 c 243.203 118.105 243.203 113.355 240.273 110.426 c 229.547
 99.699 l 233.574 96.258 236.016 95.918 243.527 95.918 c 260.68 95.918 l
 273.98 95.918 277.648 94.422 286.836 85.234 c 352.824 19.246 l 355.023 
17.051 357.285 15.844 358.914 16.035 c 359.219 16.07 360.152 16.18 361.047
 17.625 c 363.082 20.918 364.719 24.383 365.961 27.949 c 293.68 100.227 
l 290.754 103.156 290.754 107.902 293.68 110.832 c 295.145 112.297 297.066
 113.031 298.984 113.031 c 300.902 113.031 302.824 112.297 304.289 110.832
 c 368.926 46.195 l 368.785 59.895 363.5 73.461 353.441 83.52 c h
353.441 83.52 m f
275.125 121.895 m 275.121 121.895 l 270.98 121.895 267.625 125.254 267.625
 129.395 c 267.625 133.539 270.984 136.895 275.125 136.895 c 279.27 136.895
 282.625 133.539 282.625 129.395 c 282.625 125.254 279.27 121.895 275.125
 121.895 c h
275.125 121.895 m f
Q Q
showpage
%%Trailer
end
%%EOF
