%!PS-Adobe-3.0 EPSF-3.0
%%Creator: cairo 1.16.0 (https://cairographics.org)
%%CreationDate: Wed Sep 30 14:01:35 2020
%%Pages: 1
%%DocumentData: Clean7Bit
%%LanguageLevel: 2
%%BoundingBox: 0 0 384 384
%%EndComments
%%BeginProlog
50 dict begin
/q { gsave } bind def
/Q { grestore } bind def
/cm { 6 array astore concat } bind def
/w { setlinewidth } bind def
/J { setlinecap } bind def
/j { setlinejoin } bind def
/M { setmiterlimit } bind def
/d { setdash } bind def
/m { moveto } bind def
/l { lineto } bind def
/c { curveto } bind def
/h { closepath } bind def
/re { exch dup neg 3 1 roll 5 3 roll moveto 0 rlineto
      0 exch rlineto 0 rlineto closepath } bind def
/S { stroke } bind def
/f { fill } bind def
/f* { eofill } bind def
/n { newpath } bind def
/W { clip } bind def
/W* { eoclip } bind def
/BT { } bind def
/ET { } bind def
/BDC { mark 3 1 roll /BDC pdfmark } bind def
/EMC { mark /EMC pdfmark } bind def
/cairo_store_point { /cairo_point_y exch def /cairo_point_x exch def } def
/Tj { show currentpoint cairo_store_point } bind def
/TJ {
  {
    dup
    type /stringtype eq
    { show } { -0.001 mul 0 cairo_font_matrix dtransform rmoveto } ifelse
  } forall
  currentpoint cairo_store_point
} bind def
/cairo_selectfont { cairo_font_matrix aload pop pop pop 0 0 6 array astore
    cairo_font exch selectfont cairo_point_x cairo_point_y moveto } bind def
/Tf { pop /cairo_font exch def /cairo_font_matrix where
      { pop cairo_selectfont } if } bind def
/Td { matrix translate cairo_font_matrix matrix concatmatrix dup
      /cairo_font_matrix exch def dup 4 get exch 5 get cairo_store_point
      /cairo_font where { pop cairo_selectfont } if } bind def
/Tm { 2 copy 8 2 roll 6 array astore /cairo_font_matrix exch def
      cairo_store_point /cairo_font where { pop cairo_selectfont } if } bind def
/g { setgray } bind def
/rg { setrgbcolor } bind def
/d1 { setcachedevice } bind def
/cairo_data_source {
  CairoDataIndex CairoData length lt
    { CairoData CairoDataIndex get /CairoDataIndex CairoDataIndex 1 add def }
    { () } ifelse
} def
/cairo_flush_ascii85_file { cairo_ascii85_file status { cairo_ascii85_file flushfile } if } def
/cairo_image { image cairo_flush_ascii85_file } def
/cairo_imagemask { imagemask cairo_flush_ascii85_file } def
%%EndProlog
%%BeginSetup
%%EndSetup
%%Page: 1 1
%%BeginPageSetup
%%PageBoundingBox: 0 0 384 384
%%EndPageSetup
q 0 0 384 384 rectclip
1 0 0 -1 0 384 cm q
0 g
192 0 m 86.129 0 0 86.129 0 192 c 0 297.871 86.129 384 192 384 c 297.871
 384 384 297.871 384 192 c 384 86.129 297.871 0 192 0 c h
192 369 m 94.402 369 15 289.598 15 192 c 15 94.402 94.402 15 192 15 c 289.598
 15 369 94.402 369 192 c 369 289.598 289.598 369 192 369 c h
192 369 m f
192 33.75 m 162.102 33.75 132.984 42.137 107.785 58.008 c 104.281 60.215
 103.227 64.844 105.434 68.352 c 107.641 71.855 112.273 72.906 115.777 70.699
 c 138.578 56.34 164.938 48.75 192 48.75 c 270.988 48.75 335.25 113.012 
335.25 192 c 335.25 270.988 270.988 335.25 192 335.25 c 113.012 335.25 48.75
 270.988 48.75 192 c 48.75 164.934 56.34 138.578 70.695 115.781 c 72.906
 112.277 71.852 107.648 68.348 105.441 c 64.844 103.234 60.211 104.281 58.004
 107.789 c 42.137 132.98 33.75 162.102 33.75 192 c 33.75 279.258 104.742
 350.25 192 350.25 c 279.258 350.25 350.25 279.258 350.25 192 c 350.25 104.742
 279.258 33.75 192 33.75 c h
192 33.75 m f
87 184.5 m 82.859 184.5 79.5 187.859 79.5 192 c 79.5 196.141 82.859 199.5
 87 199.5 c 94.5 199.5 l 94.5 207 l 94.5 211.141 97.859 214.5 102 214.5 
c 106.141 214.5 109.5 211.141 109.5 207 c 109.5 199.5 l 124.918 199.5 l 
128.387 230.738 153.262 255.609 184.5 259.082 c 184.5 274.5 l 177 274.5 
l 172.855 274.5 169.5 277.859 169.5 282 c 169.5 286.141 172.855 289.5 177
 289.5 c 184.5 289.5 l 184.5 297 l 184.5 301.141 187.855 304.5 192 304.5
 c 196.141 304.5 199.5 301.141 199.5 297 c 199.5 289.5 l 207 289.5 l 211.141
 289.5 214.5 286.141 214.5 282 c 214.5 277.859 211.141 274.5 207 274.5 c
 199.5 274.5 l 199.5 259.082 l 230.738 255.609 255.609 230.738 259.078 199.5
 c 274.5 199.5 l 274.5 207 l 274.5 211.141 277.855 214.5 282 214.5 c 286.141
 214.5 289.5 211.141 289.5 207 c 289.5 199.5 l 297 199.5 l 301.141 199.5
 304.5 196.141 304.5 192 c 304.5 187.859 301.141 184.5 297 184.5 c 289.5
 184.5 l 289.5 177 l 289.5 172.859 286.141 169.5 282 169.5 c 277.855 169.5
 274.5 172.859 274.5 177 c 274.5 184.5 l 259.082 184.5 l 255.609 153.262
 230.738 128.391 199.5 124.918 c 199.5 109.5 l 207 109.5 l 211.141 109.5
 214.5 106.141 214.5 102 c 214.5 97.859 211.141 94.5 207 94.5 c 199.5 94.5
 l 199.5 87 l 199.5 82.859 196.141 79.5 192 79.5 c 187.859 79.5 184.5 82.859
 184.5 87 c 184.5 94.5 l 177 94.5 l 172.859 94.5 169.5 97.859 169.5 102 
c 169.5 106.141 172.859 109.5 177 109.5 c 184.5 109.5 l 184.5 124.918 l 
153.262 128.391 128.391 153.262 124.918 184.5 c 109.5 184.5 l 109.5 177 
l 109.5 172.859 106.141 169.5 102 169.5 c 97.859 169.5 94.5 172.859 94.5
 177 c 94.5 184.5 l h
140.043 199.5 m 184.5 199.5 l 184.5 214.496 l 177 214.496 l 172.859 214.496
 169.5 217.855 169.5 221.996 c 169.5 226.137 172.859 229.496 177 229.496
 c 184.5 229.496 l 184.5 243.957 l 161.543 240.656 143.344 222.457 140.043
 199.5 c h
199.5 243.957 m 199.5 229.496 l 207 229.496 l 211.141 229.496 214.5 226.137
 214.5 221.996 c 214.5 217.855 211.141 214.496 207 214.496 c 199.5 214.496
 l 199.5 199.5 l 243.957 199.5 l 240.656 222.457 222.457 240.656 199.5 243.957
 c h
243.957 184.5 m 199.5 184.5 l 199.5 169.5 l 207 169.5 l 211.141 169.5 214.5
 166.141 214.5 162 c 214.5 157.859 211.141 154.5 207 154.5 c 199.5 154.5
 l 199.5 140.043 l 222.457 143.344 240.656 161.543 243.957 184.5 c h
184.5 140.043 m 184.5 154.5 l 177 154.5 l 172.859 154.5 169.5 157.859 169.5
 162 c 169.5 166.141 172.859 169.5 177 169.5 c 184.5 169.5 l 184.5 184.5
 l 140.043 184.5 l 143.344 161.543 161.543 143.344 184.5 140.043 c h
184.5 140.043 m f
85.402 92.902 m 87.203 92.902 89.012 92.258 90.449 90.953 c 93.512 88.168
 93.738 83.422 90.953 80.359 c 88.168 77.293 83.422 77.066 80.359 79.852
 c 80.355 79.855 l 77.289 82.645 77.066 87.383 79.852 90.449 c 81.332 92.078
 83.363 92.902 85.402 92.902 c h
85.402 92.902 m f
Q Q
showpage
%%Trailer
end
%%EOF
