%!PS-Adobe-3.0 EPSF-3.0
%%Creator: cairo 1.16.0 (https://cairographics.org)
%%CreationDate: Wed Sep 30 14:01:35 2020
%%Pages: 1
%%DocumentData: Clean7Bit
%%LanguageLevel: 2
%%BoundingBox: 0 34 384 350
%%EndComments
%%BeginProlog
50 dict begin
/q { gsave } bind def
/Q { grestore } bind def
/cm { 6 array astore concat } bind def
/w { setlinewidth } bind def
/J { setlinecap } bind def
/j { setlinejoin } bind def
/M { setmiterlimit } bind def
/d { setdash } bind def
/m { moveto } bind def
/l { lineto } bind def
/c { curveto } bind def
/h { closepath } bind def
/re { exch dup neg 3 1 roll 5 3 roll moveto 0 rlineto
      0 exch rlineto 0 rlineto closepath } bind def
/S { stroke } bind def
/f { fill } bind def
/f* { eofill } bind def
/n { newpath } bind def
/W { clip } bind def
/W* { eoclip } bind def
/BT { } bind def
/ET { } bind def
/BDC { mark 3 1 roll /BDC pdfmark } bind def
/EMC { mark /EMC pdfmark } bind def
/cairo_store_point { /cairo_point_y exch def /cairo_point_x exch def } def
/Tj { show currentpoint cairo_store_point } bind def
/TJ {
  {
    dup
    type /stringtype eq
    { show } { -0.001 mul 0 cairo_font_matrix dtransform rmoveto } ifelse
  } forall
  currentpoint cairo_store_point
} bind def
/cairo_selectfont { cairo_font_matrix aload pop pop pop 0 0 6 array astore
    cairo_font exch selectfont cairo_point_x cairo_point_y moveto } bind def
/Tf { pop /cairo_font exch def /cairo_font_matrix where
      { pop cairo_selectfont } if } bind def
/Td { matrix translate cairo_font_matrix matrix concatmatrix dup
      /cairo_font_matrix exch def dup 4 get exch 5 get cairo_store_point
      /cairo_font where { pop cairo_selectfont } if } bind def
/Tm { 2 copy 8 2 roll 6 array astore /cairo_font_matrix exch def
      cairo_store_point /cairo_font where { pop cairo_selectfont } if } bind def
/g { setgray } bind def
/rg { setrgbcolor } bind def
/d1 { setcachedevice } bind def
/cairo_data_source {
  CairoDataIndex CairoData length lt
    { CairoData CairoDataIndex get /CairoDataIndex CairoDataIndex 1 add def }
    { () } ifelse
} def
/cairo_flush_ascii85_file { cairo_ascii85_file status { cairo_ascii85_file flushfile } if } def
/cairo_image { image cairo_flush_ascii85_file } def
/cairo_imagemask { imagemask cairo_flush_ascii85_file } def
%%EndProlog
%%BeginSetup
%%EndSetup
%%Page: 1 1
%%BeginPageSetup
%%PageBoundingBox: 0 34 384 350
%%EndPageSetup
q 0 34 384 316 rectclip
1 0 0 -1 0 384 cm q
0 g
379.523 269.086 m 350.621 240.66 l 352.059 234.562 352.801 228.305 352.801
 222 c 352.801 215.707 352.055 209.453 350.609 203.344 c 379.438 174.992
 l 384.215 170.367 385.355 163.645 382.273 158.266 c 379.207 152.914 372.852
 150.516 366.465 152.289 c 327.383 163.113 l 318.203 154.445 307.172 148.082
 295.074 144.461 c 284.938 105.316 l 283.32 98.867 278.066 94.52 271.867
 94.5 c 271.852 94.5 271.84 94.5 271.824 94.5 c 265.676 94.5 260.438 98.797
 258.785 105.203 c 248.625 144.438 l 244.598 145.641 240.684 147.145 236.918
 148.949 c 230.531 141.91 224.02 132.551 221.211 117.367 c 220.922 115.816
 220.586 114.223 220.215 112.625 c 219.27 108.59 215.234 106.086 211.203
 107.031 c 207.168 107.973 204.664 112.008 205.609 116.039 c 205.93 117.41
 206.215 118.777 206.461 120.102 c 209.648 137.32 216.902 148.672 223.844
 156.805 c 221.215 158.742 218.703 160.852 216.309 163.113 c 177.344 152.324
 l 170.949 150.5 164.559 152.875 161.441 158.23 c 158.34 163.562 159.438
 170.27 164.168 174.91 c 193.074 203.336 l 191.633 209.434 190.895 215.691
 190.895 222 c 190.895 228.309 191.633 234.566 193.074 240.664 c 164.254
 269.004 l 159.477 273.629 158.34 280.352 161.422 285.73 c 163.812 289.906
 168.211 292.285 173.059 292.285 c 174.426 292.285 175.828 292.098 177.23
 291.707 c 216.316 280.883 l 225.52 289.574 236.551 295.949 248.625 299.555
 c 258.758 338.68 l 260.379 345.133 265.629 349.477 271.828 349.496 c 271.871
 349.496 l 278.02 349.496 283.258 345.199 284.91 338.793 c 295.07 299.559
 l 307.148 295.949 318.18 289.578 327.383 280.883 c 366.352 291.676 l 367.789
 292.086 369.223 292.285 370.621 292.285 c 375.449 292.285 379.836 289.922
 382.254 285.766 c 385.355 280.434 384.254 273.727 379.523 269.086 c h
328.977 227.094 m 321.645 231.328 315.527 237.441 311.297 244.773 c 307.062
 252.105 304.824 260.461 304.824 268.93 c 304.824 272.098 306.812 274.902
 309.754 275.973 c 306.555 278.223 303.172 280.18 299.633 281.828 c 300.184
 278.742 298.75 275.609 296 274.023 c 288.668 269.789 280.316 267.551 271.848
 267.551 c 263.379 267.551 255.027 269.789 247.691 274.023 c 244.945 275.609
 243.512 278.738 244.059 281.82 c 240.523 280.18 237.141 278.223 233.945
 275.973 c 236.883 274.898 238.871 272.098 238.871 268.93 c 238.871 260.461
 236.633 252.109 232.398 244.777 c 228.164 237.441 222.051 231.328 214.715
 227.094 c 211.973 225.508 208.555 225.828 206.156 227.832 c 205.988 225.898
 205.891 223.953 205.891 222 c 205.891 220.043 205.988 218.098 206.16 216.16
 c 207.535 217.309 209.242 217.91 210.969 217.91 c 212.254 217.91 213.547
 217.582 214.715 216.906 c 222.051 212.672 228.164 206.555 232.398 199.223
 c 236.633 191.887 238.871 183.535 238.871 175.07 c 238.871 171.898 236.879
 169.098 233.941 168.023 c 237.137 165.773 240.523 163.816 244.059 162.172
 c 243.512 165.258 244.945 168.387 247.691 169.977 c 255.027 174.211 263.379
 176.445 271.848 176.445 c 280.316 176.445 288.668 174.211 296 169.977 c
 298.742 168.391 300.176 165.27 299.641 162.191 c 303.176 163.832 306.555
 165.785 309.746 168.027 c 306.812 169.102 304.824 171.902 304.824 175.07
 c 304.824 183.539 307.062 191.891 311.297 199.223 c 315.531 206.555 321.645
 212.672 328.98 216.906 c 330.148 217.582 331.441 217.91 332.727 217.91 
c 334.453 217.91 336.16 217.309 337.531 216.16 c 337.703 218.102 337.801
 220.047 337.801 222 c 337.801 223.953 337.707 225.895 337.535 227.832 c
 335.137 225.828 331.719 225.508 328.977 227.094 c h
336.957 195.73 m 336.949 195.738 336.941 195.75 336.934 195.754 c 331.887
 200.719 l 328.852 198.203 326.27 195.156 324.285 191.723 c 322.305 188.289
 320.957 184.531 320.293 180.645 c 327.219 178.727 l 327.238 178.719 327.258
 178.715 327.277 178.707 c 364.852 168.301 l h
271.848 114.605 m 281.656 152.477 l 281.656 152.488 281.66 152.5 281.664
 152.512 c 283.438 159.363 l 276.043 162.105 267.648 162.105 260.258 159.363
 c 262.031 152.508 l 262.035 152.488 262.039 152.469 262.047 152.449 c h
216.418 178.711 m 216.434 178.715 216.453 178.719 216.473 178.723 c 223.398
 180.645 l 222.738 184.531 221.391 188.289 219.406 191.723 c 217.426 195.156
 214.844 198.203 211.809 200.719 c 206.746 195.742 l 206.738 195.734 206.73
 195.73 206.727 195.723 c 178.84 168.301 l h
206.723 248.281 m 206.73 248.27 206.738 248.262 206.746 248.254 c 211.809
 243.277 l 214.844 245.793 217.426 248.84 219.406 252.273 c 221.391 255.711
 222.738 259.469 223.398 263.355 c 216.582 265.242 l 216.57 265.246 216.555
 265.25 216.543 265.254 c 178.84 275.699 l h
271.848 329.395 m 262.043 291.535 l 262.039 291.52 262.035 291.504 262.031
 291.488 c 260.258 284.633 l 267.648 281.891 276.043 281.891 283.438 284.633
 c 281.66 291.496 l 281.656 291.508 281.656 291.52 281.652 291.531 c h
327.16 265.254 m 327.141 265.25 327.125 265.246 327.109 265.242 c 320.297
 263.355 l 320.957 259.465 322.305 255.707 324.285 252.273 c 326.27 248.84
 328.852 245.793 331.887 243.277 c 336.945 248.254 l 336.953 248.262 336.965
 248.273 336.977 248.281 c 364.855 275.699 l h
327.16 265.254 m f
271.848 194.094 m 256.461 194.094 243.941 206.613 243.941 222 c 243.941
 237.387 256.461 249.902 271.848 249.902 c 287.234 249.902 299.75 237.387
 299.75 222 c 299.75 206.613 287.234 194.094 271.848 194.094 c h
271.848 234.902 m 264.73 234.902 258.941 229.113 258.941 222 c 258.941 
214.883 264.73 209.094 271.848 209.094 c 278.961 209.094 284.75 214.883 
284.75 222 c 284.75 229.113 278.961 234.902 271.848 234.902 c h
271.848 234.902 m f
170.715 67.359 m 171.855 67.977 173.082 68.27 174.289 68.27 c 176.949 68.27
 179.527 66.852 180.887 64.352 c 182.867 60.711 181.52 56.156 177.879 54.18
 c 162.441 45.789 145.07 43.363 127.41 47.078 c 123.379 41.41 117.559 37.352
 110.754 35.527 c 94.777 31.25 78.293 40.762 74.016 56.742 c 71.637 65.613
 73.52 74.637 78.395 81.648 c 67.879 80.922 57.953 87.715 55.125 98.27 c
 0.773 301.109 l -0.777 306.898 0.023 312.957 3.035 318.172 c 6.047 323.387
 10.895 327.113 16.68 328.664 c 45.66 336.43 l 47.586 336.945 49.543 337.199
 51.488 337.199 c 55.387 337.199 59.242 336.176 62.723 334.164 c 67.938 
331.156 71.664 326.309 73.215 320.52 c 127.566 117.68 l 129.117 111.891 
128.312 105.828 125.301 100.613 c 123.031 96.68 119.715 93.598 115.738 91.652
 c 116.5 91.293 117.254 90.914 117.988 90.488 c 124.93 86.48 129.895 80.012
 131.969 72.273 c 132.941 68.645 133.215 64.941 132.828 61.312 c 146.152
 59.02 159.148 61.07 170.715 67.359 c h
76.855 96.59 m 77.496 96.59 78.148 96.672 78.797 96.848 c 107.773 104.613
 l 109.695 105.125 111.305 106.371 112.312 108.113 c 113.32 109.859 113.59
 111.879 113.078 113.797 c 110.027 125.18 l 66.562 113.535 l 69.613 102.152
 l 70.508 98.805 73.547 96.59 76.855 96.59 c h
27.184 260.488 m 70.648 272.137 l 65.66 290.766 l 22.191 279.117 l h
31.066 246 m 36.059 227.375 l 79.523 239.02 l 74.531 257.648 l h
39.941 212.883 m 44.93 194.258 l 88.398 205.902 l 83.406 224.531 l h
48.812 179.77 m 53.805 161.141 l 97.27 172.785 l 92.281 191.414 l h
57.688 146.652 m 62.68 128.023 l 106.145 139.668 l 101.152 158.297 l h
55.223 321.176 m 53.48 322.184 51.461 322.457 49.543 321.941 c 20.562 314.176
 l 18.645 313.66 17.031 312.418 16.023 310.672 c 15.02 308.93 14.746 306.91
 15.262 304.992 c 18.309 293.605 l 61.777 305.254 l 58.727 316.637 l 58.211
 318.559 56.969 320.168 55.223 321.176 c h
117.48 68.391 m 116.441 72.258 113.961 75.496 110.492 77.496 c 107.02 79.5
 102.98 80.031 99.109 78.996 c 91.121 76.855 86.363 68.613 88.5 60.625 c
 90.297 53.93 96.371 49.508 102.992 49.508 c 104.273 49.508 105.578 49.672
 106.875 50.02 c 110.742 51.055 113.977 53.539 115.98 57.008 c 117.984 60.477
 118.516 64.52 117.48 68.391 c h
117.48 68.391 m f
199.293 90.949 m 203.434 90.949 206.793 87.59 206.793 83.449 c 206.793 
79.305 203.434 75.949 199.293 75.949 c 199.289 75.949 l 195.148 75.949 191.793
 79.305 191.793 83.449 c 191.793 87.59 195.152 90.949 199.293 90.949 c h
199.293 90.949 m f
Q Q
showpage
%%Trailer
end
%%EOF
