%!PS-Adobe-3.0 EPSF-3.0
%%Creator: cairo 1.16.0 (https://cairographics.org)
%%CreationDate: Wed Sep 30 14:01:36 2020
%%Pages: 1
%%DocumentData: Clean7Bit
%%LanguageLevel: 2
%%BoundingBox: 9 0 375 384
%%EndComments
%%BeginProlog
50 dict begin
/q { gsave } bind def
/Q { grestore } bind def
/cm { 6 array astore concat } bind def
/w { setlinewidth } bind def
/J { setlinecap } bind def
/j { setlinejoin } bind def
/M { setmiterlimit } bind def
/d { setdash } bind def
/m { moveto } bind def
/l { lineto } bind def
/c { curveto } bind def
/h { closepath } bind def
/re { exch dup neg 3 1 roll 5 3 roll moveto 0 rlineto
      0 exch rlineto 0 rlineto closepath } bind def
/S { stroke } bind def
/f { fill } bind def
/f* { eofill } bind def
/n { newpath } bind def
/W { clip } bind def
/W* { eoclip } bind def
/BT { } bind def
/ET { } bind def
/BDC { mark 3 1 roll /BDC pdfmark } bind def
/EMC { mark /EMC pdfmark } bind def
/cairo_store_point { /cairo_point_y exch def /cairo_point_x exch def } def
/Tj { show currentpoint cairo_store_point } bind def
/TJ {
  {
    dup
    type /stringtype eq
    { show } { -0.001 mul 0 cairo_font_matrix dtransform rmoveto } ifelse
  } forall
  currentpoint cairo_store_point
} bind def
/cairo_selectfont { cairo_font_matrix aload pop pop pop 0 0 6 array astore
    cairo_font exch selectfont cairo_point_x cairo_point_y moveto } bind def
/Tf { pop /cairo_font exch def /cairo_font_matrix where
      { pop cairo_selectfont } if } bind def
/Td { matrix translate cairo_font_matrix matrix concatmatrix dup
      /cairo_font_matrix exch def dup 4 get exch 5 get cairo_store_point
      /cairo_font where { pop cairo_selectfont } if } bind def
/Tm { 2 copy 8 2 roll 6 array astore /cairo_font_matrix exch def
      cairo_store_point /cairo_font where { pop cairo_selectfont } if } bind def
/g { setgray } bind def
/rg { setrgbcolor } bind def
/d1 { setcachedevice } bind def
/cairo_data_source {
  CairoDataIndex CairoData length lt
    { CairoData CairoDataIndex get /CairoDataIndex CairoDataIndex 1 add def }
    { () } ifelse
} def
/cairo_flush_ascii85_file { cairo_ascii85_file status { cairo_ascii85_file flushfile } if } def
/cairo_image { image cairo_flush_ascii85_file } def
/cairo_imagemask { imagemask cairo_flush_ascii85_file } def
%%EndProlog
%%BeginSetup
%%EndSetup
%%Page: 1 1
%%BeginPageSetup
%%PageBoundingBox: 9 0 375 384
%%EndPageSetup
q 9 0 366 384 rectclip
1 0 0 -1 0 384 cm q
0 g
373.641 69.375 m 371.004 45.191 359.008 23.977 351.074 9.934 c 349.848 
7.766 348.688 5.719 347.723 3.934 c 346.262 1.227 343.289 -0.312 340.234
 0.055 c 337.18 0.418 334.656 2.613 333.875 5.59 c 328.68 25.328 315.465
 31.676 300.164 39.031 c 279.91 48.762 257.039 59.754 261.742 104.301 c 
257.82 107.277 254.477 110.68 251.777 114.137 c 247.051 113.266 241.992 
114.648 238.344 118.293 c 190.41 166.227 l 170.488 160.082 148.777 165.316
 133.891 180.199 c 14.227 299.863 l 8.371 305.723 8.371 315.25 14.227 321.105
 c 72.73 379.609 l 75.562 382.441 79.336 384 83.352 384 c 87.371 384 91.145
 382.441 93.973 379.609 c 213.637 259.945 l 228.523 245.059 233.754 223.348
 227.609 203.426 c 275.543 155.492 l 277.43 153.609 278.703 151.344 279.379
 148.945 c 289.188 152.617 301.668 161.004 311.926 171.262 c 313.34 172.676
 315.25 173.457 317.23 173.457 c 317.488 173.457 317.746 173.445 318.004
 173.418 c 320.254 173.184 322.273 171.949 323.512 170.059 c 339.375 145.75
 l 365.312 124.445 376.848 98.758 373.641 69.375 c h
306.66 52.551 m 319.309 46.473 333.27 39.762 342.137 24.695 c 356.715 51.371
 375.09 93.789 333.461 131.07 c 326.73 125.941 l 328.422 123.723 l 351.559
 106.41 350.477 79.77 341.605 60.418 c 340.414 57.82 337.855 56.129 335 
56.047 c 332.16 55.977 329.492 57.512 328.156 60.035 c 324.676 66.609 318.746
 69.582 312.465 72.727 c 304.742 76.598 294.66 81.664 292.652 94.734 c 289.465
 94.496 286.543 94.629 283.961 94.965 c 281.25 95.32 278.652 95.918 276.176
 96.711 c 274.773 67.875 288.426 61.312 306.66 52.551 c h
307.305 98.336 m 307.676 91.906 311.535 89.973 319.188 86.137 c 323.145
 84.152 327.629 81.906 331.812 78.566 c 333.535 87.617 332.875 99.016 323.332
 108.398 c 317.773 103.688 312.379 100.469 307.305 98.336 c h
83.336 369.004 m 24.836 310.5 l 19.531 315.805 l 24.836 310.469 l 58.148
 277.156 l 116.672 335.676 l h
264.938 144.887 m 213.652 196.172 l 211.516 198.305 210.871 201.516 212.012
 204.309 c 218.359 219.859 214.836 237.535 203.031 249.34 c 190.93 261.438
 l 185.527 256.039 l 182.598 253.109 177.852 253.109 174.922 256.039 c 171.992
 258.965 171.992 263.715 174.922 266.645 c 180.32 272.043 l 127.281 325.07
 l 68.758 266.547 l 121.793 213.516 l 127.191 218.914 l 128.656 220.379 
130.574 221.109 132.496 221.109 c 134.414 221.109 136.336 220.379 137.797
 218.914 c 140.727 215.984 140.727 211.234 137.797 208.309 c 132.398 202.906
 l 144.5 190.805 l 156.305 179 173.98 175.477 189.527 181.824 c 192.324 
182.965 195.531 182.32 197.668 180.184 c 248.953 128.898 l 248.977 128.875
 249.062 128.875 249.09 128.898 c 264.938 144.746 l 264.965 144.773 264.965
 144.859 264.938 144.887 c h
315.812 154.41 m 303.062 143.371 286.887 133.586 273.539 132.137 c 264.121
 122.719 l 268.934 116.84 276.531 111.066 285.902 109.84 c 294.887 108.664
 303.969 111.832 312.961 119.262 c 306.879 127.242 l 304.367 130.535 305
 135.242 308.297 137.754 c 309.652 138.789 311.25 139.289 312.836 139.289
 c 314.477 139.289 316.098 138.746 317.434 137.711 c 323.625 142.434 l h
315.812 154.41 m f
156.363 229.977 m 156.355 229.977 l 152.215 229.977 148.859 233.336 148.859
 237.477 c 148.859 241.621 152.219 244.977 156.363 244.977 c 160.504 244.977
 163.863 241.621 163.863 237.477 c 163.863 233.336 160.504 229.977 156.363
 229.977 c h
156.363 229.977 m f
Q Q
showpage
%%Trailer
end
%%EOF
