%!PS-Adobe-3.0 EPSF-3.0
%%Creator: cairo 1.16.0 (https://cairographics.org)
%%CreationDate: Wed Sep 30 14:01:37 2020
%%Pages: 1
%%DocumentData: Clean7Bit
%%LanguageLevel: 2
%%BoundingBox: 51 0 333 384
%%EndComments
%%BeginProlog
50 dict begin
/q { gsave } bind def
/Q { grestore } bind def
/cm { 6 array astore concat } bind def
/w { setlinewidth } bind def
/J { setlinecap } bind def
/j { setlinejoin } bind def
/M { setmiterlimit } bind def
/d { setdash } bind def
/m { moveto } bind def
/l { lineto } bind def
/c { curveto } bind def
/h { closepath } bind def
/re { exch dup neg 3 1 roll 5 3 roll moveto 0 rlineto
      0 exch rlineto 0 rlineto closepath } bind def
/S { stroke } bind def
/f { fill } bind def
/f* { eofill } bind def
/n { newpath } bind def
/W { clip } bind def
/W* { eoclip } bind def
/BT { } bind def
/ET { } bind def
/BDC { mark 3 1 roll /BDC pdfmark } bind def
/EMC { mark /EMC pdfmark } bind def
/cairo_store_point { /cairo_point_y exch def /cairo_point_x exch def } def
/Tj { show currentpoint cairo_store_point } bind def
/TJ {
  {
    dup
    type /stringtype eq
    { show } { -0.001 mul 0 cairo_font_matrix dtransform rmoveto } ifelse
  } forall
  currentpoint cairo_store_point
} bind def
/cairo_selectfont { cairo_font_matrix aload pop pop pop 0 0 6 array astore
    cairo_font exch selectfont cairo_point_x cairo_point_y moveto } bind def
/Tf { pop /cairo_font exch def /cairo_font_matrix where
      { pop cairo_selectfont } if } bind def
/Td { matrix translate cairo_font_matrix matrix concatmatrix dup
      /cairo_font_matrix exch def dup 4 get exch 5 get cairo_store_point
      /cairo_font where { pop cairo_selectfont } if } bind def
/Tm { 2 copy 8 2 roll 6 array astore /cairo_font_matrix exch def
      cairo_store_point /cairo_font where { pop cairo_selectfont } if } bind def
/g { setgray } bind def
/rg { setrgbcolor } bind def
/d1 { setcachedevice } bind def
/cairo_data_source {
  CairoDataIndex CairoData length lt
    { CairoData CairoDataIndex get /CairoDataIndex CairoDataIndex 1 add def }
    { () } ifelse
} def
/cairo_flush_ascii85_file { cairo_ascii85_file status { cairo_ascii85_file flushfile } if } def
/cairo_image { image cairo_flush_ascii85_file } def
/cairo_imagemask { imagemask cairo_flush_ascii85_file } def
%%EndProlog
%%BeginSetup
%%EndSetup
%%Page: 1 1
%%BeginPageSetup
%%PageBoundingBox: 51 0 333 384
%%EndPageSetup
q 51 0 282 384 rectclip
1 0 0 -1 0 384 cm q
0 g
332.602 25.535 m 332.602 21.531 331.051 17.77 328.227 14.949 c 317.656 
4.379 l 311.82 -1.457 302.32 -1.461 296.48 4.379 c 285.855 15.004 l 281.621
 10.77 l 278.691 7.84 273.945 7.84 271.016 10.77 c 268.086 13.699 268.086
 18.449 271.016 21.375 c 275.25 25.609 l 243.715 57.141 l 240.789 60.07 
240.789 64.82 243.715 67.75 c 246.645 70.68 251.395 70.68 254.324 67.75 
c 307.051 14.984 l 317.621 25.516 l 169.668 173.469 l 159.137 162.934 l 
206.594 115.48 l 209.523 112.551 209.523 107.801 206.594 104.871 c 203.664
 101.945 198.918 101.945 195.988 104.871 c 79.812 221.047 l 79.809 221.047
 79.809 221.051 79.809 221.051 c 78.402 222.453 76.52 223.227 74.508 223.227
 c 72.492 223.227 70.609 222.453 69.203 221.047 c 67.801 219.641 67.027 
217.758 67.027 215.742 c 67.027 213.73 67.801 211.844 69.203 210.441 c 72.133
 207.512 72.133 202.762 69.203 199.832 c 66.277 196.906 61.527 196.906 58.598
 199.832 c 54.359 204.07 52.027 209.723 52.027 215.742 c 52.027 221.766 
54.359 227.414 58.598 231.652 c 60.992 234.051 63.844 235.836 66.953 236.938
 c 42.566 274.578 46.848 325.52 79.812 358.484 c 100.949 379.621 l 103.867
 382.539 107.703 384 111.535 384 c 115.371 384 119.207 382.539 122.125 379.621
 c 153.832 347.91 l 159.672 342.074 159.672 332.574 153.832 326.734 c 132.695
 305.598 l 125.68 298.582 121.812 289.203 121.812 279.195 c 121.812 271.754
 123.953 264.664 127.934 258.633 c 136.996 267.699 l 143.387 274.09 151.781
 277.285 160.18 277.285 c 168.57 277.285 176.969 274.086 183.359 267.699
 c 208.219 242.84 l 216.973 234.086 216.973 219.848 208.219 211.094 c 201.875
 204.75 l 310.887 95.738 l 319.637 86.988 319.637 72.746 310.887 63.992 
c 305.617 58.727 l 328.223 36.121 l 331.047 33.301 332.602 29.543 332.602
 25.535 c h
254.07 131.344 m 243.539 120.812 l 254.07 110.277 l 264.602 120.812 l h
232.934 152.48 m 222.398 141.949 l 232.93 131.418 l 243.465 141.949 l h
211.793 173.621 m 201.262 163.09 l 211.793 152.555 l 222.324 163.09 l h
185.965 199.449 m 184.668 200.746 183.004 201.461 181.301 201.598 c 182.281
 199.203 182.742 196.754 182.672 194.266 c 182.582 191.016 181.578 187.805
 179.68 184.668 c 190.652 173.695 l 201.184 184.227 l h
127.395 236.883 m 106.293 215.781 l 148.531 173.543 l 164.367 189.379 l
 166.469 191.477 167.645 193.363 167.68 194.684 c 167.727 196.305 165.914
 198.363 164.828 199.449 c h
122.09 316.207 m 143.23 337.305 l 111.559 369.016 l 90.418 347.879 l 58.375
 315.836 58.375 263.695 90.418 231.652 c 95.688 226.387 l 117.172 247.871
 l 110.453 256.844 106.816 267.727 106.816 279.195 c 106.816 293.211 112.242
 306.355 122.09 316.207 c h
197.613 232.234 m 172.754 257.09 l 165.82 264.027 154.539 264.027 147.605
 257.09 c 138 247.488 l 148.719 236.773 l 154.695 241.191 161.766 244.082
 169.168 245.051 c 169.496 245.094 169.824 245.117 170.152 245.117 c 173.859
 245.117 177.082 242.363 177.578 238.59 c 178.117 234.48 175.223 230.715
 171.117 230.18 c 166.988 229.637 163.016 228.188 159.5 225.988 c 171.047
 214.441 l 174.09 215.891 177.395 216.617 180.699 216.617 c 184.004 216.617
 187.309 215.891 190.355 214.441 c 197.613 221.703 l 200.52 224.605 200.52
 229.328 197.613 232.234 c h
300.281 74.602 m 303.184 77.508 303.184 82.23 300.281 85.133 c 275.211 
110.203 l 264.676 99.672 l 295.012 69.336 l h
300.281 74.602 m f
225.152 93.812 m 227.191 93.812 229.223 92.984 230.703 91.359 c 230.707
 91.355 l 233.492 88.289 233.266 83.547 230.199 80.762 c 227.137 77.977 
222.391 78.203 219.605 81.27 c 216.816 84.332 217.043 89.074 220.109 91.863
 c 221.547 93.168 223.352 93.812 225.152 93.812 c h
225.152 93.812 m f
Q Q
showpage
%%Trailer
end
%%EOF
