%!PS-Adobe-3.0 EPSF-3.0
%%Creator: cairo 1.16.0 (https://cairographics.org)
%%CreationDate: Wed Sep 30 14:01:39 2020
%%Pages: 1
%%DocumentData: Clean7Bit
%%LanguageLevel: 2
%%BoundingBox: 0 0 384 384
%%EndComments
%%BeginProlog
50 dict begin
/q { gsave } bind def
/Q { grestore } bind def
/cm { 6 array astore concat } bind def
/w { setlinewidth } bind def
/J { setlinecap } bind def
/j { setlinejoin } bind def
/M { setmiterlimit } bind def
/d { setdash } bind def
/m { moveto } bind def
/l { lineto } bind def
/c { curveto } bind def
/h { closepath } bind def
/re { exch dup neg 3 1 roll 5 3 roll moveto 0 rlineto
      0 exch rlineto 0 rlineto closepath } bind def
/S { stroke } bind def
/f { fill } bind def
/f* { eofill } bind def
/n { newpath } bind def
/W { clip } bind def
/W* { eoclip } bind def
/BT { } bind def
/ET { } bind def
/BDC { mark 3 1 roll /BDC pdfmark } bind def
/EMC { mark /EMC pdfmark } bind def
/cairo_store_point { /cairo_point_y exch def /cairo_point_x exch def } def
/Tj { show currentpoint cairo_store_point } bind def
/TJ {
  {
    dup
    type /stringtype eq
    { show } { -0.001 mul 0 cairo_font_matrix dtransform rmoveto } ifelse
  } forall
  currentpoint cairo_store_point
} bind def
/cairo_selectfont { cairo_font_matrix aload pop pop pop 0 0 6 array astore
    cairo_font exch selectfont cairo_point_x cairo_point_y moveto } bind def
/Tf { pop /cairo_font exch def /cairo_font_matrix where
      { pop cairo_selectfont } if } bind def
/Td { matrix translate cairo_font_matrix matrix concatmatrix dup
      /cairo_font_matrix exch def dup 4 get exch 5 get cairo_store_point
      /cairo_font where { pop cairo_selectfont } if } bind def
/Tm { 2 copy 8 2 roll 6 array astore /cairo_font_matrix exch def
      cairo_store_point /cairo_font where { pop cairo_selectfont } if } bind def
/g { setgray } bind def
/rg { setrgbcolor } bind def
/d1 { setcachedevice } bind def
/cairo_data_source {
  CairoDataIndex CairoData length lt
    { CairoData CairoDataIndex get /CairoDataIndex CairoDataIndex 1 add def }
    { () } ifelse
} def
/cairo_flush_ascii85_file { cairo_ascii85_file status { cairo_ascii85_file flushfile } if } def
/cairo_image { image cairo_flush_ascii85_file } def
/cairo_imagemask { imagemask cairo_flush_ascii85_file } def
%%EndProlog
%%BeginSetup
%%EndSetup
%%Page: 1 1
%%BeginPageSetup
%%PageBoundingBox: 0 0 384 384
%%EndPageSetup
q 0 0 384 384 rectclip
1 0 0 -1 0 384 cm q
0 g
376.5 0 m 287.711 0 212.637 75.785 157.82 131.121 c 153.832 135.148 149.957
 139.062 146.195 142.82 c 144.602 144.418 143.809 146.648 144.039 148.895
 c 147.508 182.418 l 50.887 279.039 l 37.469 279.441 24.91 284.844 15.375
 294.375 c 5.461 304.293 0 317.477 0 331.5 c 0 345.523 5.461 358.707 15.375
 368.625 c 25.293 378.539 38.477 384 52.5 384 c 66.523 384 79.707 378.539
 89.625 368.625 c 99.156 359.09 104.559 346.531 104.961 333.113 c 201.582
 236.492 l 235.105 239.961 l 237.352 240.191 239.582 239.398 241.18 237.805
 c 244.938 234.043 248.852 230.168 252.879 226.176 c 308.215 171.359 384
 96.289 384 7.5 c 384 3.359 380.641 0 376.5 0 c h
206.305 177.695 m 224.395 223.77 l 202.223 221.477 l 162.523 181.777 l 
160.23 159.605 l h
155.336 195.805 m 188.195 228.664 l 166.98 249.879 l 134.121 217.02 l h
135.16 281.699 m 102.301 248.84 l 123.516 227.625 l 156.375 260.484 l h
89.625 294.379 m 83.828 288.582 76.914 284.32 69.371 281.77 c 91.695 259.445
 l 124.555 292.305 l 102.23 314.629 l 99.68 307.086 95.418 300.172 89.625
 294.379 c h
79.016 358.016 m 64.395 372.637 40.605 372.637 25.984 358.016 c 11.363 
343.395 11.363 319.605 25.984 304.984 c 33.066 297.902 42.484 294 52.5 294
 c 62.516 294 71.934 297.898 79.016 304.984 c 93.637 319.605 93.637 343.395
 79.016 358.016 c h
242.324 215.52 m 241.098 216.734 239.891 217.93 238.684 219.125 c 220.867
 173.738 l 309.777 84.828 l 312.707 81.902 312.707 77.152 309.777 74.223
 c 306.848 71.293 302.098 71.293 299.168 74.223 c 210.262 163.133 l 164.871
 145.316 l 166.066 144.113 167.262 142.906 168.477 141.68 c 219.781 89.887
 289.445 19.559 368.789 15.211 c 364.441 94.551 294.113 164.219 242.324 
215.52 c h
242.324 215.52 m f
52.5 309 m 46.488 309 40.84 311.34 36.59 315.59 c 32.34 319.84 30 325.492
 30 331.5 c 30 337.512 32.34 343.16 36.59 347.41 c 40.84 351.66 46.488 354
 52.5 354 c 58.508 354 64.16 351.66 68.41 347.41 c 72.66 343.16 75 337.512
 75 331.5 c 75 325.488 72.66 319.84 68.41 315.59 c 64.16 311.34 58.508 309
 52.5 309 c h
57.805 336.805 m 56.387 338.219 54.504 339 52.5 339 c 50.496 339 48.613
 338.219 47.195 336.805 c 45.781 335.387 45 333.504 45 331.5 c 45 329.496
 45.781 327.613 47.195 326.195 c 48.613 324.781 50.496 324 52.5 324 c 54.504
 324 56.387 324.781 57.805 326.195 c 59.219 327.613 60 329.496 60 331.5 
c 60 333.504 59.219 335.387 57.805 336.805 c h
57.805 336.805 m f
328.344 63.164 m 332.484 63.164 335.844 59.805 335.844 55.664 c 335.844
 51.52 332.484 48.164 328.344 48.164 c 328.336 48.164 l 324.195 48.164 320.84
 51.52 320.84 55.664 c 320.84 59.805 324.199 63.164 328.344 63.164 c h
328.344 63.164 m f
Q Q
showpage
%%Trailer
end
%%EOF
