%!PS-Adobe-3.0 EPSF-3.0
%%Creator: cairo 1.16.0 (https://cairographics.org)
%%CreationDate: Wed Sep 30 14:01:45 2020
%%Pages: 1
%%DocumentData: Clean7Bit
%%LanguageLevel: 2
%%BoundingBox: 0 0 384 384
%%EndComments
%%BeginProlog
50 dict begin
/q { gsave } bind def
/Q { grestore } bind def
/cm { 6 array astore concat } bind def
/w { setlinewidth } bind def
/J { setlinecap } bind def
/j { setlinejoin } bind def
/M { setmiterlimit } bind def
/d { setdash } bind def
/m { moveto } bind def
/l { lineto } bind def
/c { curveto } bind def
/h { closepath } bind def
/re { exch dup neg 3 1 roll 5 3 roll moveto 0 rlineto
      0 exch rlineto 0 rlineto closepath } bind def
/S { stroke } bind def
/f { fill } bind def
/f* { eofill } bind def
/n { newpath } bind def
/W { clip } bind def
/W* { eoclip } bind def
/BT { } bind def
/ET { } bind def
/BDC { mark 3 1 roll /BDC pdfmark } bind def
/EMC { mark /EMC pdfmark } bind def
/cairo_store_point { /cairo_point_y exch def /cairo_point_x exch def } def
/Tj { show currentpoint cairo_store_point } bind def
/TJ {
  {
    dup
    type /stringtype eq
    { show } { -0.001 mul 0 cairo_font_matrix dtransform rmoveto } ifelse
  } forall
  currentpoint cairo_store_point
} bind def
/cairo_selectfont { cairo_font_matrix aload pop pop pop 0 0 6 array astore
    cairo_font exch selectfont cairo_point_x cairo_point_y moveto } bind def
/Tf { pop /cairo_font exch def /cairo_font_matrix where
      { pop cairo_selectfont } if } bind def
/Td { matrix translate cairo_font_matrix matrix concatmatrix dup
      /cairo_font_matrix exch def dup 4 get exch 5 get cairo_store_point
      /cairo_font where { pop cairo_selectfont } if } bind def
/Tm { 2 copy 8 2 roll 6 array astore /cairo_font_matrix exch def
      cairo_store_point /cairo_font where { pop cairo_selectfont } if } bind def
/g { setgray } bind def
/rg { setrgbcolor } bind def
/d1 { setcachedevice } bind def
/cairo_data_source {
  CairoDataIndex CairoData length lt
    { CairoData CairoDataIndex get /CairoDataIndex CairoDataIndex 1 add def }
    { () } ifelse
} def
/cairo_flush_ascii85_file { cairo_ascii85_file status { cairo_ascii85_file flushfile } if } def
/cairo_image { image cairo_flush_ascii85_file } def
/cairo_imagemask { imagemask cairo_flush_ascii85_file } def
%%EndProlog
%%BeginSetup
%%EndSetup
%%Page: 1 1
%%BeginPageSetup
%%PageBoundingBox: 0 0 384 384
%%EndPageSetup
q 0 0 384 384 rectclip
1 0 0 -1 0 384 cm q
0 g
383.965 109.871 m 383.391 101.266 375.906 94.73 367.32 95.305 c 356.875
 95.992 346.176 94.41 336.391 90.73 c 335.586 90.43 334.789 90.105 333.996
 89.777 c 338.285 85.488 l 343.582 80.191 346.5 73.129 346.5 65.598 c 346.5
 58.07 343.582 51.008 338.285 45.711 c 327.32 34.746 309.48 34.746 298.512
 45.711 c 294.223 50.004 l 293.895 49.211 293.57 48.414 293.27 47.609 c 
289.598 37.836 288.016 27.156 288.691 16.766 c 288.742 16.047 288.746 15.32
 288.699 14.602 c 288.121 5.996 280.66 -0.539 272.055 0.031 c 259.344 0.871
 247.055 3.945 235.531 9.172 c 223.984 14.402 213.578 21.613 204.598 30.59
 c 195.617 39.574 188.41 49.98 183.176 61.527 c 177.973 73 174.902 85.227
 174.051 97.875 c 173.992 98.621 173.988 99.375 174.039 100.125 c 174.613
 108.73 182.078 115.262 190.684 114.695 c 201.137 114.008 211.828 115.586
 221.613 119.266 c 222.422 119.57 223.215 119.891 224.008 120.219 c 119.273
 224.953 l 117.949 223.625 l 113.711 219.387 108.059 217.055 102.039 217.055
 c 96.02 217.055 90.367 219.387 86.129 223.625 c 81.895 227.863 79.559 233.516
 79.559 239.535 c 79.559 243.133 80.398 246.598 81.973 249.711 c 31.672 
309.156 l 23.402 305.473 13.352 307.012 6.578 313.781 c -2.191 322.555 -2.191
 336.828 6.578 345.602 c 38.398 377.422 l 42.785 381.809 48.547 384 54.309
 384 c 60.07 384 65.832 381.809 70.219 377.422 c 76.992 370.648 78.527 360.598
 74.844 352.328 c 134.293 302.027 l 137.48 303.637 140.969 304.449 144.465
 304.449 c 150.227 304.449 155.988 302.258 160.375 297.871 c 164.613 293.633
 166.945 287.984 166.945 281.961 c 166.945 275.941 164.613 270.289 160.375
 266.051 c 159.047 264.727 l 263.781 159.992 l 264.109 160.785 264.434 161.582
 264.734 162.387 c 268.41 172.156 269.988 182.84 269.312 193.23 c 269.262
 193.953 269.262 194.684 269.309 195.395 c 269.586 199.562 271.469 203.375
 274.617 206.125 c 277.492 208.645 281.109 209.996 284.891 209.996 c 285.242
 209.996 285.598 209.984 285.949 209.961 c 298.66 209.125 310.949 206.051
 322.477 200.824 c 334.02 195.59 344.43 188.383 353.406 179.402 c 362.387
 170.426 369.594 160.016 374.828 148.473 c 380.031 137 383.102 124.77 383.953
 112.121 c 384.012 111.375 384.016 110.617 383.965 109.871 c h
309.121 56.32 m 314.238 51.203 322.562 51.203 327.68 56.32 c 330.145 58.781
 331.5 62.078 331.5 65.602 c 331.5 69.121 330.145 72.418 327.68 74.879 c
 320.297 82.266 l 316.723 79.77 313.348 76.949 310.199 73.801 c 307.055 
70.652 304.23 67.281 301.738 63.703 c h
219.402 102.789 m 219.578 98.012 220.324 93.273 221.629 88.664 c 222.762
 84.676 220.445 80.531 216.461 79.402 c 212.477 78.273 208.328 80.586 207.199
 84.57 c 205.766 89.621 204.887 94.789 204.539 100.004 c 201.52 99.699 198.488
 99.539 195.457 99.539 c 193.535 99.539 191.609 99.602 189.691 99.727 c 
189.344 99.746 189.031 99.48 189.008 99.129 c 189.004 99.09 189.004 99.055
 189.008 99.02 c 189.008 98.988 189.012 98.953 189.016 98.918 c 189.742 
88.059 192.375 77.562 196.836 67.719 c 201.324 57.82 207.504 48.898 215.203
 41.199 c 222.906 33.496 231.828 27.316 241.723 22.832 c 251.598 18.355 
262.137 15.719 273.043 15 c 273.406 14.98 273.707 15.246 273.73 15.598 c
 273.734 15.633 273.734 15.668 273.727 15.746 c 273.406 20.66 273.512 25.617
 274.012 30.535 c 268.793 30.883 263.625 31.766 258.57 33.195 c 254.586 
34.328 252.273 38.473 253.402 42.457 c 254.336 45.758 257.344 47.914 260.613
 47.914 c 261.289 47.914 261.98 47.82 262.664 47.629 c 267.281 46.316 272.02
 45.574 276.801 45.398 c 277.504 47.934 278.309 50.438 279.23 52.891 c 283.688
 64.75 290.539 75.355 299.594 84.406 c 308.648 93.461 319.25 100.312 331.113
 104.77 c 333.562 105.691 336.059 106.496 338.59 107.195 c 338.062 122.301
 331.977 136.371 321.176 147.172 c 310.543 157.805 296.16 164.004 281.199
 164.578 c 280.5 162.051 279.695 159.555 278.773 157.105 c 274.316 145.246
 267.465 134.641 258.41 125.59 c 249.355 116.535 238.754 109.684 226.891
 105.227 c 224.441 104.305 221.938 103.492 219.402 102.789 c h
111.301 301.832 m 82.172 272.699 l 91.895 261.211 l 122.793 292.105 l h
88.32 321.277 m 62.727 295.68 l 72.449 284.191 l 99.809 311.555 l h
43.277 318.664 m 53.004 307.172 l 76.828 331 l 65.34 340.723 l h
59.613 366.812 m 58.207 368.219 56.324 368.992 54.309 368.992 c 52.293 
368.992 50.41 368.219 49.004 366.812 c 17.188 334.996 l 14.262 332.07 14.262
 327.312 17.188 324.387 c 18.59 322.984 20.473 322.211 22.488 322.211 c 
24.504 322.211 26.387 322.984 27.793 324.387 c 59.609 356.207 l 61.016 357.613
 61.789 359.496 61.789 361.512 c 61.789 363.527 61.016 365.41 59.613 366.812
 c h
149.77 287.266 m 146.844 290.188 142.086 290.188 139.164 287.266 c 96.738
 244.84 l 93.812 241.914 93.812 237.156 96.738 234.23 c 98.141 232.828 100.023
 232.055 102.039 232.055 c 104.055 232.055 105.938 232.828 107.344 234.23
 c 149.77 276.656 l 151.172 278.062 151.945 279.945 151.945 281.961 c 151.945
 283.977 151.172 285.859 149.77 287.266 c h
148.441 254.117 m 129.883 235.559 l 237.707 127.73 l 241.285 130.227 244.656
 133.047 247.805 136.195 c 250.953 139.344 253.773 142.719 256.27 146.293
 c h
368.996 110.977 m 368.996 111.012 368.992 111.043 368.988 111.074 c 368.262
 121.938 365.629 132.434 361.168 142.277 c 356.68 152.176 350.5 161.098 
342.801 168.797 c 335.102 176.496 326.18 182.676 316.281 187.164 c 306.406
 191.641 295.867 194.277 284.961 194.992 c 284.781 195 284.625 194.953 284.492
 194.836 c 284.359 194.719 284.285 194.57 284.273 194.391 c 284.273 194.363
 284.273 194.328 284.277 194.25 c 284.598 189.336 284.496 184.383 283.996
 179.465 c 301.902 178.246 319.008 170.551 331.781 157.777 c 344.559 145
 352.246 127.902 353.465 109.988 c 358.406 110.492 363.379 110.594 368.312
 110.27 c 368.66 110.25 368.973 110.516 369 110.867 c 369 110.902 369 110.938
 368.996 110.977 c h
368.996 110.977 m f
239.023 57.52 m 239.023 53.379 235.668 50.02 231.523 50.02 c 231.52 50.02
 l 227.379 50.02 224.023 53.379 224.023 57.52 c 224.023 61.66 227.383 65.02
 231.523 65.02 c 235.668 65.02 239.023 61.66 239.023 57.52 c h
239.023 57.52 m f
Q Q
showpage
%%Trailer
end
%%EOF
