%!PS-Adobe-3.0 EPSF-3.0
%%Creator: cairo 1.16.0 (https://cairographics.org)
%%CreationDate: Wed Sep 30 14:01:49 2020
%%Pages: 1
%%DocumentData: Clean7Bit
%%LanguageLevel: 2
%%BoundingBox: 0 0 384 384
%%EndComments
%%BeginProlog
50 dict begin
/q { gsave } bind def
/Q { grestore } bind def
/cm { 6 array astore concat } bind def
/w { setlinewidth } bind def
/J { setlinecap } bind def
/j { setlinejoin } bind def
/M { setmiterlimit } bind def
/d { setdash } bind def
/m { moveto } bind def
/l { lineto } bind def
/c { curveto } bind def
/h { closepath } bind def
/re { exch dup neg 3 1 roll 5 3 roll moveto 0 rlineto
      0 exch rlineto 0 rlineto closepath } bind def
/S { stroke } bind def
/f { fill } bind def
/f* { eofill } bind def
/n { newpath } bind def
/W { clip } bind def
/W* { eoclip } bind def
/BT { } bind def
/ET { } bind def
/BDC { mark 3 1 roll /BDC pdfmark } bind def
/EMC { mark /EMC pdfmark } bind def
/cairo_store_point { /cairo_point_y exch def /cairo_point_x exch def } def
/Tj { show currentpoint cairo_store_point } bind def
/TJ {
  {
    dup
    type /stringtype eq
    { show } { -0.001 mul 0 cairo_font_matrix dtransform rmoveto } ifelse
  } forall
  currentpoint cairo_store_point
} bind def
/cairo_selectfont { cairo_font_matrix aload pop pop pop 0 0 6 array astore
    cairo_font exch selectfont cairo_point_x cairo_point_y moveto } bind def
/Tf { pop /cairo_font exch def /cairo_font_matrix where
      { pop cairo_selectfont } if } bind def
/Td { matrix translate cairo_font_matrix matrix concatmatrix dup
      /cairo_font_matrix exch def dup 4 get exch 5 get cairo_store_point
      /cairo_font where { pop cairo_selectfont } if } bind def
/Tm { 2 copy 8 2 roll 6 array astore /cairo_font_matrix exch def
      cairo_store_point /cairo_font where { pop cairo_selectfont } if } bind def
/g { setgray } bind def
/rg { setrgbcolor } bind def
/d1 { setcachedevice } bind def
/cairo_data_source {
  CairoDataIndex CairoData length lt
    { CairoData CairoDataIndex get /CairoDataIndex CairoDataIndex 1 add def }
    { () } ifelse
} def
/cairo_flush_ascii85_file { cairo_ascii85_file status { cairo_ascii85_file flushfile } if } def
/cairo_image { image cairo_flush_ascii85_file } def
/cairo_imagemask { imagemask cairo_flush_ascii85_file } def
%%EndProlog
%%BeginSetup
%%EndSetup
%%Page: 1 1
%%BeginPageSetup
%%PageBoundingBox: 0 0 384 384
%%EndPageSetup
q 0 0 384 384 rectclip
1 0 0 -1 0 384 cm q
0 g
362.023 3.102 m 360.508 1.012 358.023 -0.152 355.449 0.023 c 352.875 0.195
 350.566 1.68 349.34 3.953 c 349.082 4.438 322.75 52.332 282.914 45.801 
c 280.383 45.387 277.809 46.297 276.102 48.215 c 118.934 224.609 l 117.945
 223.621 l 113.707 219.387 108.059 217.051 102.035 217.051 c 96.016 217.051
 90.367 219.387 86.129 223.625 c 81.891 227.863 79.555 233.512 79.555 239.531
 c 79.555 243.133 80.395 246.598 81.973 249.707 c 31.672 309.152 l 23.402
 305.465 13.352 307.004 6.578 313.777 c -2.195 322.551 -2.195 336.824 6.578
 345.598 c 38.398 377.414 l 42.785 381.801 48.547 383.992 54.309 383.992
 c 60.07 383.992 65.832 381.801 70.219 377.414 c 76.988 370.641 78.527 360.59
 74.844 352.324 c 134.289 302.02 l 137.477 303.633 140.969 304.445 144.461
 304.445 c 150.223 304.445 155.984 302.254 160.371 297.867 c 164.609 293.629
 166.945 287.98 166.945 281.957 c 166.945 275.938 164.609 270.285 160.371
 266.047 c 158.242 263.922 l 331.488 153.27 l 331.516 153.254 331.539 153.234
 331.566 153.219 c 333.312 152.07 374.348 124.656 382.578 79.762 c 387.266
 54.195 380.348 28.402 362.023 3.102 c h
111.297 301.824 m 82.168 272.695 l 91.891 261.207 l 122.789 292.102 l h
88.316 321.27 m 62.723 295.676 l 72.445 284.188 l 99.809 311.547 l h
43.277 318.656 m 53 307.168 l 76.828 330.992 l 65.336 340.715 l h
59.609 366.809 m 58.207 368.215 56.324 368.988 54.309 368.988 c 52.293 
368.988 50.41 368.215 49.004 366.809 c 17.188 334.988 l 15.781 333.586 15.008
 331.703 15.008 329.688 c 15.008 327.672 15.781 325.789 17.188 324.383 c
 18.59 322.977 20.477 322.203 22.488 322.203 c 24.504 322.203 26.387 322.977
 27.793 324.383 c 59.609 356.199 l 62.535 359.125 62.535 363.883 59.609 
366.809 c h
149.766 287.262 m 146.844 290.184 142.082 290.184 139.16 287.262 c 96.734
 244.836 l 95.328 243.43 94.555 241.547 94.555 239.531 c 94.555 237.52 95.328
 235.633 96.734 234.23 c 98.195 232.766 100.117 232.035 102.035 232.035 
c 103.957 232.035 105.879 232.77 107.34 234.23 c 149.766 276.656 l 151.168
 278.059 151.941 279.941 151.941 281.957 c 151.945 283.973 151.168 285.855
 149.766 287.262 c h
367.844 76.957 m 360.91 115.082 324.488 139.902 323.355 140.664 c 147.383
 253.059 l 145.254 250.93 l 168.195 233.613 239.457 179.91 276.371 153.008
 c 278.039 151.793 279.656 150.598 281.23 149.414 c 284.543 146.93 285.211
 142.227 282.727 138.914 c 280.238 135.602 275.539 134.93 272.227 137.418
 c 270.707 138.559 269.148 139.711 267.535 140.887 c 229.586 168.547 155.504
 224.398 134.543 240.219 c 129.555 235.234 l 284.672 61.145 l 295.918 62.211
 307.078 60.145 317.812 55.07 c 317.363 70.02 315.727 80.871 312.637 90.043
 c 311.316 93.969 313.426 98.223 317.352 99.547 c 318.145 99.812 318.953
 99.941 319.746 99.941 c 322.879 99.941 325.797 97.961 326.852 94.832 c 
331.098 82.227 332.949 67.387 332.945 45.703 c 335.738 43.543 338.484 41.164
 341.18 38.566 c 347.477 32.508 352.473 26.258 356.047 21.25 c 367.203 39.961
 371.172 58.656 367.844 76.957 c h
367.844 76.957 m f
302.191 113.766 m 302.188 113.766 l 298.043 113.766 294.688 117.125 294.688
 121.266 c 294.688 125.406 298.051 128.766 302.191 128.766 c 306.332 128.766
 309.691 125.406 309.691 121.266 c 309.691 117.125 306.332 113.766 302.191
 113.766 c h
302.191 113.766 m f
Q Q
showpage
%%Trailer
end
%%EOF
