%!PS-Adobe-3.0 EPSF-3.0
%%Creator: cairo 1.16.0 (https://cairographics.org)
%%CreationDate: Wed Sep 30 14:01:50 2020
%%Pages: 1
%%DocumentData: Clean7Bit
%%LanguageLevel: 2
%%BoundingBox: 45 0 339 384
%%EndComments
%%BeginProlog
50 dict begin
/q { gsave } bind def
/Q { grestore } bind def
/cm { 6 array astore concat } bind def
/w { setlinewidth } bind def
/J { setlinecap } bind def
/j { setlinejoin } bind def
/M { setmiterlimit } bind def
/d { setdash } bind def
/m { moveto } bind def
/l { lineto } bind def
/c { curveto } bind def
/h { closepath } bind def
/re { exch dup neg 3 1 roll 5 3 roll moveto 0 rlineto
      0 exch rlineto 0 rlineto closepath } bind def
/S { stroke } bind def
/f { fill } bind def
/f* { eofill } bind def
/n { newpath } bind def
/W { clip } bind def
/W* { eoclip } bind def
/BT { } bind def
/ET { } bind def
/BDC { mark 3 1 roll /BDC pdfmark } bind def
/EMC { mark /EMC pdfmark } bind def
/cairo_store_point { /cairo_point_y exch def /cairo_point_x exch def } def
/Tj { show currentpoint cairo_store_point } bind def
/TJ {
  {
    dup
    type /stringtype eq
    { show } { -0.001 mul 0 cairo_font_matrix dtransform rmoveto } ifelse
  } forall
  currentpoint cairo_store_point
} bind def
/cairo_selectfont { cairo_font_matrix aload pop pop pop 0 0 6 array astore
    cairo_font exch selectfont cairo_point_x cairo_point_y moveto } bind def
/Tf { pop /cairo_font exch def /cairo_font_matrix where
      { pop cairo_selectfont } if } bind def
/Td { matrix translate cairo_font_matrix matrix concatmatrix dup
      /cairo_font_matrix exch def dup 4 get exch 5 get cairo_store_point
      /cairo_font where { pop cairo_selectfont } if } bind def
/Tm { 2 copy 8 2 roll 6 array astore /cairo_font_matrix exch def
      cairo_store_point /cairo_font where { pop cairo_selectfont } if } bind def
/g { setgray } bind def
/rg { setrgbcolor } bind def
/d1 { setcachedevice } bind def
/cairo_data_source {
  CairoDataIndex CairoData length lt
    { CairoData CairoDataIndex get /CairoDataIndex CairoDataIndex 1 add def }
    { () } ifelse
} def
/cairo_flush_ascii85_file { cairo_ascii85_file status { cairo_ascii85_file flushfile } if } def
/cairo_image { image cairo_flush_ascii85_file } def
/cairo_imagemask { imagemask cairo_flush_ascii85_file } def
%%EndProlog
%%BeginSetup
%%EndSetup
%%Page: 1 1
%%BeginPageSetup
%%PageBoundingBox: 45 0 339 384
%%EndPageSetup
q 45 0 294 384 rectclip
1 0 0 -1 0 384 cm q
0 g
333.988 36.516 m 302.152 4.68 l 298.645 1.172 293.285 -0.594 288.5 0.18
 c 284.527 0.824 281.258 3.176 279.531 6.629 c 269.465 26.766 l 241.504 
54.742 l 238.574 57.672 238.574 62.422 241.504 65.348 c 242.969 66.812 244.887
 67.543 246.805 67.543 c 248.727 67.543 250.648 66.812 252.109 65.344 c 
275.629 41.816 l 296.855 63.043 l 262.516 97.379 l 259.527 95.957 256.23
 95.203 252.809 95.203 c 246.785 95.203 241.137 97.539 236.898 101.777 c
 194.309 144.367 l 183.723 133.781 l 190.977 126.523 197.719 119.777 204.402
 113.086 c 207.328 110.156 207.328 105.41 204.398 102.48 c 201.469 99.555
 196.719 99.555 193.793 102.484 c 187.113 109.168 180.367 115.922 173.117
 123.176 c 164.816 114.875 l 157.648 107.707 146.805 106.395 138.293 110.941
 c 129.777 106.395 118.934 107.707 111.766 114.875 c 107.527 119.117 105.191
 124.766 105.191 130.793 c 105.191 136.816 107.527 142.469 111.766 146.707
 c 130.688 165.629 l 128.031 168.285 125.301 171.02 122.461 173.855 c 115.281
 181.039 112.043 185.484 111.18 197.922 c 110.191 212.246 l 110.176 212.445
 l 109.77 218.062 109.477 222.117 108.57 223.77 c 108.133 224.57 106.945
 225.695 101.5 227.93 c 87.363 233.73 85.402 235.668 79.59 245.09 c 78.477
 246.898 77.211 248.949 75.531 251.504 c 69.27 261.012 65.727 267.832 62.301
 274.422 c 58.898 280.969 55.688 287.148 49.848 296.016 c 42.613 307.008
 44.164 320.336 53.801 329.969 c 102.348 378.516 l 105.93 382.098 110.18
 384 114.418 384 c 115.641 384 116.863 383.84 118.07 383.52 c 123.395 382.09
 127.539 377.625 129.16 371.574 c 129.176 371.523 129.188 371.477 129.199
 371.426 c 135.73 344.875 142.391 323.168 148.836 302.176 c 151.363 293.934
 153.926 285.574 156.504 276.859 c 157.773 276.996 l 166.727 277.992 173.652
 278.762 179.508 278.762 c 191.707 278.762 199.27 275.426 210.852 263.84
 c 226.492 248.199 240.254 228.676 208.156 194.176 c 268.727 133.605 l 275.641
 126.691 277.105 116.355 273.121 107.988 c 311.902 69.207 l 332.039 59.141
 l 335.492 57.41 337.844 54.141 338.488 50.172 c 339.266 45.387 337.5 40.027
 333.988 36.516 c h
183.699 154.973 m 170.434 168.242 l 168.32 170.352 165.492 171.516 162.473
 171.516 c 159.449 171.516 156.625 170.352 154.512 168.242 c 151.898 165.625
 l 159.645 157.875 166.629 150.891 173.121 144.395 c h
120.191 130.793 m 120.191 128.777 120.965 126.891 122.371 125.484 c 125.297
 122.559 130.062 122.559 132.988 125.484 c 135.918 128.414 140.664 128.414
 143.594 125.484 c 146.52 122.559 151.285 122.559 154.211 125.484 c 162.512
 133.785 l 156.02 140.281 149.039 147.27 141.289 155.02 c 122.371 136.102
 l 120.965 134.695 120.191 132.809 120.191 130.793 c h
200.246 253.234 m 188.398 265.082 186.082 265.047 160.734 262.234 c 162.348
 256.5 163.965 250.566 165.582 244.379 c 169.762 245.926 175.32 247.348 
181.621 247.348 c 184.93 247.348 188.445 246.957 192.07 245.984 c 196.07
 244.91 198.445 240.801 197.375 236.797 c 196.305 232.797 192.191 230.422
 188.188 231.496 c 182.449 233.031 176.535 232.281 171.688 230.645 c 197.555
 204.777 l 222.199 231.281 211.988 241.492 200.246 253.234 c h
258.121 123 m 156.109 225.012 l 155.141 225.98 154.457 227.195 154.129 
228.523 c 147.598 255.074 140.934 276.785 134.492 297.777 c 127.996 318.945
 121.281 340.832 114.656 367.75 c 114.508 368.289 114.32 368.652 114.176
 368.871 c 113.898 368.727 113.477 368.434 112.953 367.91 c 64.406 319.363
 l 59.75 314.707 59.031 309.348 62.379 304.262 c 68.641 294.754 72.184 287.934
 75.609 281.34 c 79.012 274.797 82.223 268.617 88.059 259.75 c 89.863 257.012
 91.246 254.766 92.359 252.965 c 96.543 246.18 96.543 246.18 107.191 241.809
 c 122.781 235.41 123.977 229.543 125.137 213.531 c 126.145 198.957 l 126.691
 191.074 127.715 189.816 133.07 184.461 c 135.902 181.629 138.641 178.891
 141.293 176.234 c 143.906 178.848 l 148.848 183.793 155.441 186.516 162.473
 186.516 c 169.5 186.516 176.094 183.793 181.039 178.848 c 194.305 165.578
 l 194.309 165.582 l 197.238 168.512 201.988 168.512 204.918 165.582 c 207.844
 162.652 207.844 157.906 204.918 154.977 c 204.914 154.973 l 247.504 112.383
 l 248.906 110.977 250.793 110.203 252.809 110.203 c 254.812 110.203 256.684
 110.965 258.086 112.352 c 258.098 112.363 258.109 112.371 258.117 112.383
 c 258.129 112.395 258.141 112.406 258.148 112.414 c 261.047 115.344 261.035
 120.086 258.121 123 c h
292.945 13.34 m 292.945 13.34 292.945 13.344 292.945 13.344 c h
308.941 53.918 m 284.754 29.727 l 291.832 15.57 l 323.098 46.84 l h
308.941 53.918 m f
222.953 91.418 m 227.098 91.418 230.453 88.059 230.453 83.918 c 230.453
 79.773 227.098 76.418 222.953 76.418 c 222.949 76.418 l 218.805 76.418 
215.453 79.773 215.453 83.918 c 215.453 88.059 218.812 91.418 222.953 91.418
 c h
222.953 91.418 m f
Q Q
showpage
%%Trailer
end
%%EOF
