%!PS-Adobe-3.0 EPSF-3.0
%%Creator: cairo 1.16.0 (https://cairographics.org)
%%CreationDate: Wed Sep 30 14:01:52 2020
%%Pages: 1
%%DocumentData: Clean7Bit
%%LanguageLevel: 2
%%BoundingBox: 0 0 384 384
%%EndComments
%%BeginProlog
50 dict begin
/q { gsave } bind def
/Q { grestore } bind def
/cm { 6 array astore concat } bind def
/w { setlinewidth } bind def
/J { setlinecap } bind def
/j { setlinejoin } bind def
/M { setmiterlimit } bind def
/d { setdash } bind def
/m { moveto } bind def
/l { lineto } bind def
/c { curveto } bind def
/h { closepath } bind def
/re { exch dup neg 3 1 roll 5 3 roll moveto 0 rlineto
      0 exch rlineto 0 rlineto closepath } bind def
/S { stroke } bind def
/f { fill } bind def
/f* { eofill } bind def
/n { newpath } bind def
/W { clip } bind def
/W* { eoclip } bind def
/BT { } bind def
/ET { } bind def
/BDC { mark 3 1 roll /BDC pdfmark } bind def
/EMC { mark /EMC pdfmark } bind def
/cairo_store_point { /cairo_point_y exch def /cairo_point_x exch def } def
/Tj { show currentpoint cairo_store_point } bind def
/TJ {
  {
    dup
    type /stringtype eq
    { show } { -0.001 mul 0 cairo_font_matrix dtransform rmoveto } ifelse
  } forall
  currentpoint cairo_store_point
} bind def
/cairo_selectfont { cairo_font_matrix aload pop pop pop 0 0 6 array astore
    cairo_font exch selectfont cairo_point_x cairo_point_y moveto } bind def
/Tf { pop /cairo_font exch def /cairo_font_matrix where
      { pop cairo_selectfont } if } bind def
/Td { matrix translate cairo_font_matrix matrix concatmatrix dup
      /cairo_font_matrix exch def dup 4 get exch 5 get cairo_store_point
      /cairo_font where { pop cairo_selectfont } if } bind def
/Tm { 2 copy 8 2 roll 6 array astore /cairo_font_matrix exch def
      cairo_store_point /cairo_font where { pop cairo_selectfont } if } bind def
/g { setgray } bind def
/rg { setrgbcolor } bind def
/d1 { setcachedevice } bind def
/cairo_data_source {
  CairoDataIndex CairoData length lt
    { CairoData CairoDataIndex get /CairoDataIndex CairoDataIndex 1 add def }
    { () } ifelse
} def
/cairo_flush_ascii85_file { cairo_ascii85_file status { cairo_ascii85_file flushfile } if } def
/cairo_image { image cairo_flush_ascii85_file } def
/cairo_imagemask { imagemask cairo_flush_ascii85_file } def
%%EndProlog
%%BeginSetup
%%EndSetup
%%Page: 1 1
%%BeginPageSetup
%%PageBoundingBox: 0 0 384 384
%%EndPageSetup
q 0 0 384 384 rectclip
1 0 0 -1 0 384 cm q
0 g
375.402 158.699 m 371.004 155.094 365.695 153.641 360.414 154.578 c 345.984
 89.375 294.629 38.02 229.418 23.59 c 230.359 18.309 228.91 13 225.301 8.598
 c 220.953 3.293 213.941 0 207 0 c 177 0 l 170.059 0 163.047 3.293 158.699
 8.598 c 155.09 13 153.641 18.309 154.582 23.59 c 134.188 28.09 114.973 
36.195 97.383 47.758 c 93.922 50.031 92.961 54.684 95.234 58.145 c 96.676
 60.336 99.066 61.527 101.508 61.527 c 102.922 61.527 104.352 61.129 105.621
 60.293 c 121.59 49.797 139.016 42.422 157.512 38.301 c 160.457 53.02 l 
107.004 65.086 65.09 107.004 53.02 160.457 c 38.301 157.512 l 42.418 139.012
 49.797 121.59 60.289 105.625 c 62.566 102.164 61.602 97.512 58.141 95.238
 c 54.68 92.961 50.031 93.922 47.754 97.387 c 36.195 114.973 28.09 134.184
 23.586 154.578 c 18.309 153.637 13 155.09 8.598 158.699 c 3.293 163.047
 0 170.059 0 177 c 0 207 l 0 213.941 3.293 220.953 8.598 225.301 c 12.129
 228.195 16.242 229.703 20.457 229.703 c 21.496 229.703 22.543 229.605 23.59
 229.422 c 38.02 294.629 89.379 345.984 154.582 360.414 c 153.641 365.695
 155.094 371 158.699 375.402 c 163.047 380.707 170.059 384 177 384 c 207
 384 l 213.941 384 220.953 380.707 225.301 375.402 c 228.914 370.996 230.363
 365.68 229.414 360.391 c 294.598 345.938 345.949 294.59 360.398 229.418
 c 361.449 229.605 362.5 229.703 363.543 229.703 c 367.758 229.703 371.871
 228.195 375.402 225.301 c 380.707 220.953 384 213.941 384 207 c 384 177
 l 384 170.059 380.707 163.047 375.402 158.699 c h
345.699 157.512 m 330.98 160.457 l 318.914 107.004 276.996 65.086 223.543
 53.02 c 226.488 38.305 l 285.77 51.547 332.457 98.234 345.699 157.512 c
 h
219.559 316.48 m 216.816 311.852 212.254 309 207 309 c 199.5 309 l 199.5
 259.082 l 206.375 258.316 212.941 256.516 219.043 253.84 c 249.152 305.988
 l 239.883 310.637 229.961 314.188 219.559 316.48 c h
164.43 316.496 m 154.027 314.207 144.105 310.656 134.836 306.012 c 164.957
 253.84 l 171.055 256.516 177.625 258.316 184.5 259.082 c 184.5 309 l 177
 309 l 171.742 309 167.172 311.855 164.43 316.496 c h
77.988 134.836 m 130.16 164.957 l 127.484 171.055 125.684 177.621 124.918
 184.5 c 75 184.5 l 75 177 l 75 171.742 72.145 167.172 67.504 164.43 c 69.793
 154.027 73.344 144.105 77.988 134.836 c h
177 75 m 184.5 75 l 184.5 124.918 l 177.625 125.684 171.059 127.484 164.957
 130.16 c 134.836 77.988 l 144.105 73.344 154.027 69.793 164.43 67.504 c
 167.172 72.145 171.742 75 177 75 c h
219.57 67.504 m 229.973 69.793 239.895 73.344 249.164 77.988 c 219.043 
130.16 l 212.945 127.484 206.375 125.684 199.5 124.918 c 199.5 75 l 207 
75 l 212.258 75 216.828 72.145 219.57 67.504 c h
309 177 m 309 184.5 l 259.082 184.5 l 258.316 177.625 256.516 171.059 253.84
 164.957 c 306.012 134.836 l 310.656 144.109 314.207 154.027 316.496 164.43
 c 311.859 167.172 309 171.742 309 177 c h
246.32 151.98 m 242.293 146.531 237.473 141.707 232.023 137.68 c 262.152
 85.492 l 276.602 95.016 288.984 107.398 298.508 121.848 c h
192 139.5 m 220.949 139.5 244.5 163.051 244.5 192 c 244.5 220.949 220.949
 244.5 192 244.5 c 163.051 244.5 139.5 220.949 139.5 192 c 139.5 163.051
 163.051 139.5 192 139.5 c h
75 207 m 75 199.5 l 124.918 199.5 l 125.684 206.375 127.484 212.941 130.16
 219.043 c 77.988 249.164 l 73.34 239.895 69.793 229.973 67.504 219.57 c
 72.141 216.828 75 212.258 75 207 c h
137.68 232.02 m 141.703 237.469 146.527 242.293 151.977 246.32 c 121.848
 298.508 l 107.398 288.984 95.016 276.602 85.492 262.152 c h
262.137 298.484 m 232.02 246.32 l 237.473 242.297 242.293 237.473 246.32
 232.023 c 298.492 262.141 l 288.965 276.582 276.582 288.961 262.137 298.484
 c h
306 249.156 m 253.84 219.043 l 256.516 212.941 258.316 206.375 259.082 
199.5 c 309 199.5 l 309 207 l 309 212.258 311.855 216.828 316.496 219.57
 c 314.203 229.969 310.648 239.887 306 249.156 c h
170.301 18.105 m 171.824 16.25 174.516 15 177 15 c 207 15 l 209.484 15 
212.176 16.25 213.699 18.105 c 214.93 19.605 214.715 20.676 214.645 21.027
 c 207.145 58.527 l 207 59.262 206.773 59.742 206.613 60 c 177.387 60 l 
177.227 59.742 177 59.262 176.855 58.527 c 169.355 21.027 l 169.285 20.676
 169.07 19.605 170.301 18.105 c h
121.848 85.492 m 151.98 137.68 l 146.531 141.707 141.707 146.527 137.68
 151.977 c 85.492 121.848 l 95.016 107.398 107.398 95.016 121.848 85.492
 c h
18.105 213.699 m 16.25 212.176 15 209.484 15 207 c 15 177 l 15 174.516 
16.25 171.824 18.105 170.301 c 19.129 169.465 19.949 169.297 20.48 169.297
 c 20.73 169.297 20.918 169.332 21.027 169.355 c 58.531 176.855 l 59.262
 177 59.742 177.227 60 177.387 c 60 206.613 l 59.742 206.773 59.262 207 
58.527 207.145 c 21.027 214.645 l 20.676 214.715 19.609 214.93 18.105 213.699
 c h
38.305 226.488 m 53.02 223.543 l 65.09 276.996 107.004 318.914 160.457 
330.98 c 157.512 345.699 l 98.234 332.457 51.547 285.77 38.305 226.488 c
 h
213.699 365.895 m 212.176 367.754 209.484 369 207 369 c 177 369 l 174.516
 369 171.824 367.754 170.301 365.895 c 169.07 364.395 169.285 363.324 169.355
 362.973 c 176.855 325.473 l 177 324.738 177.227 324.258 177.387 324 c 206.613
 324 l 206.773 324.258 207 324.738 207.145 325.473 c 214.645 362.973 l 214.715
 363.324 214.93 364.395 213.699 365.895 c h
226.484 345.676 m 223.539 330.965 l 276.98 318.879 318.898 276.969 330.977
 223.543 c 345.684 226.484 l 332.422 285.73 285.738 332.41 226.484 345.676
 c h
369 207 m 369 209.484 367.75 212.176 365.895 213.699 c 364.395 214.93 363.32
 214.715 362.973 214.645 c 325.469 207.145 l 324.738 207 324.258 206.773
 324 206.613 c 324 177.387 l 324.258 177.227 324.738 177 325.473 176.855
 c 362.973 169.355 l 363.324 169.285 364.395 169.07 365.895 170.301 c 367.75
 171.824 369 174.516 369 177 c h
369 207 m f
192 229.5 m 212.676 229.5 229.5 212.676 229.5 192 c 229.5 171.324 212.676
 154.5 192 154.5 c 171.324 154.5 154.5 171.324 154.5 192 c 154.5 212.676
 171.324 229.5 192 229.5 c h
192 169.5 m 204.406 169.5 214.5 179.594 214.5 192 c 214.5 204.406 204.406
 214.5 192 214.5 c 179.594 214.5 169.5 204.406 169.5 192 c 169.5 179.594
 179.594 169.5 192 169.5 c h
192 169.5 m f
192.004 45 m 196.145 45 199.504 41.645 199.504 37.5 c 199.504 33.359 196.145
 30 192.004 30 c 191.996 30 l 187.855 30 184.5 33.359 184.5 37.5 c 184.5
 41.645 187.859 45 192.004 45 c h
192.004 45 m f
37.5 184.496 m 33.359 184.496 30 187.855 30 191.996 c 30 192.004 l 30 196.145
 33.359 199.5 37.5 199.5 c 41.645 199.5 45 196.141 45 191.996 c 45 187.855
 41.645 184.496 37.5 184.496 c h
37.5 184.496 m f
191.996 339 m 187.855 339 184.496 342.355 184.496 346.5 c 184.496 350.641
 187.855 354 191.996 354 c 192.004 354 l 196.145 354 199.5 350.641 199.5
 346.5 c 199.5 342.355 196.141 339 191.996 339 c h
191.996 339 m f
346.5 184.5 m 342.355 184.5 339 187.859 339 192.004 c 339 196.145 342.355
 199.504 346.5 199.504 c 350.641 199.504 354 196.145 354 192.004 c 354 191.996
 l 354 187.855 350.641 184.5 346.5 184.5 c h
346.5 184.5 m f
75.332 82.836 m 79.477 82.836 82.832 79.477 82.832 75.336 c 82.832 71.191
 79.477 67.836 75.332 67.836 c 75.328 67.836 l 71.184 67.836 67.832 71.191
 67.832 75.336 c 67.832 79.477 71.191 82.836 75.332 82.836 c h
75.332 82.836 m f
Q Q
showpage
%%Trailer
end
%%EOF
