%!PS-Adobe-3.0 EPSF-3.0
%%Creator: cairo 1.16.0 (https://cairographics.org)
%%CreationDate: Wed Sep 30 14:01:55 2020
%%Pages: 1
%%DocumentData: Clean7Bit
%%LanguageLevel: 2
%%BoundingBox: 41 0 343 384
%%EndComments
%%BeginProlog
50 dict begin
/q { gsave } bind def
/Q { grestore } bind def
/cm { 6 array astore concat } bind def
/w { setlinewidth } bind def
/J { setlinecap } bind def
/j { setlinejoin } bind def
/M { setmiterlimit } bind def
/d { setdash } bind def
/m { moveto } bind def
/l { lineto } bind def
/c { curveto } bind def
/h { closepath } bind def
/re { exch dup neg 3 1 roll 5 3 roll moveto 0 rlineto
      0 exch rlineto 0 rlineto closepath } bind def
/S { stroke } bind def
/f { fill } bind def
/f* { eofill } bind def
/n { newpath } bind def
/W { clip } bind def
/W* { eoclip } bind def
/BT { } bind def
/ET { } bind def
/BDC { mark 3 1 roll /BDC pdfmark } bind def
/EMC { mark /EMC pdfmark } bind def
/cairo_store_point { /cairo_point_y exch def /cairo_point_x exch def } def
/Tj { show currentpoint cairo_store_point } bind def
/TJ {
  {
    dup
    type /stringtype eq
    { show } { -0.001 mul 0 cairo_font_matrix dtransform rmoveto } ifelse
  } forall
  currentpoint cairo_store_point
} bind def
/cairo_selectfont { cairo_font_matrix aload pop pop pop 0 0 6 array astore
    cairo_font exch selectfont cairo_point_x cairo_point_y moveto } bind def
/Tf { pop /cairo_font exch def /cairo_font_matrix where
      { pop cairo_selectfont } if } bind def
/Td { matrix translate cairo_font_matrix matrix concatmatrix dup
      /cairo_font_matrix exch def dup 4 get exch 5 get cairo_store_point
      /cairo_font where { pop cairo_selectfont } if } bind def
/Tm { 2 copy 8 2 roll 6 array astore /cairo_font_matrix exch def
      cairo_store_point /cairo_font where { pop cairo_selectfont } if } bind def
/g { setgray } bind def
/rg { setrgbcolor } bind def
/d1 { setcachedevice } bind def
/cairo_data_source {
  CairoDataIndex CairoData length lt
    { CairoData CairoDataIndex get /CairoDataIndex CairoDataIndex 1 add def }
    { () } ifelse
} def
/cairo_flush_ascii85_file { cairo_ascii85_file status { cairo_ascii85_file flushfile } if } def
/cairo_image { image cairo_flush_ascii85_file } def
/cairo_imagemask { imagemask cairo_flush_ascii85_file } def
%%EndProlog
%%BeginSetup
%%EndSetup
%%Page: 1 1
%%BeginPageSetup
%%PageBoundingBox: 41 0 343 384
%%EndPageSetup
q 41 0 302 384 rectclip
1 0 0 -1 0 384 cm q
0 g
340.566 46.809 m 324.656 30.902 l 327.586 27.973 327.586 23.223 324.656
 20.297 c 308.746 4.387 l 302.898 -1.461 293.387 -1.461 287.535 4.387 c 
275.359 16.562 l 271.848 13.047 l 268.918 10.121 264.168 10.121 261.238 
13.047 c 258.312 15.977 258.312 20.727 261.238 23.656 c 264.754 27.168 l
 209.715 82.207 l 206.789 85.133 206.789 89.883 209.715 92.812 c 212.645
 95.738 217.395 95.738 220.32 92.812 c 298.141 14.992 l 308.75 25.598 l 
276.934 57.414 l 269.871 64.473 265.984 73.891 265.984 83.93 c 265.984 93.969
 269.875 103.383 276.934 110.441 c 105.387 281.984 l 94.781 271.379 l 87.734
 264.332 83.852 254.918 83.852 244.867 c 83.852 234.816 87.734 225.398 94.781
 218.352 c 98.781 214.355 l 114.691 230.262 l 116.156 231.727 118.074 232.461
 119.992 232.461 c 121.91 232.461 123.832 231.727 125.297 230.262 c 128.223
 227.336 128.223 222.586 125.297 219.656 c 109.387 203.746 l 119.992 193.141
 l 135.902 209.051 l 137.367 210.516 139.285 211.246 141.203 211.246 c 143.125
 211.246 145.043 210.516 146.508 209.051 c 149.438 206.121 149.438 201.375
 146.508 198.445 c 130.598 182.535 l 141.203 171.93 l 157.113 187.84 l 158.578
 189.301 160.496 190.035 162.414 190.035 c 164.336 190.035 166.254 189.301
 167.719 187.84 c 170.648 184.91 170.648 180.16 167.719 177.23 c 151.809
 161.324 l 172.598 140.535 l 175.527 137.609 175.527 132.859 172.598 129.93
 c 169.668 127 164.922 127.004 161.992 129.93 c 84.176 207.746 l 82.285 
209.637 80.562 211.648 79.004 213.762 c 68.77 211.676 58.039 214.789 50.457
 222.375 c 38.164 234.668 38.164 254.668 50.457 266.961 c 56.488 272.992
 64.539 276.203 72.746 276.203 c 74.75 276.203 76.762 276.008 78.758 275.621
 c 80.379 277.859 82.184 279.992 84.176 281.984 c 94.781 292.59 l 97.609
 295.418 101.375 296.977 105.387 296.977 c 106.621 296.977 107.824 296.812
 108.992 296.523 c 120.172 307.043 131.043 304.102 137.793 302.273 c 144.309
 300.508 145.117 300.625 147.391 303.672 c 200.984 375.484 l 204.684 380.438
 210.172 383.523 216.047 383.949 c 216.512 383.984 216.977 384 217.445 384
 c 222.785 384 228.012 381.801 231.965 377.844 c 263.516 346.293 l 271.984
 337.828 272.984 323.551 265.797 313.789 c 230.895 266.402 l 225.844 259.543
 227.797 253.359 231.008 250.148 c 252.301 228.852 264.566 216.098 269.016
 201.586 c 273.836 185.867 268.328 170.414 257.504 151.078 c 292.84 115.742
 l 295.77 112.812 295.77 108.066 292.84 105.137 c 340.566 57.414 l 343.492
 54.484 343.492 49.738 340.566 46.809 c h
61.062 256.355 m 54.617 249.91 54.617 239.426 61.062 232.98 c 63.938 230.105
 67.672 228.465 71.547 228.184 c 69.785 233.488 68.855 239.102 68.855 244.867
 c 68.855 250.484 69.738 255.953 71.41 261.137 c 67.582 260.824 63.898 259.188
 61.062 256.355 c h
252.91 335.688 m 221.359 367.238 l 220.105 368.496 218.641 369.098 217.125
 368.992 c 215.574 368.879 214.109 368 213.004 366.516 c 159.406 294.699
 l 150.824 283.199 140.621 285.965 133.867 287.797 c 128.715 289.191 125.301
 290.117 121.277 287.305 c 195.5 213.082 l 216.516 244.582 l 211.715 252.707
 210.734 264.324 218.82 275.301 c 222.906 280.848 l 208.152 295.598 l 205.223
 298.527 205.223 303.277 208.152 306.203 c 209.617 307.668 211.535 308.402
 213.457 308.402 c 215.375 308.402 217.293 307.668 218.758 306.203 c 231.902
 293.062 l 240.898 305.277 l 216.57 329.602 l 213.641 332.531 213.641 337.281
 216.57 340.211 c 218.035 341.672 219.953 342.406 221.875 342.406 c 223.793
 342.406 225.711 341.672 227.176 340.211 c 249.895 317.492 l 253.719 322.684
 l 256.473 326.426 256.098 332.504 252.91 335.688 c h
254.676 197.188 m 251.664 207.016 242.5 217.258 226.859 233.059 c 206.316
 202.266 l 211.684 196.898 l 217.195 200.922 224.215 204.297 231.188 206.164
 c 231.84 206.34 232.492 206.422 233.133 206.422 c 236.445 206.422 239.473
 204.211 240.371 200.863 c 241.445 196.863 239.07 192.75 235.07 191.676 
c 230.648 190.492 226.156 188.48 222.465 186.121 c 246.453 162.133 l 255.156
 178.465 257.383 188.363 254.676 197.188 c h
283.148 93.621 m 281.73 90.637 280.984 87.344 280.984 83.93 c 280.984 77.895
 283.312 72.246 287.539 68.02 c 314.051 41.508 l 324.656 52.113 l h
283.148 93.621 m f
191.16 118.867 m 195.301 118.867 198.66 115.512 198.66 111.371 c 198.66
 107.227 195.301 103.871 191.16 103.871 c 191.152 103.871 l 187.012 103.871
 183.656 107.227 183.656 111.371 c 183.656 115.512 187.016 118.867 191.16
 118.867 c h
191.16 118.867 m f
Q Q
showpage
%%Trailer
end
%%EOF
