%!PS-Adobe-3.0 EPSF-3.0
%%Creator: cairo 1.16.0 (https://cairographics.org)
%%CreationDate: Wed Sep 30 14:01:57 2020
%%Pages: 1
%%DocumentData: Clean7Bit
%%LanguageLevel: 2
%%BoundingBox: 34 0 350 384
%%EndComments
%%BeginProlog
50 dict begin
/q { gsave } bind def
/Q { grestore } bind def
/cm { 6 array astore concat } bind def
/w { setlinewidth } bind def
/J { setlinecap } bind def
/j { setlinejoin } bind def
/M { setmiterlimit } bind def
/d { setdash } bind def
/m { moveto } bind def
/l { lineto } bind def
/c { curveto } bind def
/h { closepath } bind def
/re { exch dup neg 3 1 roll 5 3 roll moveto 0 rlineto
      0 exch rlineto 0 rlineto closepath } bind def
/S { stroke } bind def
/f { fill } bind def
/f* { eofill } bind def
/n { newpath } bind def
/W { clip } bind def
/W* { eoclip } bind def
/BT { } bind def
/ET { } bind def
/BDC { mark 3 1 roll /BDC pdfmark } bind def
/EMC { mark /EMC pdfmark } bind def
/cairo_store_point { /cairo_point_y exch def /cairo_point_x exch def } def
/Tj { show currentpoint cairo_store_point } bind def
/TJ {
  {
    dup
    type /stringtype eq
    { show } { -0.001 mul 0 cairo_font_matrix dtransform rmoveto } ifelse
  } forall
  currentpoint cairo_store_point
} bind def
/cairo_selectfont { cairo_font_matrix aload pop pop pop 0 0 6 array astore
    cairo_font exch selectfont cairo_point_x cairo_point_y moveto } bind def
/Tf { pop /cairo_font exch def /cairo_font_matrix where
      { pop cairo_selectfont } if } bind def
/Td { matrix translate cairo_font_matrix matrix concatmatrix dup
      /cairo_font_matrix exch def dup 4 get exch 5 get cairo_store_point
      /cairo_font where { pop cairo_selectfont } if } bind def
/Tm { 2 copy 8 2 roll 6 array astore /cairo_font_matrix exch def
      cairo_store_point /cairo_font where { pop cairo_selectfont } if } bind def
/g { setgray } bind def
/rg { setrgbcolor } bind def
/d1 { setcachedevice } bind def
/cairo_data_source {
  CairoDataIndex CairoData length lt
    { CairoData CairoDataIndex get /CairoDataIndex CairoDataIndex 1 add def }
    { () } ifelse
} def
/cairo_flush_ascii85_file { cairo_ascii85_file status { cairo_ascii85_file flushfile } if } def
/cairo_image { image cairo_flush_ascii85_file } def
/cairo_imagemask { imagemask cairo_flush_ascii85_file } def
%%EndProlog
%%BeginSetup
%%EndSetup
%%Page: 1 1
%%BeginPageSetup
%%PageBoundingBox: 34 0 350 384
%%EndPageSetup
q 34 0 316 384 rectclip
1 0 0 -1 0 384 cm q
0 g
342.125 33.465 m 337.629 30.16 331.867 29.266 326.32 31.004 c 312.773 35.254
 297.445 37.5 281.996 37.5 c 259.59 37.5 243.578 29.664 229.637 21.977 c
 230.047 17.238 228.543 12.551 225.301 8.598 c 220.953 3.293 213.941 0 207
 0 c 177 0 l 170.059 0 163.047 3.293 158.699 8.598 c 155.457 12.551 153.953
 17.238 154.363 21.977 c 140.422 29.664 124.41 37.5 102.004 37.5 c 86.555
 37.5 71.227 35.254 57.68 31.004 c 52.133 29.266 46.371 30.16 41.875 33.465
 c 37.258 36.855 34.5 42.289 34.5 48 c 34.5 174 l 34.5 228.332 57.555 271.309
 76.895 297.797 c 98.215 326.996 126.91 352.109 154.453 365.844 c 154.898
 369.242 156.336 372.52 158.699 375.402 c 163.047 380.707 170.059 384 177
 384 c 207 384 l 213.941 384 220.953 380.707 225.301 375.402 c 227.664 372.52
 229.102 369.242 229.547 365.844 c 257.117 352.098 285.844 326.941 307.168
 297.715 c 326.48 271.242 349.5 228.289 349.5 174 c 349.5 48 l 349.5 42.289
 346.742 36.855 342.125 33.465 c h
79.5 166.5 m 79.5 151.496 l 124.5 151.496 l 124.5 166.5 l h
130.801 125.203 m 127.168 125.793 124.5 128.93 124.5 132.609 c 124.5 136.496
 l 79.5 136.496 l 79.5 81.27 l 86.902 82.09 94.438 82.5 102.004 82.5 c 123.531
 82.5 143.051 77.82 164.406 67.465 c 165.723 69.707 167.457 71.539 169.5
 72.832 c 169.5 114.426 l 156.75 119.488 143.77 123.105 130.801 125.203 
c h
199.5 107.754 m 198.168 107.102 196.82 106.426 195.422 105.711 c 193.273
 104.609 190.727 104.609 188.578 105.711 c 187.18 106.426 185.828 107.102
 184.5 107.754 c 184.5 75 l 199.5 75 l h
139.5 138.883 m 154.699 135.895 169.84 131 184.594 124.305 c 187.008 123.207
 189.457 122.047 192 120.785 c 194.543 122.047 196.988 123.207 199.406 124.305
 c 214.16 131 229.301 135.895 244.5 138.883 c 244.5 174 l 244.5 202.184 
230.562 225.66 218.875 240.391 c 212.695 248.172 201.766 259.195 192 266.355
 c 182.234 259.195 171.309 248.172 165.125 240.387 c 153.438 225.66 139.5
 202.188 139.5 174 c h
184.5 279.438 m 185.66 280.258 186.82 281.043 187.973 281.777 c 189.199
 282.559 190.602 282.949 192 282.949 c 193.398 282.949 194.801 282.559 196.027
 281.777 c 197.18 281.043 198.34 280.258 199.5 279.438 c 199.5 309 l 184.5
 309 l h
220.836 319.094 m 219.484 315.668 217.273 312.922 214.5 311.168 c 214.5
 266.977 l 221.277 260.594 227.129 254.117 230.621 249.715 c 242.77 234.414
 257.055 210.598 259.211 181.5 c 304.305 181.5 l 302.332 219.102 285.621
 256.789 256.75 288.395 c 245.551 300.656 233.223 311.18 220.836 319.094
 c h
304.5 166.5 m 259.5 166.5 l 259.5 151.496 l 304.5 151.496 l h
304.5 136.496 m 259.5 136.496 l 259.5 132.609 l 259.5 128.93 256.832 125.793
 253.199 125.203 c 240.23 123.105 227.254 119.488 214.5 114.426 c 214.5 
72.832 l 216.543 71.539 218.277 69.707 219.594 67.465 c 240.949 77.82 260.469
 82.5 281.996 82.5 c 289.562 82.5 297.098 82.09 304.5 81.27 c h
170.301 18.105 m 171.824 16.25 174.516 15 177 15 c 207 15 l 209.484 15 
212.176 16.25 213.699 18.105 c 214.93 19.609 214.715 20.68 214.645 21.027
 c 207.145 58.531 l 207 59.262 206.773 59.742 206.613 60 c 177.387 60 l 
177.227 59.742 177 59.262 176.855 58.531 c 169.355 21.027 l 169.285 20.676
 169.07 19.609 170.301 18.105 c h
49.5 174 m 49.5 48 l 49.5 47.102 50.016 46.094 50.75 45.555 c 51.16 45.254
 51.859 44.898 53.188 45.316 c 68.387 50.086 84.809 52.5 102 52.5 c 125.652
 52.5 143.117 44.984 157.336 37.426 c 160.395 52.727 l 140.141 62.922 121.977
 67.5 102 67.5 c 92.238 67.5 82.531 66.762 73.152 65.297 c 70.992 64.961
 68.785 65.586 67.121 67.012 c 65.457 68.438 64.5 70.52 64.5 72.707 c 64.5
 174 l 64.5 195.977 69.039 217.977 77.996 239.383 c 79.199 242.262 81.984
 243.992 84.918 243.992 c 85.883 243.992 86.863 243.805 87.809 243.41 c 
91.629 241.812 93.43 237.418 91.832 233.598 c 84.672 216.48 80.602 198.988
 79.695 181.5 c 124.789 181.5 l 126.949 210.598 141.234 234.414 153.379 
249.715 c 156.871 254.117 162.723 260.594 169.5 266.977 c 169.5 311.172 
l 166.73 312.926 164.516 315.668 163.168 319.094 c 150.777 311.18 138.453
 300.66 127.254 288.398 c 126.895 288.004 l 124.117 284.93 119.371 284.695
 116.301 287.477 c 113.23 290.254 112.996 295 115.773 298.07 c 116.176 298.512
 l 129.633 313.242 144.684 325.699 159.734 334.586 c 156.641 350.062 l 112.035
 325.664 49.5 261.258 49.5 174 c h
213.699 365.895 m 212.176 367.75 209.484 369 207 369 c 177 369 l 174.516
 369 171.824 367.75 170.301 365.895 c 169.07 364.391 169.285 363.32 169.355
 362.973 c 176.855 325.473 l 177 324.738 177.227 324.258 177.387 324 c 206.613
 324 l 206.773 324.258 207 324.738 207.145 325.473 c 214.645 362.973 l 214.715
 363.324 214.93 364.391 213.699 365.895 c h
334.5 174 m 334.5 261.227 271.922 325.676 227.359 350.062 c 224.266 334.586
 l 239.32 325.699 254.371 313.242 267.824 298.512 c 301.148 262.035 319.5
 217.812 319.5 174 c 319.5 72.707 l 319.5 70.52 318.543 68.438 316.879 67.012
 c 315.215 65.586 313.012 64.961 310.844 65.297 c 301.469 66.758 291.762
 67.5 281.996 67.5 c 262.02 67.5 243.855 62.922 223.602 52.727 c 226.664
 37.426 l 240.883 44.988 258.344 52.5 281.996 52.5 c 299.191 52.5 315.613
 50.086 330.809 45.316 c 332.137 44.898 332.84 45.254 333.25 45.555 c 333.984
 46.094 334.5 47.102 334.5 48 c h
334.5 174 m f
192.004 45 m 196.145 45 199.504 41.641 199.504 37.5 c 199.504 33.359 196.145
 30 192.004 30 c 191.996 30 l 187.855 30 184.5 33.359 184.5 37.5 c 184.5
 41.641 187.859 45 192.004 45 c h
192.004 45 m f
192.004 339 m 191.996 339 l 187.855 339 184.5 342.359 184.5 346.5 c 184.5
 350.641 187.859 354 192.004 354 c 196.145 354 199.504 350.641 199.504 346.5
 c 199.504 342.359 196.145 339 192.004 339 c h
192.004 339 m f
186.699 241.957 m 188.164 243.422 190.082 244.152 192 244.152 c 193.918
 244.152 195.836 243.422 197.301 241.957 c 201.02 238.242 204.414 234.477
 207.125 231.066 c 217.332 218.203 229.5 197.863 229.5 174 c 229.5 156.574
 l 229.5 153.23 227.285 150.289 224.07 149.367 c 214.336 146.574 204.57 
143.016 195.043 138.789 c 193.105 137.93 190.895 137.93 188.961 138.789 
c 179.43 143.016 169.664 146.574 159.93 149.367 c 156.715 150.289 154.5 
153.23 154.5 156.574 c 154.5 174 l 154.5 197.863 166.668 218.203 176.875
 231.062 c 179.582 234.473 182.977 238.238 186.699 241.957 c h
169.5 162.152 m 177.047 159.781 184.586 156.992 192 153.824 c 199.414 156.992
 206.953 159.781 214.5 162.152 c 214.5 174 l 214.5 193.543 204.102 210.746
 195.375 221.738 c 194.375 223 193.234 224.348 192 225.738 c 190.766 224.348
 189.625 222.996 188.625 221.738 c 179.898 210.746 169.5 193.539 169.5 174
 c h
169.5 162.152 m f
100.715 258.82 m 100.711 258.82 l 96.566 258.82 93.211 262.18 93.211 266.32
 c 93.211 270.461 96.574 273.82 100.715 273.82 c 104.859 273.82 108.215 
270.461 108.215 266.32 c 108.215 262.18 104.859 258.82 100.715 258.82 c 
h
100.715 258.82 m f
Q Q
showpage
%%Trailer
end
%%EOF
