%!PS-Adobe-3.0 EPSF-3.0
%%Creator: cairo 1.16.0 (https://cairographics.org)
%%CreationDate: Wed Sep 30 14:01:58 2020
%%Pages: 1
%%DocumentData: Clean7Bit
%%LanguageLevel: 2
%%BoundingBox: 0 0 384 384
%%EndComments
%%BeginProlog
50 dict begin
/q { gsave } bind def
/Q { grestore } bind def
/cm { 6 array astore concat } bind def
/w { setlinewidth } bind def
/J { setlinecap } bind def
/j { setlinejoin } bind def
/M { setmiterlimit } bind def
/d { setdash } bind def
/m { moveto } bind def
/l { lineto } bind def
/c { curveto } bind def
/h { closepath } bind def
/re { exch dup neg 3 1 roll 5 3 roll moveto 0 rlineto
      0 exch rlineto 0 rlineto closepath } bind def
/S { stroke } bind def
/f { fill } bind def
/f* { eofill } bind def
/n { newpath } bind def
/W { clip } bind def
/W* { eoclip } bind def
/BT { } bind def
/ET { } bind def
/BDC { mark 3 1 roll /BDC pdfmark } bind def
/EMC { mark /EMC pdfmark } bind def
/cairo_store_point { /cairo_point_y exch def /cairo_point_x exch def } def
/Tj { show currentpoint cairo_store_point } bind def
/TJ {
  {
    dup
    type /stringtype eq
    { show } { -0.001 mul 0 cairo_font_matrix dtransform rmoveto } ifelse
  } forall
  currentpoint cairo_store_point
} bind def
/cairo_selectfont { cairo_font_matrix aload pop pop pop 0 0 6 array astore
    cairo_font exch selectfont cairo_point_x cairo_point_y moveto } bind def
/Tf { pop /cairo_font exch def /cairo_font_matrix where
      { pop cairo_selectfont } if } bind def
/Td { matrix translate cairo_font_matrix matrix concatmatrix dup
      /cairo_font_matrix exch def dup 4 get exch 5 get cairo_store_point
      /cairo_font where { pop cairo_selectfont } if } bind def
/Tm { 2 copy 8 2 roll 6 array astore /cairo_font_matrix exch def
      cairo_store_point /cairo_font where { pop cairo_selectfont } if } bind def
/g { setgray } bind def
/rg { setrgbcolor } bind def
/d1 { setcachedevice } bind def
/cairo_data_source {
  CairoDataIndex CairoData length lt
    { CairoData CairoDataIndex get /CairoDataIndex CairoDataIndex 1 add def }
    { () } ifelse
} def
/cairo_flush_ascii85_file { cairo_ascii85_file status { cairo_ascii85_file flushfile } if } def
/cairo_image { image cairo_flush_ascii85_file } def
/cairo_imagemask { imagemask cairo_flush_ascii85_file } def
%%EndProlog
%%BeginSetup
%%EndSetup
%%Page: 1 1
%%BeginPageSetup
%%PageBoundingBox: 0 0 384 384
%%EndPageSetup
q 0 0 384 384 rectclip
1 0 0 -1 0 384 cm q
0 g
381.805 2.195 m 379.883 0.273 377.07 -0.457 374.457 0.285 c 333.109 11.988
 303.16 38.156 271.934 69.059 c 271.82 68.945 l 270.414 67.539 268.504 66.746
 266.516 66.746 c 264.527 66.746 262.621 67.539 261.215 68.945 c 218.836
 111.32 l 176.688 132.395 l 175.969 132.754 175.309 133.23 174.738 133.801
 c 124.832 183.711 l 121.902 186.637 121.902 191.387 124.832 194.316 c 127.762
 197.246 132.508 197.246 135.438 194.316 c 180.043 149.711 l 234.293 203.961
 l 97.352 340.895 l 43.102 286.648 l 87.703 242.047 l 90.633 239.117 90.633
 234.367 87.703 231.438 c 84.777 228.512 80.027 228.512 77.098 231.438 c
 27.191 281.344 l 26.469 282.066 25.902 282.934 25.523 283.883 c 15.539 
309.078 l 12.801 306.34 l 9.875 303.414 5.125 303.414 2.195 306.34 c -0.734
 309.27 -0.734 314.02 2.195 316.949 c 67.051 381.805 l 68.516 383.27 70.434
 384 72.355 384 c 74.273 384 76.191 383.27 77.656 381.805 c 80.586 378.875
 80.586 374.125 77.656 371.195 c 74.918 368.457 l 100.113 358.477 l 101.066
 358.098 101.93 357.531 102.656 356.805 c 250.199 209.262 l 250.77 208.691
 251.242 208.035 251.605 207.312 c 272.68 165.164 l 315.055 122.789 l 317.984
 119.859 317.984 115.109 315.055 112.18 c 314.938 112.066 l 345.836 80.844
 372.004 50.906 383.715 9.543 c 384.457 6.93 383.723 4.117 381.805 2.195
 c h
63.363 356.902 m 27.098 320.637 l 35.266 300.023 l 83.977 348.734 l h
242.84 191.297 m 192.703 141.156 l 221.797 126.609 l 257.391 162.203 l 
h
266.516 150.113 m 233.887 117.484 l 266.516 84.855 l 299.145 117.484 l 
h
304.336 101.461 m 282.539 79.664 l 309.273 53.191 333.496 31.637 364.578
 19.422 c 352.359 50.516 330.809 74.727 304.336 101.461 c h
304.336 101.461 m f
106.266 220.379 m 108.066 220.379 109.875 219.734 111.309 218.43 c 111.312
 218.426 l 114.379 215.637 114.602 210.898 111.816 207.832 c 109.031 204.766
 104.285 204.543 101.219 207.328 c 98.156 210.113 97.93 214.859 100.715 
217.922 c 102.195 219.551 104.227 220.379 106.266 220.379 c h
106.266 220.379 m f
Q Q
showpage
%%Trailer
end
%%EOF
