%!PS-Adobe-3.0 EPSF-3.0
%%Creator: cairo 1.16.0 (https://cairographics.org)
%%CreationDate: Wed Sep 30 14:02:00 2020
%%Pages: 1
%%DocumentData: Clean7Bit
%%LanguageLevel: 2
%%BoundingBox: 20 0 364 384
%%EndComments
%%BeginProlog
50 dict begin
/q { gsave } bind def
/Q { grestore } bind def
/cm { 6 array astore concat } bind def
/w { setlinewidth } bind def
/J { setlinecap } bind def
/j { setlinejoin } bind def
/M { setmiterlimit } bind def
/d { setdash } bind def
/m { moveto } bind def
/l { lineto } bind def
/c { curveto } bind def
/h { closepath } bind def
/re { exch dup neg 3 1 roll 5 3 roll moveto 0 rlineto
      0 exch rlineto 0 rlineto closepath } bind def
/S { stroke } bind def
/f { fill } bind def
/f* { eofill } bind def
/n { newpath } bind def
/W { clip } bind def
/W* { eoclip } bind def
/BT { } bind def
/ET { } bind def
/BDC { mark 3 1 roll /BDC pdfmark } bind def
/EMC { mark /EMC pdfmark } bind def
/cairo_store_point { /cairo_point_y exch def /cairo_point_x exch def } def
/Tj { show currentpoint cairo_store_point } bind def
/TJ {
  {
    dup
    type /stringtype eq
    { show } { -0.001 mul 0 cairo_font_matrix dtransform rmoveto } ifelse
  } forall
  currentpoint cairo_store_point
} bind def
/cairo_selectfont { cairo_font_matrix aload pop pop pop 0 0 6 array astore
    cairo_font exch selectfont cairo_point_x cairo_point_y moveto } bind def
/Tf { pop /cairo_font exch def /cairo_font_matrix where
      { pop cairo_selectfont } if } bind def
/Td { matrix translate cairo_font_matrix matrix concatmatrix dup
      /cairo_font_matrix exch def dup 4 get exch 5 get cairo_store_point
      /cairo_font where { pop cairo_selectfont } if } bind def
/Tm { 2 copy 8 2 roll 6 array astore /cairo_font_matrix exch def
      cairo_store_point /cairo_font where { pop cairo_selectfont } if } bind def
/g { setgray } bind def
/rg { setrgbcolor } bind def
/d1 { setcachedevice } bind def
/cairo_data_source {
  CairoDataIndex CairoData length lt
    { CairoData CairoDataIndex get /CairoDataIndex CairoDataIndex 1 add def }
    { () } ifelse
} def
/cairo_flush_ascii85_file { cairo_ascii85_file status { cairo_ascii85_file flushfile } if } def
/cairo_image { image cairo_flush_ascii85_file } def
/cairo_imagemask { imagemask cairo_flush_ascii85_file } def
%%EndProlog
%%BeginSetup
%%EndSetup
%%Page: 1 1
%%BeginPageSetup
%%PageBoundingBox: 20 0 364 384
%%EndPageSetup
q 20 0 344 384 rectclip
1 0 0 -1 0 384 cm q
0 g
327.633 2.195 m 324.703 -0.73 319.953 -0.73 317.023 2.195 c 115.891 203.328
 l 107.531 199.348 97.203 200.809 90.289 207.719 c 81.516 216.492 81.516
 230.766 90.289 239.539 c 101.32 250.57 l 51.738 309.164 l 43.473 305.477
 33.418 307.016 26.648 313.789 c 17.875 322.562 17.875 336.836 26.648 345.609
 c 58.465 377.43 l 62.703 381.664 68.355 384 74.375 384 c 80.398 384 86.047
 381.664 90.285 377.43 c 94.523 373.191 96.859 367.539 96.859 361.52 c 96.859
 358.297 96.184 355.184 94.914 352.332 c 153.504 302.754 l 164.535 313.785
 l 168.922 318.172 174.684 320.363 180.441 320.363 c 186.207 320.363 191.969
 318.172 196.355 313.785 c 202.809 307.328 204.508 297.898 201.461 289.867
 c 252.266 259.832 291.82 228.176 319.082 195.699 c 344.156 165.836 358.887
 135.352 362.871 105.086 c 367.875 67.094 355.027 29.594 327.633 2.195 c
 h
108.387 321.281 m 82.793 295.688 l 92.516 284.195 l 119.879 311.559 l h
63.348 318.668 m 73.07 307.176 l 96.898 331.004 l 85.406 340.73 l h
79.68 366.82 m 78.273 368.227 76.391 369 74.375 369 c 72.359 369 70.477
 368.227 69.074 366.82 c 37.254 335 l 34.328 332.078 34.328 327.32 37.254
 324.395 c 38.715 322.934 40.637 322.203 42.555 322.203 c 44.477 322.203
 46.398 322.934 47.859 324.395 c 79.68 356.215 l 81.082 357.621 81.855 359.504
 81.855 361.52 c 81.859 363.535 81.082 365.418 79.68 366.82 c h
131.371 301.836 m 102.238 272.703 l 111.961 261.215 l 142.859 292.113 l
 h
185.746 303.18 m 182.824 306.105 178.066 306.105 175.141 303.18 c 100.895
 228.934 l 97.969 226.008 97.969 221.25 100.895 218.328 c 102.355 216.867
 104.277 216.133 106.199 216.133 c 108.117 216.133 110.039 216.867 111.5
 218.328 c 185.746 292.574 l 188.672 295.496 188.672 300.254 185.746 303.18
 c h
348 103.129 m 342.559 144.457 310.996 208.098 192.266 277.879 c 186.105
 271.719 l 223.41 244.684 253.223 216.684 274.789 188.402 c 277.305 185.109
 276.668 180.402 273.375 177.891 c 270.078 175.379 265.375 176.012 262.863
 179.305 c 241.812 206.906 212.387 234.363 175.359 260.973 c 127.41 213.023
 l 297.297 43.137 l 302.742 60.363 306.473 87.848 294.395 122.543 c 293.031
 126.453 295.098 130.73 299.012 132.09 c 299.828 132.375 300.66 132.508 
301.477 132.508 c 304.578 132.508 307.48 130.57 308.559 127.473 c 323.773
 83.785 316.297 49.949 309.043 31.391 c 322.148 18.285 l 336.008 34.117 
353.32 62.703 348 103.129 c h
348 103.129 m f
287.48 148.223 m 287.477 148.223 l 283.332 148.223 279.977 151.582 279.977
 155.723 c 279.977 159.867 283.34 163.223 287.48 163.223 c 291.621 163.223
 294.98 159.867 294.98 155.723 c 294.98 151.582 291.621 148.223 287.48 148.223
 c h
287.48 148.223 m f
Q Q
showpage
%%Trailer
end
%%EOF
