%!PS-Adobe-3.0 EPSF-3.0
%%Creator: cairo 1.16.0 (https://cairographics.org)
%%CreationDate: Wed Sep 30 14:02:03 2020
%%Pages: 1
%%DocumentData: Clean7Bit
%%LanguageLevel: 2
%%BoundingBox: 57 0 327 384
%%EndComments
%%BeginProlog
50 dict begin
/q { gsave } bind def
/Q { grestore } bind def
/cm { 6 array astore concat } bind def
/w { setlinewidth } bind def
/J { setlinecap } bind def
/j { setlinejoin } bind def
/M { setmiterlimit } bind def
/d { setdash } bind def
/m { moveto } bind def
/l { lineto } bind def
/c { curveto } bind def
/h { closepath } bind def
/re { exch dup neg 3 1 roll 5 3 roll moveto 0 rlineto
      0 exch rlineto 0 rlineto closepath } bind def
/S { stroke } bind def
/f { fill } bind def
/f* { eofill } bind def
/n { newpath } bind def
/W { clip } bind def
/W* { eoclip } bind def
/BT { } bind def
/ET { } bind def
/BDC { mark 3 1 roll /BDC pdfmark } bind def
/EMC { mark /EMC pdfmark } bind def
/cairo_store_point { /cairo_point_y exch def /cairo_point_x exch def } def
/Tj { show currentpoint cairo_store_point } bind def
/TJ {
  {
    dup
    type /stringtype eq
    { show } { -0.001 mul 0 cairo_font_matrix dtransform rmoveto } ifelse
  } forall
  currentpoint cairo_store_point
} bind def
/cairo_selectfont { cairo_font_matrix aload pop pop pop 0 0 6 array astore
    cairo_font exch selectfont cairo_point_x cairo_point_y moveto } bind def
/Tf { pop /cairo_font exch def /cairo_font_matrix where
      { pop cairo_selectfont } if } bind def
/Td { matrix translate cairo_font_matrix matrix concatmatrix dup
      /cairo_font_matrix exch def dup 4 get exch 5 get cairo_store_point
      /cairo_font where { pop cairo_selectfont } if } bind def
/Tm { 2 copy 8 2 roll 6 array astore /cairo_font_matrix exch def
      cairo_store_point /cairo_font where { pop cairo_selectfont } if } bind def
/g { setgray } bind def
/rg { setrgbcolor } bind def
/d1 { setcachedevice } bind def
/cairo_data_source {
  CairoDataIndex CairoData length lt
    { CairoData CairoDataIndex get /CairoDataIndex CairoDataIndex 1 add def }
    { () } ifelse
} def
/cairo_flush_ascii85_file { cairo_ascii85_file status { cairo_ascii85_file flushfile } if } def
/cairo_image { image cairo_flush_ascii85_file } def
/cairo_imagemask { imagemask cairo_flush_ascii85_file } def
%%EndProlog
%%BeginSetup
%%EndSetup
%%Page: 1 1
%%BeginPageSetup
%%PageBoundingBox: 57 0 327 384
%%EndPageSetup
q 57 0 270 384 rectclip
1 0 0 -1 0 384 cm q
0 g
321.785 57.348 m 327.566 51.566 327.516 42.109 321.672 36.266 c 289.824
 4.414 l 283.977 -1.43 274.523 -1.477 268.742 4.301 c 248.117 24.926 241.309
 35.453 233.422 47.645 c 232.746 48.688 232.062 49.746 231.359 50.828 c 
229.098 54.297 230.078 58.941 233.551 61.203 c 237.023 63.465 241.668 62.484
 243.93 59.012 c 244.641 57.918 245.332 56.848 246.016 55.789 c 253.73 43.867
 259.82 34.445 279.223 15.031 c 311.047 46.871 l 291.637 66.266 282.215 
72.359 270.297 80.066 c 253.531 90.914 232.773 104.34 176.422 160.258 c 
165.828 149.664 l 179.496 135.891 191.109 123.77 201.191 112.75 c 203.984
 109.695 203.773 104.953 200.719 102.156 c 197.66 99.359 192.918 99.57 190.121
 102.625 c 178.918 114.875 165.77 128.527 149.93 144.371 c 123.535 170.762
 l 115.156 162.383 l 106.371 153.602 92.078 153.598 83.293 162.383 c 79.051
 166.625 76.715 172.285 76.711 178.312 c 76.711 184.344 79.051 190 83.293
 194.246 c 91.672 202.625 l 86.383 207.914 l 48.422 245.875 48.422 307.645
 86.383 345.605 c 107.562 366.785 l 110.391 369.609 114.152 371.164 118.164
 371.164 c 119.484 371.164 120.777 370.98 122.023 370.648 c 128.781 377.41
 l 133.176 381.805 138.945 384 144.715 384 c 150.484 384 156.254 381.805
 160.645 377.41 c 171.16 366.895 l 175.406 362.652 177.742 356.992 177.742
 350.965 c 177.742 344.934 175.406 339.277 171.16 335.031 c 164.402 328.273
 l 164.73 327.027 164.914 325.734 164.914 324.414 c 164.914 320.402 163.359
 316.641 160.535 313.812 c 139.355 292.637 l 126.578 279.859 124.988 260.062
 134.586 245.539 c 143.684 254.637 l 150.086 261.039 158.492 264.238 166.902
 264.238 c 175.309 264.238 183.719 261.039 190.121 254.637 c 215.027 229.727
 l 219.262 225.496 221.594 219.852 221.594 213.836 c 221.594 207.82 219.262
 202.176 215.027 197.941 c 208.66 191.574 l 276.875 123.359 l 285.211 115.023
 285.609 101.715 278.086 92.895 c 278.203 92.816 278.324 92.738 278.441 
92.664 c 290.633 84.781 301.16 77.969 321.785 57.348 c h
134.051 223.789 m 112.887 202.625 l 155.23 160.281 l 171.105 176.16 l 175.668
 180.719 175.25 182.594 171.57 186.27 c h
93.898 183.641 m 92.488 182.227 91.711 180.336 91.711 178.312 c 91.711 
176.289 92.488 174.398 93.898 172.988 c 96.836 170.055 101.613 170.055 104.547
 172.988 c 112.93 181.371 l 102.281 192.02 l h
160.555 356.289 m 150.039 366.805 l 147.102 369.742 142.324 369.738 139.391
 366.805 c 134.066 361.48 l 155.23 340.312 l 160.555 345.641 l 161.965 347.051
 162.742 348.941 162.742 350.965 c 162.742 352.988 161.965 354.879 160.555
 356.289 c h
128.75 303.242 m 149.926 324.406 l 118.172 356.18 l 96.992 335 l 64.879
 302.887 64.879 250.633 96.992 218.52 c 102.281 213.23 l 123.832 234.785
 l 108.473 255.305 110.105 284.602 128.75 303.242 c h
204.422 219.121 m 179.516 244.031 l 172.562 250.984 161.246 250.984 154.293
 244.031 c 144.66 234.398 l 155.418 223.641 l 161.406 228.07 168.492 230.969
 175.91 231.938 c 176.238 231.984 176.57 232.004 176.895 232.004 c 180.602
 232.004 183.824 229.254 184.32 225.477 c 184.859 221.371 181.965 217.605
 177.859 217.066 c 173.711 216.523 169.727 215.066 166.199 212.855 c 177.789
 201.266 l 180.84 202.719 184.152 203.449 187.465 203.449 c 190.777 203.449
 194.09 202.719 197.141 201.266 c 204.422 208.547 l 205.824 209.949 206.594
 211.828 206.594 213.836 c 206.594 215.844 205.824 217.723 204.422 219.121
 c h
266.27 102.18 m 269.184 105.094 269.184 109.84 266.27 112.754 c 192.75 
186.27 l 191.438 187.586 189.75 188.305 188.023 188.43 c 190.309 182.859
 189.77 177.059 186.418 171.473 c 228.539 129.637 250.309 112.004 265.441
 101.352 c h
266.27 102.18 m f
217.785 89.707 m 221.926 89.707 225.285 86.348 225.285 82.207 c 225.285
 78.062 221.926 74.707 217.785 74.707 c 217.781 74.707 l 213.641 74.707 
210.285 78.062 210.285 82.207 c 210.285 86.348 213.645 89.707 217.785 89.707
 c h
217.785 89.707 m f
Q Q
showpage
%%Trailer
end
%%EOF
