%!PS-Adobe-3.0 EPSF-3.0
%%Creator: cairo 1.16.0 (https://cairographics.org)
%%CreationDate: Wed Sep 30 14:02:06 2020
%%Pages: 1
%%DocumentData: Clean7Bit
%%LanguageLevel: 2
%%BoundingBox: 0 0 384 384
%%EndComments
%%BeginProlog
50 dict begin
/q { gsave } bind def
/Q { grestore } bind def
/cm { 6 array astore concat } bind def
/w { setlinewidth } bind def
/J { setlinecap } bind def
/j { setlinejoin } bind def
/M { setmiterlimit } bind def
/d { setdash } bind def
/m { moveto } bind def
/l { lineto } bind def
/c { curveto } bind def
/h { closepath } bind def
/re { exch dup neg 3 1 roll 5 3 roll moveto 0 rlineto
      0 exch rlineto 0 rlineto closepath } bind def
/S { stroke } bind def
/f { fill } bind def
/f* { eofill } bind def
/n { newpath } bind def
/W { clip } bind def
/W* { eoclip } bind def
/BT { } bind def
/ET { } bind def
/BDC { mark 3 1 roll /BDC pdfmark } bind def
/EMC { mark /EMC pdfmark } bind def
/cairo_store_point { /cairo_point_y exch def /cairo_point_x exch def } def
/Tj { show currentpoint cairo_store_point } bind def
/TJ {
  {
    dup
    type /stringtype eq
    { show } { -0.001 mul 0 cairo_font_matrix dtransform rmoveto } ifelse
  } forall
  currentpoint cairo_store_point
} bind def
/cairo_selectfont { cairo_font_matrix aload pop pop pop 0 0 6 array astore
    cairo_font exch selectfont cairo_point_x cairo_point_y moveto } bind def
/Tf { pop /cairo_font exch def /cairo_font_matrix where
      { pop cairo_selectfont } if } bind def
/Td { matrix translate cairo_font_matrix matrix concatmatrix dup
      /cairo_font_matrix exch def dup 4 get exch 5 get cairo_store_point
      /cairo_font where { pop cairo_selectfont } if } bind def
/Tm { 2 copy 8 2 roll 6 array astore /cairo_font_matrix exch def
      cairo_store_point /cairo_font where { pop cairo_selectfont } if } bind def
/g { setgray } bind def
/rg { setrgbcolor } bind def
/d1 { setcachedevice } bind def
/cairo_data_source {
  CairoDataIndex CairoData length lt
    { CairoData CairoDataIndex get /CairoDataIndex CairoDataIndex 1 add def }
    { () } ifelse
} def
/cairo_flush_ascii85_file { cairo_ascii85_file status { cairo_ascii85_file flushfile } if } def
/cairo_image { image cairo_flush_ascii85_file } def
/cairo_imagemask { imagemask cairo_flush_ascii85_file } def
%%EndProlog
%%BeginSetup
%%EndSetup
%%Page: 1 1
%%BeginPageSetup
%%PageBoundingBox: 0 0 384 384
%%EndPageSetup
q 0 0 384 384 rectclip
1 0 0 -1 0 384 cm q
0 g
316.5 0 m 312.359 0 309 3.359 309 7.5 c 309 30 l 309 34.141 312.359 37.5
 316.5 37.5 c 320.641 37.5 324 34.141 324 30 c 324 7.5 l 324 3.359 320.641
 0 316.5 0 c h
316.5 0 m f
284.68 46.285 m 286.145 47.75 288.066 48.484 289.984 48.484 c 291.902 48.484
 293.824 47.75 295.289 46.285 c 298.215 43.359 298.215 38.609 295.289 35.68
 c 279.375 19.77 l 276.449 16.844 271.699 16.844 268.77 19.77 c 265.84 22.699
 265.84 27.449 268.77 30.379 c h
284.68 46.285 m f
348.32 88.711 m 345.391 85.785 340.641 85.785 337.715 88.711 c 334.785 
91.641 334.785 96.391 337.715 99.32 c 353.625 115.23 l 355.09 116.695 357.008
 117.426 358.926 117.426 c 360.848 117.426 362.766 116.695 364.23 115.23
 c 367.16 112.301 367.16 107.551 364.23 104.621 c h
348.32 88.711 m f
376.5 60 m 354 60 l 349.859 60 346.5 63.359 346.5 67.5 c 346.5 71.641 349.859
 75 354 75 c 376.5 75 l 380.641 75 384 71.641 384 67.5 c 384 63.359 380.641
 60 376.5 60 c h
376.5 60 m f
343.016 48.484 m 344.938 48.484 346.855 47.75 348.32 46.285 c 364.23 30.379
 l 367.16 27.449 367.16 22.699 364.23 19.77 c 361.301 16.844 356.551 16.844
 353.621 19.77 c 337.715 35.68 l 334.785 38.609 334.785 43.355 337.715 46.285
 c 339.18 47.75 341.098 48.484 343.016 48.484 c h
343.016 48.484 m f
316.5 60 m 293.602 60 289.434 77.047 286.387 89.492 c 283.238 102.367 281.059
 109.023 269.422 109.949 c 250.523 91.051 l 241.75 82.281 227.477 82.277
 218.703 91.051 c 136.504 173.25 l 133.574 176.18 133.574 180.93 136.504
 183.859 c 139.434 186.785 144.18 186.785 147.109 183.859 c 176.277 154.691
 l 229.309 207.727 l 123.246 313.785 l 70.215 260.754 l 99.379 231.586 l
 102.309 228.66 102.309 223.91 99.379 220.98 c 96.453 218.051 91.703 218.051
 88.773 220.98 c 6.57 303.184 l 2.336 307.422 0 313.07 0 319.094 c 0 325.113
 2.336 330.766 6.57 335 c 49 377.43 l 53.238 381.664 58.887 384 64.91 384
 c 70.93 384 76.578 381.664 80.816 377.43 c 292.949 165.297 l 301.723 156.523
 301.723 142.25 292.949 133.477 c 281.73 122.258 l 295.219 116.453 298.566
 102.832 300.957 93.055 c 304.297 79.41 306.238 75 316.5 75 c 320.641 75
 324 71.641 324 67.5 c 324 63.359 320.641 60 316.5 60 c h
186.883 144.086 m 202.793 128.176 l 255.828 181.207 l 239.914 197.117 l
 h
112.641 324.391 m 96.73 340.305 l 43.695 287.27 l 59.609 271.359 l h
70.211 366.82 m 68.805 368.227 66.922 369 64.91 369 c 62.895 369 61.012
 368.227 59.605 366.82 c 17.18 324.395 l 15.773 322.992 15 321.109 15 319.094
 c 15 317.078 15.773 315.195 17.18 313.789 c 33.09 297.879 l 86.121 350.91
 l h
282.344 154.691 m 266.434 170.602 l 213.398 117.566 l 229.309 101.656 l
 232.234 98.734 236.992 98.734 239.914 101.656 c 282.344 144.082 l 285.266
 147.008 285.266 151.766 282.344 154.691 c h
282.344 154.691 m f
117.945 209.918 m 122.09 209.918 125.445 206.562 125.445 202.418 c 125.445
 198.277 122.09 194.918 117.945 194.918 c 117.941 194.918 l 113.801 194.918
 110.445 198.277 110.445 202.418 c 110.445 206.562 113.805 209.918 117.945
 209.918 c h
117.945 209.918 m f
Q Q
showpage
%%Trailer
end
%%EOF
